# mesh_time
0.025 0.075 0.125 0.175 0.225 0.275 0.325 0.375
0.425 0.475 0.525 0.575 0.625 0.675 0.725 0.775
0.825 0.875 0.925 0.975
# mesh_space
0 0.025 0.05 0.075 0.1 0.125 0.15 0.175
0.2 0.225 0.25 0.275 0.3 0.325 0.35 0.375
0.4 0.425 0.45 0.475 0.5 0.525 0.55 0.575
0.6 0.625 0.65 0.675 0.7 0.725 0.75 0.775
0.8 0.825 0.85 0.875 0.9 0.925 0.95 0.975
1 0.0125 0.0375 0.0625 0.0875 0.1125 0.1375 0.1625
0.1875 0.2125 0.2375 0.2625 0.2875 0.3125 0.3375 0.3625
0.3875 0.4125 0.4375 0.4625 0.4875 0.5125 0.5375 0.5625
0.5875 0.6125 0.6375 0.6625 0.6875 0.7125 0.7375 0.7625
0.7875 0.8125 0.8375 0.8625 0.8875 0.9125 0.9375 0.9625
0.9875 0.00625 0.03125 0.05625 0.08125 0.10625 0.13125 0.15625
0.18125 0.20625 0.23125 0.25625 0.28125 0.30625 0.33125 0.35625
0.38125 0.40625 0.43125 0.45625 0.48125 0.50625 0.53125 0.55625
0.58125 0.60625 0.63125 0.65625 0.68125 0.70625 0.73125 0.75625
0.78125 0.80625 0.83125 0.85625 0.88125 0.90625 0.93125 0.95625
0.98125 0.01875 0.04375 0.06875 0.09375 0.11875 0.14375 0.16875
0.19375 0.21875 0.24375 0.26875 0.29375 0.31875 0.34375 0.36875
0.39375 0.41875 0.44375 0.46875 0.49375 0.51875 0.54375 0.56875
0.59375 0.61875 0.64375 0.66875 0.69375 0.71875 0.74375 0.76875
0.79375 0.81875 0.84375 0.86875 0.89375 0.91875 0.94375 0.96875
0.99375
# data u
[row +0]
+2.576276e+00 +2.523099e+00 +2.371278e+00 +1.916154e+00
+1.293908e+00 +5.021011e-01 -4.033445e-01 -1.376946e+00
-1.700000e+00 -1.900000e+00 -2.100000e+00 -2.300000e+00
-2.500000e+00 -2.700000e+00 -2.900000e+00 -3.100000e+00
-3.300000e+00 -3.500000e+00 -3.098186e+00 -1.092236e+00
[row +1]
+2.841141e+00 +2.807343e+00 +2.618867e+00 +2.114120e+00
+1.406849e+00 +5.290951e-01 -4.865621e-01 -1.561803e+00
-2.000000e+00 -2.200000e+00 -2.400000e+00 -2.600000e+00
-2.800000e+00 -3.000000e+00 -3.200000e+00 -3.400000e+00
-3.600000e+00 -3.800000e+00 -3.553059e+00 -1.296097e+00
[row +2]
+3.132309e+00 +3.137678e+00 +2.905357e+00 +2.341291e+00
+1.557897e+00 +5.990530e-01 -5.026070e-01 -1.658774e+00
-2.300000e+00 -2.500000e+00 -2.700000e+00 -2.900000e+00
-3.100000e+00 -3.300000e+00 -3.500000e+00 -3.700000e+00
-3.900000e+00 -4.100000e+00 -4.019852e+00 -1.513691e+00
[row +3]
+3.447254e+00 +3.504243e+00 +3.223249e+00 +2.593005e+00
+1.742565e+00 +7.096151e-01 -4.569310e-01 -1.673894e+00
-2.600000e+00 -2.800000e+00 -3.000000e+00 -3.200000e+00
-3.400000e+00 -3.600000e+00 -3.800000e+00 -4.000000e+00
-4.200000e+00 -4.400000e+00 -4.493508e+00 -1.743997e+00
[row +4]
+3.774195e+00 +3.892723e+00 +3.556152e+00 +2.860963e+00
+1.950011e+00 +8.554806e-01 -3.595016e-01 -1.615950e+00
-2.824425e+00 -3.100000e+00 -3.300000e+00 -3.500000e+00
-3.700000e+00 -3.900000e+00 -4.100000e+00 -4.300000e+00
-4.500000e+00 -4.700000e+00 -4.900000e+00 -1.981541e+00
[row +5]
+4.098956e+00 +4.283228e+00 +3.885947e+00 +3.132208e+00
+2.168647e+00 +1.027452e+00 -2.201373e-01 -1.496829e+00
-2.710552e+00 -3.400000e+00 -3.600000e+00 -3.800000e+00
-4.000000e+00 -4.200000e+00 -4.400000e+00 -4.600000e+00
-4.800000e+00 -5.000000e+00 -5.200000e+00 -2.218051e+00
[row +6]
+4.406169e+00 +4.653453e+00 +4.194362e+00 +3.392023e+00
+2.386753e+00 +1.215011e+00 -4.848318e-02 -1.328947e+00
-2.534018e+00 -3.596001e+00 -3.900000e+00 -4.100000e+00
-4.300000e+00 -4.500000e+00 -4.700000e+00 -4.900000e+00
-5.100000e+00 -5.300000e+00 -5.500000e+00 -2.443561e+00
[row +7]
+4.679808e+00 +4.981437e+00 +4.463809e+00 +3.626298e+00
+2.592636e+00 +1.408347e+00 +1.456205e-01 -1.123323e+00
-2.308498e+00 -3.351312e+00 -4.200000e+00 -4.400000e+00
-4.600000e+00 -4.800000e+00 -5.000000e+00 -5.200000e+00
-5.400000e+00 -5.600000e+00 -5.800000e+00 -2.647256e+00
[row +8]
+4.904388e+00 +5.246828e+00 +4.678823e+00 +3.822221e+00
+2.775759e+00 +1.598594e+00 +3.529840e-01 -8.896301e-01
-2.046159e+00 -3.065557e+00 -3.918839e+00 -4.633266e+00
-4.900000e+00 -5.100000e+00 -5.300000e+00 -5.500000e+00
-5.700000e+00 -5.900000e+00 -6.100000e+00 -2.818225e+00
[row +9]
+5.065863e+00 +5.431871e+00 +4.827049e+00 +3.968658e+00
+2.927581e+00 +1.777780e+00 +5.657525e-01 -6.365508e-01
-1.757191e+00 -2.750262e+00 -3.597161e+00 -4.327376e+00
-4.997219e+00 -5.400000e+00 -5.600000e+00 -5.800000e+00
-6.000000e+00 -6.200000e+00 -6.400000e+00 -2.946128e+00
[row +10]
+5.151957e+00 +5.522579e+00 +4.899368e+00 +4.056836e+00
+3.041598e+00 +1.939210e+00 +7.773238e-01 -3.716080e-01
-1.450132e+00 -2.414807e+00 -3.255199e+00 -3.997903e+00
-4.690364e+00 -5.374247e+00 -5.900000e+00 -6.100000e+00
-6.300000e+00 -6.500000e+00 -6.620737e+00 -3.021763e+00
[row +11]
+5.152636e+00 +5.509396e+00 +4.890002e+00 +4.080626e+00
+3.113416e+00 +2.077517e+00 +9.823869e-01 -1.012827e-01
-1.132008e+00 -2.066870e+00 -2.900977e+00 -3.653035e+00
-4.361009e+00 -5.056300e+00 -5.733238e+00 -6.355990e+00
-6.600000e+00 -6.800000e+00 -6.553683e+00 -3.037595e+00
[row +12]
+5.060521e+00 +5.387649e+00 +4.796378e+00 +4.036736e+00
+3.140623e+00 +2.188724e+00 +1.176822e+00 +1.689118e-01
-8.085549e-01 -1.712753e+00 -2.540758e+00 -3.299278e+00
-4.015566e+00 -4.709590e+00 -5.378703e+00 -5.991349e+00
-6.485927e+00 -6.729746e+00 -6.364225e+00 -2.988223e+00
[row +13]
+4.871271e+00 +5.157712e+00 +4.618854e+00 +3.924797e+00
+3.122525e+00 +2.270283e+00 +1.357524e+00 +4.343881e-01
-4.844579e-01 -1.357636e+00 -2.179455e+00 -2.941860e+00
-3.659281e+00 -4.339893e+00 -4.985135e+00 -5.568464e+00
-6.051458e+00 -6.309137e+00 -6.053282e+00 -2.870784e+00
[row +14]
+4.583975e+00 +4.824850e+00 +4.360423e+00 +3.747271e+00
+3.059867e+00 +2.321069e+00 +1.522202e+00 +6.914478e-01
-1.635788e-01 -1.005764e+00 -1.820954e+00 -2.585029e+00
-3.296532e+00 -3.952521e+00 -4.558603e+00 -5.094808e+00
-5.545387e+00 -5.796405e+00 -5.626504e+00 -2.685268e+00
[row +15]
+4.201499e+00 +4.398726e+00 +4.026410e+00 +3.509219e+00
+2.954539e+00 +2.341331e+00 +1.669181e+00 +9.372687e-01
+1.508175e-01 -6.605578e-01 -1.468410e+00 -2.232236e+00
-2.931090e+00 -3.552432e+00 -4.105264e+00 -4.578525e+00
-4.977131e+00 -5.202807e+00 -5.093945e+00 -2.434693e+00
[row +16]
+3.730740e+00 +3.892583e+00 +3.624230e+00 +3.217866e+00
+2.809363e+00 +2.332548e+00 +1.797254e+00 +1.169858e+00
+4.558885e-01 -3.247031e-01 -1.124482e+00 -1.886252e+00
-2.566317e+00 -3.144257e+00 -3.631400e+00 -4.028252e+00
-4.357456e+00 -4.541570e+00 -4.469503e+00 -2.125084e+00
[row +17]
+3.182706e+00 +3.322149e+00 +3.163210e+00 +2.881978e+00
+2.628000e+00 +2.297160e+00 +1.905641e+00 +1.387929e+00
+7.491351e-01 -2.649407e-04 -7.914663e-01 -1.549285e+00
-2.205281e+00 -2.732309e+00 -3.143380e+00 -3.452894e+00
-3.698136e+00 -3.827331e+00 -3.770143e+00 -1.765226e+00
[row +18]
+2.572288e+00 +2.704400e+00 +2.654411e+00 +2.511139e+00
+2.414937e+00 +2.238210e+00 +1.994048e+00 +1.590701e+00
+1.028418e+00 +3.111509e-01 -4.713391e-01 -1.223109e+00
-1.850791e+00 -2.320612e+00 -2.647558e+00 -2.861412e+00
-3.011540e+00 -3.075543e+00 -3.014959e+00 -1.366186e+00
[row +19]
+1.917612e+00 +2.056367e+00 +2.110358e+00 +2.115046e+00
+2.175486e+00 +2.158967e+00 +2.062758e+00 +1.777678e+00
+1.292029e+00 +6.082203e-01 -1.657377e-01 -9.092152e-01
-1.505377e+00 -1.912937e+00 -2.150122e+00 -2.262623e+00
-2.310171e+00 -2.301879e+00 -2.224116e+00 -9.406093e-01
[row +20]
+1.238920e+00 +1.394177e+00 +1.544585e+00 +1.702953e+00
+1.915693e+00 +2.062635e+00 +2.112676e+00 +1.948469e+00
+1.538741e+00 +8.897561e-01 +1.240709e-01 -6.089234e-01
-1.171250e+00 -1.512838e+00 -1.656953e+00 -1.665027e+00
-1.606215e+00 -1.521658e+00 -1.417783e+00 -5.018565e-01
[row +21]
+5.570759e-01 +7.324348e-01 +9.709631e-01 +1.283360e+00
+1.642101e+00 +1.952218e+00 +2.145270e+00 +2.102710e+00
+1.767803e+00 +1.154640e+00 +3.971788e-01 -3.234488e-01
-8.502920e-01 -1.123649e+00 -1.173498e+00 -1.076627e+00
-9.111372e-01 -7.493183e-01 -6.151311e-01 -6.307883e-02
[row +22]
-1.080857e-01 +8.394695e-02 +4.028917e-01 +8.639350e-01
+1.361376e+00 +1.830529e+00 +2.162402e+00 +2.240100e+00
+1.978839e+00 +1.401839e+00 +6.529721e-01 -5.389694e-02
-5.440907e-01 -7.484523e-01 -7.047043e-01 -5.047689e-01
-2.353635e-01 +2.045641e-03 +1.665029e-01 +3.636514e-01
[row +23]
-7.392636e-01 -5.403102e-01 -1.474929e-01 +4.515727e-01
+1.079893e+00 +1.700299e+00 +2.166096e+00 +2.360502e+00
+2.171713e+00 +1.630480e+00 +8.910319e-01 +1.987815e-01
-2.539928e-01 -3.900168e-01 -2.549806e-01 +4.401008e-02
+4.119501e-01 +7.210366e-01 +9.122497e-01 +7.680412e-01
[row +24]
-1.322766e+00 -1.131117e+00 -6.699400e-01 +5.249220e-02
+8.033767e-01 +1.564276e+00 +2.158329e+00 +2.464030e+00
+2.346393e+00 +1.839918e+00 +1.111041e+00 +4.338404e-01
+1.883636e-02 -5.074419e-02 +1.718133e-01 +5.640864e-01
+1.023064e+00 +1.398188e+00 +1.610090e+00 +1.142028e+00
[row +25]
-1.849012e+00 -1.680935e+00 -1.156425e+00 -3.277292e-01
+5.366828e-01 +1.425263e+00 +2.140899e+00 +2.551100e+00
+2.502871e+00 +2.029777e+00 +1.312731e+00 +6.507622e-01
+2.733807e-01 +2.673589e-01 +5.723774e-01 +1.050809e+00
+1.591728e+00 +2.026065e+00 +2.251003e+00 +1.479958e+00
[row +26]
-2.312476e+00 -2.183879e+00 -1.601194e+00 -6.842014e-01
+2.837322e-01 +1.286068e+00 +2.115386e+00 +2.622402e+00
+2.641152e+00 +2.199933e+00 +1.495872e+00 +8.492450e-01
+5.087716e-01 +5.626779e-01 +9.439843e-01 +1.500504e+00
+2.113187e+00 +2.599232e+00 +2.828892e+00 +1.778507e+00
[row +27]
-2.711189e+00 -2.635695e+00 -2.000583e+00 -1.012818e+00
+4.756848e-02 +1.149397e+00 +2.083180e+00 +2.678818e+00
+2.761281e+00 +2.350467e+00 +1.660301e+00 +1.029165e+00
+7.243068e-01 +8.339638e-01 +1.284489e+00 +1.910433e+00
+2.584133e+00 +3.114133e+00 +3.340352e+00 +2.036421e+00
[row +28]
-3.046016e+00 -3.033728e+00 -2.352694e+00 -1.310355e+00
-1.695223e-01 +1.017730e+00 +2.045541e+00 +2.721341e+00
+2.863394e+00 +2.481606e+00 +1.805957e+00 +1.190534e+00
+9.194744e-01 +1.080297e+00 +1.592329e+00 +2.278734e+00
+3.002603e+00 +3.568887e+00 +3.784307e+00 +2.254139e+00
[row +29]
-3.319858e+00 -3.376819e+00 -2.657036e+00 -1.574519e+00
-3.658788e-01 +8.932203e-01 +2.003653e+00 +2.750986e+00
+2.947756e+00 +2.593668e+00 +1.932909e+00 +1.333459e+00
+1.093968e+00 +1.301052e+00 +1.866504e+00 +2.604332e+00
+3.367832e+00 +3.963056e+00 +4.161588e+00 +2.433371e+00
[row +30]
-3.536925e+00 -3.665143e+00 -2.914180e+00 -1.803941e+00
-5.403511e-01 +7.776368e-01 +1.958656e+00 +2.768747e+00
+3.014781e+00 +2.687037e+00 +2.041372e+00 +1.458124e+00
+1.247687e+00 +1.495877e+00 +2.106538e+00 +2.886857e+00
+3.680089e+00 +4.297385e+00 +4.474495e+00 +2.576698e+00
[row +31]
-3.702129e+00 -3.899985e+00 -3.125472e+00 -1.998099e+00
-6.922177e-01 +6.723517e-01 +1.911648e+00 +2.775569e+00
+3.065024e+00 +2.762153e+00 +2.131696e+00 +1.564786e+00
+1.380726e+00 +1.664670e+00 +2.312427e+00 +3.126557e+00
+3.940490e+00 +4.573559e+00 +4.726380e+00 +2.687215e+00
[row +32]
-3.820632e+00 -4.083491e+00 -3.292802e+00 -2.157201e+00
-8.211303e-01 +5.783634e-01 +1.863671e+00 +2.772356e+00
+3.099164e+00 +2.819519e+00 +2.204351e+00 +1.653775e+00
+1.493348e+00 +1.807569e+00 +2.484580e+00 +3.324208e+00
+4.150814e+00 +4.793974e+00 +4.921270e+00 +2.768244e+00
[row +33]
-3.897531e+00 -4.218406e+00 -3.418432e+00 -2.282035e+00
-9.270774e-01 +4.963424e-01 +1.815678e+00 +2.759980e+00
+3.117970e+00 +2.859713e+00 +2.259903e+00 +1.725508e+00
+1.585963e+00 +1.924944e+00 +2.623747e+00 +3.481030e+00
+4.313331e+00 +4.961528e+00 +5.063552e+00 +2.823111e+00
[row +34]
-3.937655e+00 -4.307842e+00 -3.504870e+00 -2.373828e+00
-1.010357e+00 +4.266885e-01 +1.768508e+00 +2.739304e+00
+3.122270e+00 +2.883408e+00 +2.298986e+00 +1.780499e+00
+1.659096e+00 +2.017381e+00 +2.730960e+00 +3.598610e+00
+4.430647e+00 +5.079448e+00 +5.157725e+00 +2.854990e+00
[row +35]
-3.945452e+00 -4.355076e+00 -3.554771e+00 -2.434102e+00
-1.071553e+00 +3.695868e-01 +1.722856e+00 +2.711196e+00
+3.112921e+00 +2.891385e+00 +2.322282e+00 +1.819367e+00
+1.713360e+00 +2.085675e+00 +2.807466e+00 +3.678825e+00
+4.505568e+00 +5.151143e+00 +5.208207e+00 +2.866801e+00
[row +36]
-3.924926e+00 -4.363399e+00 -3.570856e+00 -2.464561e+00
-1.111496e+00 +3.250513e-01 +1.679267e+00 +2.676543e+00
+3.090792e+00 +2.884533e+00 +2.330507e+00 +1.842835e+00
+1.749446e+00 +2.130801e+00 +2.854682e+00 +3.723767e+00
+4.540993e+00 +5.180084e+00 +5.219200e+00 +2.861146e+00
[row +37]
-3.879586e+00 -4.336023e+00 -3.555829e+00 -2.467027e+00
-1.131210e+00 +2.929427e-01 +1.638148e+00 +2.636227e+00
+3.056770e+00 +2.863835e+00 +2.324415e+00 +1.851713e+00
+1.768111e+00 +2.153891e+00 +2.874150e+00 +3.735675e+00
+4.539833e+00 +5.169712e+00 +5.194605e+00 +2.840285e+00
[row +38]
-3.812389e+00 -4.276078e+00 -3.512260e+00 -2.443431e+00
-1.131808e+00 +2.729390e-01 +1.599828e+00 +2.591080e+00
+3.011797e+00 +2.830322e+00 +2.304834e+00 +1.846857e+00
+1.770205e+00 +2.156175e+00 +2.867529e+00 +3.716852e+00
+4.504957e+00 +5.123350e+00 +5.137974e+00 +2.806123e+00
[row +39]
-3.725588e+00 -4.186724e+00 -3.442389e+00 -2.395911e+00
-1.114316e+00 +2.644239e-01 +1.564696e+00 +2.375000e+00
+2.625000e+00 +2.784954e+00 +2.272760e+00 +1.829073e+00
+1.756735e+00 +2.138899e+00 +2.836612e+00 +3.669578e+00
+4.439183e+00 +4.875000e+00 +5.052507e+00 +2.760218e+00
[row +40]
-3.871606e+00 -4.154112e+00 -3.347784e+00 -2.327084e+00
-1.079343e+00 +2.662303e-01 +1.533471e+00 +1.875000e+00
+2.125000e+00 +2.375000e+00 +2.229537e+00 +1.798941e+00
+1.729010e+00 +2.103162e+00 +2.783412e+00 +3.595967e+00
+4.125000e+00 +4.375000e+00 +4.625000e+00 +2.703790e+00
[row +41]
+2.706347e+00 +2.658502e+00 +2.490789e+00 +2.010861e+00
+1.346195e+00 +5.097645e-01 -4.529736e-01 -1.480988e+00
-1.850000e+00 -2.050000e+00 -2.250000e+00 -2.450000e+00
-2.650000e+00 -2.850000e+00 -3.050000e+00 -3.250000e+00
-3.450000e+00 -3.650000e+00 -3.324133e+00 -1.192635e+00
[row +42]
+2.983186e+00 +2.967374e+00 +2.757320e+00 +2.224365e+00
+1.477579e+00 +5.588755e-01 -5.028891e-01 -1.620889e+00
-2.150000e+00 -2.350000e+00 -2.550000e+00 -2.750000e+00
-2.950000e+00 -3.150000e+00 -3.350000e+00 -3.550000e+00
-3.750000e+00 -3.950000e+00 -3.785088e+00 -1.403112e+00
[row +43]
+3.287466e+00 +3.317163e+00 +3.061332e+00 +2.464459e+00
+1.646672e+00 +6.494709e-01 -4.868688e-01 -1.676118e+00
-2.450000e+00 -2.650000e+00 -2.850000e+00 -3.050000e+00
-3.250000e+00 -3.450000e+00 -3.650000e+00 -3.850000e+00
-4.050000e+00 -4.250000e+00 -4.256454e+00 -1.627518e+00
[row +44]
+3.610077e+00 +3.696892e+00 +3.388944e+00 +2.725687e+00
+1.844162e+00 +7.786471e-01 -4.140611e-01 -1.653357e+00
-2.750000e+00 -2.950000e+00 -3.150000e+00 -3.350000e+00
-3.550000e+00 -3.750000e+00 -3.950000e+00 -4.150000e+00
-4.350000e+00 -4.550000e+00 -4.729250e+00 -1.862332e+00
[row +45]
+3.937786e+00 +4.089098e+00 +3.722586e+00 +2.997088e+00
+2.058659e+00 +9.388606e-01 -2.944625e-01 -1.563243e+00
-2.776208e+00 -3.250000e+00 -3.450000e+00 -3.650000e+00
-3.850000e+00 -4.050000e+00 -4.250000e+00 -4.450000e+00
-4.650000e+00 -4.850000e+00 -5.050000e+00 -2.100520e+00
[row +46]
+4.255752e+00 +4.472281e+00 +4.043955e+00 +3.264458e+00
+2.278505e+00 +1.119926e+00 -1.377340e-01 -1.418252e+00
-2.629244e+00 -3.550000e+00 -3.750000e+00 -3.950000e+00
-4.150000e+00 -4.350000e+00 -4.550000e+00 -4.750000e+00
-4.950000e+00 -5.150000e+00 -5.350000e+00 -2.332847e+00
[row +47]
+4.548185e+00 +4.824042e+00 +4.334994e+00 +3.513183e+00
+2.491927e+00 +1.311526e+00 +4.636917e-02 -1.230229e+00
-2.426571e+00 -3.479601e+00 -4.050000e+00 -4.250000e+00
-4.450000e+00 -4.650000e+00 -4.850000e+00 -5.050000e+00
-5.250000e+00 -5.450000e+00 -5.650000e+00 -2.548825e+00
[row +48]
+4.799143e+00 +5.123146e+00 +4.578965e+00 +3.729802e+00
+2.687621e+00 +1.504385e+00 +2.481628e-01 -1.009413e+00
-2.181255e+00 -3.212791e+00 -4.068967e+00 -4.550000e+00
-4.750000e+00 -4.950000e+00 -5.150000e+00 -5.350000e+00
-5.550000e+00 -5.750000e+00 -5.950000e+00 -2.737498e+00
[row +49]
+4.993830e+00 +5.350363e+00 +4.761936e+00 +3.902232e+00
+2.856041e+00 +1.690017e+00 +4.591377e-01 -7.650199e-01
-1.904431e+00 -2.910973e+00 -3.761117e+00 -4.483862e+00
-5.050000e+00 -5.250000e+00 -5.450000e+00 -5.650000e+00
-5.850000e+00 -6.050000e+00 -6.250000e+00 -2.888169e+00
[row +50]
+5.119017e+00 +5.489726e+00 +4.873135e+00 +4.020479e+00
+2.989637e+00 +1.861083e+00 +6.720481e-01 -5.051326e-01
-1.605452e+00 -2.584538e+00 -3.428169e+00 -4.165030e+00
-4.847063e+00 -5.520445e+00 -5.750000e+00 -5.950000e+00
-6.150000e+00 -6.350000e+00 -6.550000e+00 -2.990996e+00
[row +51]
+5.163501e+00 +5.529385e+00 +4.905129e+00 +4.077054e+00
+3.082977e+00 +2.011536e+00 +8.809524e-01 -2.367515e-01
-1.292067e+00 -2.241976e+00 -3.079193e+00 -3.826953e+00
-4.528067e+00 -5.219254e+00 -5.893973e+00 -6.250000e+00
-6.450000e+00 -6.650000e+00 -6.602379e+00 -3.037548e+00
[row +52]
+5.118525e+00 +5.462188e+00 +4.853766e+00 +4.067233e+00
+3.132677e+00 +2.136702e+00 +1.081149e+00 +3.413894e-02
-9.706331e-01 -1.890236e+00 -2.721283e+00 -3.476915e+00
-4.189947e+00 -4.886166e+00 -5.561228e+00 -6.181388e+00
-6.673794e+00 -6.902645e+00 -6.474311e+00 -3.021303e+00
[row +53]
+4.978180e+00 +5.285986e+00 +4.717975e+00 +3.989184e+00
+3.137221e+00 +2.233314e+00 +1.269050e+00 +3.024918e-01
-6.463291e-01 -1.535034e+00 -2.359979e+00 -3.120741e+00
-3.838488e+00 -4.527274e+00 -5.186420e+00 -5.786738e+00
-6.278173e+00 -6.531570e+00 -6.223695e+00 -2.938082e+00
[row +54]
+4.739792e+00 +5.003638e+00 +4.499470e+00 +3.843973e+00
+3.096672e+00 +2.299539e+00 +1.441983e+00 +5.641670e-01
-3.234006e-01 -1.181062e+00 -1.999643e+00 -2.763138e+00
-3.478467e+00 -4.148098e+00 -4.775608e+00 -5.337487e+00
-5.806819e+00 -6.063636e+00 -5.853841e+00 -2.786418e+00
[row +55]
+4.404300e+00 +4.622691e+00 +4.202447e+00 +3.635404e+00
+3.012381e+00 +2.334950e+00 +1.597989e+00 +8.159063e-01
-5.384210e-03 -8.321432e-01 -1.643761e+00 -2.407940e+00
-3.113930e+00 -3.753769e+00 -4.334895e+00 -4.841464e+00
-5.268388e+00 -5.508928e+00 -5.372660e+00 -2.567805e+00
[row +56]
+3.976562e+00 +4.154718e+00 +3.833301e+00 +3.369685e+00
+2.886722e+00 +2.340436e+00 +1.735639e+00 +1.055313e+00
+3.046827e-01 -4.913192e-01 -1.295218e+00 -2.058243e+00
-2.748422e+00 -3.349078e+00 -3.870501e+00 -4.307084e+00
-4.673004e+00 -4.879755e+00 -4.792210e+00 -2.286779e+00
[row +57]
+3.465537e+00 +3.614356e+00 +3.400422e+00 +3.054900e+00
+2.722944e+00 +2.317999e+00 +1.853939e+00 +1.280767e+00
+6.041327e-01 -1.609475e-01 -9.564790e-01 -1.716522e+00
-2.385150e+00 -2.938497e+00 -3.388760e+00 -3.743147e+00
-4.031987e+00 -4.190122e+00 -4.128032e+00 -1.950790e+00
[row +58]
+2.884227e+00 +3.018113e+00 +2.914030e+00 +2.700316e+00
+2.525118e+00 +2.270428e+00 +1.952339e+00 +1.491263e+00
+8.906400e-01 +1.571586e-01 -6.296806e-01 -1.384749e+00
-2.027052e+00 -2.526188e+00 -2.896052e+00 -3.158611e+00
-3.357463e+00 -3.455149e+00 -3.398281e+00 -1.569841e+00
[row +59]
+2.249250e+00 +2.383130e+00 +2.385962e+00 +2.315656e+00
+2.298147e+00 +2.200921e+00 +2.030823e+00 +1.686190e+00
+1.162271e+00 +4.615555e-01 -3.166344e-01 -1.064541e+00
-1.676804e+00 -2.116044e+00 -2.398665e+00 -2.562390e+00
-2.661928e+00 -2.690473e+00 -2.622722e+00 -1.155886e+00
[row +60]
+1.579959e+00 +1.726088e+00 +1.829318e+00 +1.910448e+00
+2.047731e+00 +2.112744e+00 +2.089985e+00 +1.865121e+00
+1.417554e+00 +7.510017e-01 -1.879432e-02 -7.572904e-01
-1.336777e+00 -1.711726e+00 -1.902652e+00 -1.963162e+00
-1.957779e+00 -1.911659e+00 -1.821653e+00 -7.220420e-01
[row +61]
+8.971085e-01 +1.062406e+00 +1.257897e+00 +1.493595e+00
+1.780203e+00 +2.009008e+00 +2.131028e+00 +2.027679e+00
+1.655509e+00 +1.024347e+00 +2.627569e-01 -4.642615e-01
-1.009019e+00 -1.316680e+00 -1.413689e+00 -1.369201e+00
-1.256887e+00 -1.133648e+00 -1.014861e+00 -2.816814e-01
[row +62]
+2.212535e-01 +4.058056e-01 +6.854365e-01 +1.073179e+00
+1.502220e+00 +1.892611e+00 +2.155643e+00 +2.173525e+00
+1.875587e+00 +1.280510e+00 +5.272696e-01 -1.866184e-01
-6.952575e-01 -9.341201e-01 -9.369800e-01 -7.882010e-01
-5.702328e-01 -3.702584e-01 -2.206936e-01 +1.524841e-01
[row +63]
-4.288722e-01 -2.318271e-01 +1.247977e-01 +6.564671e-01
+1.220352e+00 +1.766311e+00 +2.165802e+00 +2.302425e+00
+2.077550e+00 +1.518526e+00 +7.742403e-01 +7.460371e-02
-3.969520e-01 -5.669798e-01 -4.772041e-01 -2.271202e-01
+9.236934e-02 +3.662269e-01 +5.446836e-01 +5.691987e-01
[row +64]
-1.037671e+00 -8.404048e-01 -4.127648e-01 +2.500083e-01
+9.406882e-01 +1.632838e+00 +2.163528e+00 +2.414356e+00
+2.261328e+00 +1.737630e+00 +1.003311e+00 +3.185515e-01
-1.153525e-01 -2.178499e-01 -3.849756e-02 +3.079503e-01
+7.224585e-01 +1.065356e+00 +1.267793e+00 +9.592455e-01
[row +65]
-1.593483e+00 -1.411556e+00 -9.180897e-01 -1.402988e-01
+6.685348e-01 +1.494967e+00 +2.150718e+00 +2.509585e+00
+2.426907e+00 +1.937308e+00 +1.214192e+00 +5.445924e-01
+1.484523e-01 +1.110638e-01 +3.755585e-01 +8.118697e-01
+1.313035e+00 +1.718672e+00 +1.938110e+00 +1.315761e+00
[row +66]
-2.088791e+00 -1.938571e+00 -1.384299e+00 -5.092104e-01
+4.082797e-01 +1.355516e+00 +2.129062e+00 +2.588671e+00
+2.574285e+00 +2.117317e+00 +1.406633e+00 +7.523202e-01
+3.935187e-01 +4.179530e-01 +7.619486e-01 +1.280478e+00
+1.858598e+00 +2.319751e+00 +2.548098e+00 +1.634278e+00
[row +67]
-2.519930e+00 -2.416381e+00 -1.806717e+00 -8.522151e-01
+1.633926e-01 +1.217256e+00 +2.100039e+00 +2.652410e+00
+2.703480e+00 +2.277642e+00 +1.580433e+00 +9.415278e-01
+6.190582e-01 +7.013902e-01 +1.118236e+00 +1.710576e+00
+2.355128e+00 +2.864120e+00 +3.093044e+00 +1.912551e+00
[row +68]
-2.886446e+00 -2.841541e+00 -2.182608e+00 -1.165637e+00
-6.347837e-02 +1.082795e+00 +2.064964e+00 +2.701753e+00
+2.814576e+00 +2.418443e+00 +1.735475e+00 +1.112164e+00
+8.244609e-01 +9.602953e-01 +1.442568e+00 +2.099872e+00
+2.800002e+00 +3.349087e+00 +3.570756e+00 +2.150223e+00
[row +69]
-3.190320e+00 -3.212159e+00 -2.510822e+00 -1.446715e+00
-2.703754e-01 +9.544606e-01 +2.025056e+00 +2.737711e+00
+2.907772e+00 +2.539999e+00 +1.871761e+00 +1.264292e+00
+1.009317e+00 +1.193900e+00 +1.733667e+00 +2.446910e+00
+3.191878e+00 +3.773524e+00 +3.981168e+00 +2.348421e+00
[row +70]
-3.435192e+00 -3.527770e+00 -2.791439e+00 -1.693624e+00
-4.559052e-01 +8.342178e-01 +1.981473e+00 +2.761292e+00
+2.983404e+00 +2.642663e+00 +1.989433e+00 +1.398060e+00
+1.173423e+00 +1.401718e+00 +1.990799e+00 +2.750977e+00
+3.530530e+00 +4.137615e+00 +4.325899e+00 +2.509338e+00
[row +71]
-3.625689e+00 -3.789132e+00 -3.025450e+00 -1.905431e+00
-6.191404e-01 +7.236362e-01 +1.935337e+00 +2.773468e+00
+3.041960e+00 +2.726847e+00 +2.088775e+00 +1.513687e+00
+1.316779e+00 +1.583525e+00 +2.213734e+00 +3.012024e+00
+3.816674e+00 +4.442606e+00 +4.607826e+00 +2.635853e+00
[row +72]
-3.766896e+00 -3.997995e+00 -3.214498e+00 -2.081995e+00
-7.595518e-01 +6.238964e-01 +1.887719e+00 +2.775162e+00
+3.084061e+00 +2.793021e+00 +2.170199e+00 +1.611466e+00
+1.439567e+00 +1.739338e+00 +2.402681e+00 +3.230572e+00
+4.051779e+00 +4.690566e+00 +4.830681e+00 +2.731206e+00
[row +73]
-3.863972e+00 -4.156834e+00 -3.360677e+00 -2.223833e+00
-8.769631e-01 +5.358262e-01 +1.839621e+00 +2.767260e+00
+3.110433e+00 +2.841723e+00 +2.234227e+00 +1.691769e+00
+1.542127e+00 +1.869415e+00 +2.558228e+00 +3.407631e+00
+4.237892e+00 +4.884164e+00 +4.998706e+00 +2.798745e+00
[row +74]
-3.921902e+00 -4.268606e+00 -3.466387e+00 -2.331973e+00
-9.715209e-01 +4.599535e-01 +1.791943e+00 +2.750626e+00
+3.121880e+00 +2.873577e+00 +2.281461e+00 +1.755060e+00
+1.624929e+00 +1.974235e+00 +2.681274e+00 +3.544614e+00
+4.377467e+00 +5.026483e+00 +5.116372e+00 +2.841735e+00
[row +75]
-3.945333e+00 -4.336528e+00 -3.534219e+00 -2.407802e+00
-1.043669e+00 +3.965641e-01 +1.745454e+00 +2.726124e+00
+3.119247e+00 +2.889309e+00 +2.312564e+00 +1.801906e+00
+1.688545e+00 +2.054489e+00 +2.772966e+00 +3.643262e+00
+4.473227e+00 +5.120857e+00 +5.188159e+00 +2.863234e+00
[row +76]
-3.938498e+00 -4.363899e+00 -3.566870e+00 -2.452947e+00
-1.094121e+00 +3.457533e-01 +1.700776e+00 +2.694632e+00
+3.103399e+00 +2.889753e+00 +2.328233e+00 +1.832977e+00
+1.733630e+00 +2.111066e+00 +2.834642e+00 +3.705568e+00
+4.528035e+00 +5.170741e+00 +5.218388e+00 +2.866007e+00
[row +77]
-3.905159e+00 -4.353977e+00 -3.567067e+00 -2.469176e+00
-1.123812e+00 +3.074586e-01 +1.658378e+00 +2.657039e+00
+3.075211e+00 +2.875851e+00 +2.329201e+00 +1.849044e+00
+1.760905e+00 +2.145025e+00 +2.867784e+00 +3.733707e+00
+4.544806e+00 +5.179601e+00 +5.211121e+00 +2.852489e+00
[row +78]
-3.848560e+00 -4.309927e+00 -3.537462e+00 -2.458360e+00
-1.133829e+00 +2.814573e-01 +1.618617e+00 +2.614211e+00
+3.035589e+00 +2.848617e+00 +2.316254e+00 +1.850948e+00
+1.771171e+00 +2.157555e+00 +2.873992e+00 +3.729961e+00
+4.526432e+00 +5.150829e+00 +5.170086e+00 +2.824761e+00
[row +79]
-3.771333e+00 -4.234872e+00 -3.480493e+00 -2.422514e+00
-1.125270e+00 +2.673009e-01 +1.581831e+00 +2.566909e+00
+2.875000e+00 +2.809067e+00 +2.290286e+00 +1.839537e+00
+1.765343e+00 +2.149908e+00 +2.854988e+00 +3.696634e+00
+4.475758e+00 +5.087663e+00 +5.098658e+00 +2.784555e+00
[row +80]
-3.796394e+00 -4.132085e+00 -3.398122e+00 -2.363965e+00
-1.099007e+00 +2.641434e-01 +1.548525e+00 +2.125000e+00
+2.375000e+00 +2.625000e+00 +2.252435e+00 +1.815532e+00
+1.744554e+00 +2.123281e+00 +2.812659e+00 +3.635943e+00
+4.375000e+00 +4.625000e+00 +4.875000e+00 +2.733257e+00
[row +81]
+2.641089e+00 +2.588828e+00 +2.430273e+00 +1.962199e+00
+1.319287e+00 +5.042733e-01 -4.299330e-01 -1.432067e+00
-1.775000e+00 -1.975000e+00 -2.175000e+00 -2.375000e+00
-2.575000e+00 -2.775000e+00 -2.975000e+00 -3.175000e+00
-3.375000e+00 -3.575000e+00 -3.210802e+00 -1.142102e+00
[row +82]
+2.911233e+00 +2.886019e+00 +2.686811e+00 +2.168391e+00
+1.440958e+00 +5.426874e-01 -4.968625e-01 -1.594023e+00
-2.075000e+00 -2.275000e+00 -2.475000e+00 -2.675000e+00
-2.875000e+00 -3.075000e+00 -3.275000e+00 -3.475000e+00
-3.675000e+00 -3.875000e+00 -3.668691e+00 -1.349147e+00
[row +83]
+3.209213e+00 +3.226358e+00 +2.982470e+00 +2.402137e+00
+1.601307e+00 +6.230051e-01 -4.965912e-01 -1.669958e+00
-2.375000e+00 -2.575000e+00 -2.775000e+00 -2.975000e+00
-3.175000e+00 -3.375000e+00 -3.575000e+00 -3.775000e+00
-3.975000e+00 -4.175000e+00 -4.137996e+00 -1.570227e+00
[row +84]
+3.528392e+00 +3.600011e+00 +3.305763e+00 +2.658917e+00
+1.792740e+00 +7.430819e-01 -4.370328e-01 -1.665827e+00
-2.675000e+00 -2.875000e+00 -3.075000e+00 -3.275000e+00
-3.475000e+00 -3.675000e+00 -3.875000e+00 -4.075000e+00
-4.275000e+00 -4.475000e+00 -4.611664e+00 -1.802987e+00
[row +85]
+3.856172e+00 +3.991012e+00 +3.639608e+00 +2.929031e+00
+2.004075e+00 +8.964340e-01 -3.282165e-01 -1.591408e+00
-2.802607e+00 -3.175000e+00 -3.375000e+00 -3.575000e+00
-3.775000e+00 -3.975000e+00 -4.175000e+00 -4.375000e+00
-4.575000e+00 -4.775000e+00 -4.975000e+00 -2.041131e+00
[row +86]
+4.178023e+00 +4.378564e+00 +3.965759e+00 +3.198806e+00
+2.223683e+00 +1.073285e+00 -1.798692e-01 -1.458967e+00
-2.671744e+00 -3.475000e+00 -3.675000e+00 -3.875000e+00
-4.075000e+00 -4.275000e+00 -4.475000e+00 -4.675000e+00
-4.875000e+00 -5.075000e+00 -5.275000e+00 -2.275871e+00
[row +87]
+4.478352e+00 +4.740234e+00 +4.266030e+00 +3.453506e+00
+2.439813e+00 +1.263160e+00 -1.680083e-03 -1.280686e+00
-2.481719e+00 -3.539395e+00 -3.975000e+00 -4.175000e+00
-4.375000e+00 -4.575000e+00 -4.775000e+00 -4.975000e+00
-5.175000e+00 -5.375000e+00 -5.575000e+00 -2.496958e+00
[row +88]
+4.741126e+00 +5.054401e+00 +4.523200e+00 +3.679345e+00
+2.640917e+00 +1.456530e+00 +1.965460e-01 -1.067172e+00
-2.245936e+00 -3.283232e+00 -4.140710e+00 -4.475000e+00
-4.675000e+00 -4.875000e+00 -5.075000e+00 -5.275000e+00
-5.475000e+00 -5.675000e+00 -5.875000e+00 -2.693483e+00
[row +89]
+4.951187e+00 +5.301235e+00 +4.722555e+00 +3.863853e+00
+2.816940e+00 +1.644709e+00 +4.059513e-01 -8.278666e-01
-1.976050e+00 -2.989105e+00 -3.840837e+00 -4.559531e+00
-4.975000e+00 -5.175000e+00 -5.375000e+00 -5.575000e+00
-5.775000e+00 -5.975000e+00 -6.175000e+00 -2.854620e+00
[row +90]
+5.094887e+00 +5.463845e+00 +4.852526e+00 +3.996450e+00
+2.959835e+00 +1.820035e+00 +6.189861e-01 -5.711564e-01
-1.681824e+00 -2.667961e+00 -3.513225e+00 -4.246865e+00
-4.923021e+00 -5.475000e+00 -5.675000e+00 -5.875000e+00
-6.075000e+00 -6.275000e+00 -6.475000e+00 -2.970263e+00
[row +91]
+5.160471e+00 +5.529290e+00 +4.904838e+00 +4.068997e+00
+3.063635e+00 +1.976133e+00 +8.293804e-01 -3.043005e-01
-1.371393e+00 -2.328726e+00 -3.167521e+00 -3.912850e+00
-4.609860e+00 -5.297796e+00 -5.969871e+00 -6.175000e+00
-6.375000e+00 -6.575000e+00 -6.615315e+00 -3.031578e+00
[row +92]
+5.138531e+00 +5.489208e+00 +4.874529e+00 +4.076062e+00
+3.124455e+00 +2.107983e+00 +1.032130e+00 -3.352760e-02
-1.051445e+00 -1.978700e+00 -2.811272e+00 -3.565206e+00
-4.275934e+00 -4.972084e+00 -5.648594e+00 -6.270670e+00
-6.675000e+00 -6.875000e+00 -6.517840e+00 -3.031522e+00
[row +93]
+5.022412e+00 +5.340182e+00 +4.759789e+00 +4.015081e+00
+3.140339e+00 +2.211961e+00 +1.223387e+00 +2.358821e-01
-7.274276e-01 -1.623887e+00 -2.450367e+00 -3.210086e+00
-3.927328e+00 -4.619107e+00 -5.283733e+00 -5.890809e+00
-6.384480e+00 -6.633757e+00 -6.297737e+00 -2.965295e+00
[row +94]
+4.808594e+00 +5.083838e+00 +4.561661e+00 +3.886407e+00
+3.110982e+00 +2.285877e+00 +1.400270e+00 +4.995664e-01
-4.038001e-01 -1.269217e+00 -2.089433e+00 -2.852450e+00
-3.569044e+00 -4.244508e+00 -4.881354e+00 -5.454502e+00
-5.931310e+00 -6.189190e+00 -5.957125e+00 -2.830721e+00
[row +95]
+4.497081e+00 +4.726598e+00 +4.283750e+00 +3.693182e+00
+3.037441e+00 +2.328957e+00 +1.560661e+00 +7.540472e-01
-8.425450e-02 -9.187214e-01 -1.732149e+00 -2.496334e+00
-3.205287e+00 -3.853505e+00 -4.447538e+00 -4.969403e+00
-5.408753e+00 -5.655100e+00 -5.502798e+00 -2.628538e+00
[row +96]
+4.091726e+00 +4.279111e+00 +3.931923e+00 +3.441056e+00
+2.921852e+00 +2.341776e+00 +1.703010e+00 +9.967167e-01
+2.280629e-01 -5.756281e-01 -1.381526e+00 -2.145007e+00
-2.839710e+00 -3.450973e+00 -3.988474e+00 -4.443798e+00
-4.826587e+00 -5.043287e+00 -4.945832e+00 -2.362526e+00
[row +97]
+3.600458e+00 +3.755350e+00 +3.514088e+00 +3.137702e+00
+2.767255e+00 +2.326083e+00 +1.826217e+00 +1.225774e+00
+5.303989e-01 -2.424550e-01 -1.040123e+00 -1.801090e+00
-2.475594e+00 -3.041463e+00 -3.510473e+00 -3.886414e+00
-4.195866e+00 -4.367386e+00 -4.300969e+00 -2.039432e+00
[row +98]
+3.035291e+00 +3.171475e+00 +3.040023e+00 +2.792163e+00
+2.577513e+00 +2.284505e+00 +1.929615e+00 +1.440078e+00
+8.203397e-01 +7.886421e-02 -7.101565e-01 -1.466668e+00
-2.115941e+00 -2.629211e+00 -3.019911e+00 -3.306187e+00
-3.528554e+00 -3.642292e+00 -3.585804e+00 -1.668666e+00
[row +99]
+2.412004e+00 +2.544579e+00 +2.521187e+00 +2.414111e+00
+2.357324e+00 +2.220174e+00 +2.013048e+00 +1.638942e+00
+1.095847e+00 +3.868103e-01 -3.935215e-01 -1.143431e+00
-1.763495e+00 -2.218175e+00 -2.523114e+00 -2.712062e+00
-2.837098e+00 -2.883570e+00 -2.819796e+00 -1.261763e+00
[row +100]
+1.749374e+00 +1.891547e+00 +1.970410e+00 +2.013176e+00
+2.112196e+00 +2.136365e+00 +2.076950e+00 +1.821907e+00
+1.355328e+00 +6.801045e-01 -9.176416e-02 -8.328187e-01
-1.420709e+00 -1.812069e+00 -2.026209e+00 -2.112791e+00
-2.133962e+00 -2.106856e+00 -2.023213e+00 -8.316324e-01
[row +101]
+1.067950e+00 +1.228168e+00 +1.401379e+00 +1.598444e+00
+1.848328e+00 +2.036239e+00 +2.122381e+00 +1.988593e+00
+1.597681e+00 +9.575796e-01 +1.939413e-01 -5.361211e-01
-1.089709e+00 -1.414393e+00 -1.534977e+00 -1.516767e+00
-1.431187e+00 -1.327298e+00 -1.216061e+00 -3.916687e-01
[row +102]
+3.884930e-01 +5.686111e-01 +8.279244e-01 +1.178207e+00
+1.572332e+00 +1.922745e+00 +2.150925e+00 +2.138646e+00
+1.822260e+00 +1.218134e+00 +4.627686e-01 -2.545286e-01
-7.723026e-01 -1.028425e+00 -1.054744e+00 -9.318427e-01
-7.400040e-01 -5.590353e-01 -4.171263e-01 +4.516954e-02
[row +103]
-2.696680e-01 -7.477792e-02 +2.632020e-01 +7.599288e-01
+1.290840e+00 +1.798666e+00 +2.164506e+00 +2.271793e+00
+2.028762e+00 +1.460768e+00 +7.141625e-01 +1.088681e-02
-4.700088e-01 -6.571724e-01 -5.903260e-01 -3.651754e-01
-7.054038e-02 +1.852314e-01 +3.568232e-01 +4.671980e-01
[row +104]
-8.900539e-01 -6.914699e-01 -2.810758e-01 +3.503290e-01
+1.010093e+00 +1.666728e+00 +2.165155e+00 +2.387954e+00
+2.217089e+00 +1.684659e+00 +9.477370e-01 +2.592215e-01
-1.841250e-01 -3.033176e-01 -1.459945e-01 +1.769177e-01
+5.683914e-01 +8.945714e-01 +1.091604e+00 +8.646499e-01
[row +105]
-1.459977e+00 -1.272671e+00 -7.951946e-01 -4.453409e-02
+7.356139e-01 +1.529693e+00 +2.154812e+00 +2.487317e+00
+2.387219e+00 +1.889227e+00 +1.163191e+00 +4.897859e-01
+8.422260e-02 +3.083517e-02 +2.745291e-01 +6.890532e-01
+1.169420e+00 +1.560022e+00 +1.775941e+00 +1.230059e+00
[row +106]
-1.970896e+00 -1.811259e+00 -1.271704e+00 -4.192479e-01
+4.720241e-01 +1.390373e+00 +2.135222e+00 +2.570372e+00
+2.539146e+00 +2.074162e+00 +1.360263e+00 +7.021185e-01
+3.340540e-01 +3.433788e-01 +6.680870e-01 +1.166826e+00
+1.726671e+00 +2.174654e+00 +2.401559e+00 +1.558368e+00
[row +107]
-2.418232e+00 -2.301756e+00 -1.705396e+00 -7.691082e-01
+2.230168e-01 +1.251563e+00 +2.107911e+00 +2.637863e+00
+2.672882e+00 +2.239399e+00 +1.538738e+00 +8.959663e-01
+5.645397e-01 +6.327932e-01 +1.032097e+00 +1.606800e+00
+2.235757e+00 +2.733519e+00 +2.963063e+00 +1.846803e+00
[row +108]
-2.800800e+00 -2.740315e+00 -2.093082e+00 -1.090221e+00
-8.566414e-03 +1.115921e+00 +2.074233e+00 +2.690712e+00
+2.788490e+00 +2.385059e+00 +1.698474e+00 +1.071244e+00
+7.750232e-01 +8.979150e-01 +1.364560e+00 +2.006465e+00
+2.693719e+00 +3.233499e+00 +3.457665e+00 +2.094570e+00
[row +109]
-3.120046e+00 -3.124665e+00 -2.433250e+00 -1.379593e+00
-2.206077e-01 +9.858560e-01 +2.035422e+00 +2.729920e+00
+2.886135e+00 +2.511395e+00 +1.839442e+00 +1.227988e+00
+9.650428e-01 +1.137901e+00 +1.664056e+00 +2.364162e+00
+3.098906e+00 +3.673098e+00 +3.884809e+00 +2.302466e+00
[row +110]
-3.379263e+00 -3.454000e+00 -2.725705e+00 -1.635165e+00
-4.115831e-01 +8.634274e-01 +1.992652e+00 +2.756502e+00
+2.966118e+00 +2.618746e+00 +1.961746e+00 +1.366328e+00
+1.134344e+00 +1.352197e+00 +1.929720e+00 +2.679001e+00
+3.450831e+00 +4.052196e+00 +4.245733e+00 +2.472453e+00
[row +111]
-3.582888e+00 -3.728795e+00 -2.971235e+00 -1.855789e+00
-5.804563e-01 +7.503051e-01 +1.947051e+00 +2.771442e+00
+3.028890e+00 +2.707508e+00 +2.065637e+00 +1.486465e+00
+1.282878e+00 +1.540514e+00 +2.161201e+00 +2.950775e+00
+3.749990e+00 +4.371796e+00 +4.543038e+00 +2.607275e+00
[row +112]
-3.735931e+00 -3.950575e+00 -3.171342e+00 -2.041139e+00
-7.266034e-01 +6.477643e-01 +1.899706e+00 +2.775672e+00
+3.075040e+00 +2.778137e+00 +2.151495e+00 +1.588675e+00
+1.410781e+00 +1.702811e+00 +2.358604e+00 +3.179871e+00
+3.997683e+00 +4.633784e+00 +4.780278e+00 +2.710105e+00
[row +113]
-3.843562e+00 -4.121657e+00 -3.328023e+00 -2.191580e+00
-8.497631e-01 +5.567165e-01 +1.851639e+00 +2.770088e+00
+3.105271e+00 +2.831152e+00 +2.219818e+00 +1.673307e+00
+1.518359e+00 +1.839286e+00 +2.522428e+00 +3.367184e+00
+4.195827e+00 +4.840696e+00 +4.961596e+00 +2.784286e+00
[row +114]
-3.910828e+00 -4.244901e+00 -3.443613e+00 -2.308025e+00
-9.500039e-01 +4.777591e-01 +1.803779e+00 +2.755556e+00
+3.120371e+00 +2.867155e+00 +2.271191e+00 +1.740803e+00
+1.606050e+00 +1.950363e+00 +2.653500e+00 +3.514034e+00
+4.346790e+00 +4.995530e+00 +5.091429e+00 +2.833117e+00
[row +115]
-3.942470e+00 -4.323477e+00 -3.520665e+00 -2.391787e+00
-1.027698e+00 +4.112333e-01 +1.756929e+00 +2.732939e+00
+3.121178e+00 +2.886843e+00 +2.306262e+00 +1.791701e+00
+1.674405e+00 +2.036683e+00 +2.752912e+00 +3.622088e+00
+4.453238e+00 +5.101569e+00 +5.174272e+00 +2.859716e+00
[row +116]
-3.942830e+00 -4.360677e+00 -3.561855e+00 -2.444442e+00
-1.083494e+00 +3.572778e-01 +1.711748e+00 +2.703112e+00
+3.108552e+00 +2.891025e+00 +2.325722e+00 +1.826647e+00
+1.724057e+00 +2.099086e+00 +2.821957e+00 +3.693281e+00
+4.518012e+00 +5.162250e+00 +5.214499e+00 +2.866930e+00
[row +117]
-3.915791e+00 -4.359778e+00 -3.569912e+00 -2.467728e+00
-1.118278e+00 +3.158682e-01 +1.668742e+00 +2.666961e+00
+3.083366e+00 +2.880616e+00 +2.330295e+00 +1.846388e+00
+1.755714e+00 +2.138592e+00 +2.862087e+00 +3.729751e+00
+4.544019e+00 +5.181044e+00 +5.216242e+00 +2.857275e+00
[row +118]
-3.864734e+00 -4.323968e+00 -3.547517e+00 -2.463492e+00
-1.133107e+00 +2.868248e-01 +1.628293e+00 +2.625364e+00
+3.046514e+00 +2.856619e+00 +2.320749e+00 +1.851753e+00
+1.770151e+00 +2.156363e+00 +2.874873e+00 +3.733759e+00
+4.534163e+00 +5.161369e+00 +5.183319e+00 +2.832924e+00
[row +119]
-3.792458e+00 -4.256368e+00 -3.497181e+00 -2.433702e+00
-1.129096e+00 +2.697666e-01 +1.590727e+00 +2.579120e+00
+2.998967e+00 +2.820057e+00 +2.297942e+00 +1.843594e+00
+1.768252e+00 +2.153643e+00 +2.862003e+00 +3.707614e+00
+4.491300e+00 +5.106509e+00 +5.119193e+00 +2.795694e+00
[row +120]
-3.756149e+00 -4.160185e+00 -3.421018e+00 -2.380582e+00
-1.107204e+00 +2.639718e-01 +1.556482e+00 +2.250000e+00
+2.500000e+00 +2.750000e+00 +2.262934e+00 +1.822684e+00
+1.751079e+00 +2.131658e+00 +2.825315e+00 +3.653567e+00
+4.418239e+00 +4.750000e+00 +5.000000e+00 +2.747057e+00
[row +121]
+2.772892e+00 +2.731446e+00 +2.553544e+00 +2.061578e+00
+1.375284e+00 +5.181027e-01 -4.719210e-01 -1.524157e+00
-1.925000e+00 -2.125000e+00 -2.325000e+00 -2.525000e+00
-2.725000e+00 -2.925000e+00 -3.125000e+00 -3.325000e+00
-3.525000e+00 -3.725000e+00 -3.438202e+00 -1.243936e+00
[row +122]
+3.056914e+00 +3.051298e+00 +2.830229e+00 +2.282010e+00
+1.516601e+00 +5.776670e-01 -5.047564e-01 -1.642444e+00
-2.225000e+00 -2.425000e+00 -2.625000e+00 -2.825000e+00
-3.025000e+00 -3.225000e+00 -3.425000e+00 -3.625000e+00
-3.825000e+00 -4.025000e+00 -3.902168e+00 -1.457965e+00
[row +123]
+3.366875e+00 +3.409869e+00 +3.141677e+00 +2.528127e+00
+1.693814e+00 +6.783726e-01 -4.735946e-01 -1.677377e+00
-2.525000e+00 -2.725000e+00 -2.925000e+00 -3.125000e+00
-3.325000e+00 -3.525000e+00 -3.725000e+00 -3.925000e+00
-4.125000e+00 -4.325000e+00 -4.375023e+00 -1.685468e+00
[row +124]
+3.692085e+00 +3.794566e+00 +3.472500e+00 +2.793103e+00
+1.896645e+00 +8.161628e-01 -3.881647e-01 -1.636665e+00
-2.825000e+00 -3.025000e+00 -3.225000e+00 -3.425000e+00
-3.625000e+00 -3.825000e+00 -4.025000e+00 -4.225000e+00
-4.425000e+00 -4.625000e+00 -4.825000e+00 -1.921890e+00
[row +125]
+4.018794e+00 +4.186618e+00 +3.804792e+00 +3.064888e+00
+2.113576e+00 +9.825881e-01 -2.583848e-01 -1.531650e+00
-2.745445e+00 -3.325000e+00 -3.525000e+00 -3.725000e+00
-3.925000e+00 -4.125000e+00 -4.325000e+00 -4.525000e+00
-4.725000e+00 -4.925000e+00 -5.125000e+00 -2.159542e+00
[row +126]
+4.331882e+00 +4.564022e+00 +4.120244e+00 +3.328935e+00
+2.332921e+00 +1.167218e+00 -9.388655e-02 -1.374854e+00
-2.583262e+00 -3.625000e+00 -3.825000e+00 -4.025000e+00
-4.225000e+00 -4.425000e+00 -4.625000e+00 -4.825000e+00
-5.025000e+00 -5.225000e+00 -5.425000e+00 -2.388797e+00
[row +127]
+4.615416e+00 +4.904545e+00 +4.400997e+00 +3.570844e+00
+2.542921e+00 +1.359966e+00 +9.551716e-02 -1.177724e+00
-2.368767e+00 -3.416836e+00 -4.125000e+00 -4.325000e+00
-4.525000e+00 -4.725000e+00 -4.925000e+00 -5.125000e+00
-5.325000e+00 -5.525000e+00 -5.725000e+00 -2.598977e+00
[row +128]
+4.853635e+00 +5.187376e+00 +4.630900e+00 +3.777482e+00
+2.732611e+00 +1.551780e+00 +3.003494e-01 -9.501882e-01
-2.114609e+00 -3.140174e+00 -3.994943e+00 -4.625000e+00
-4.825000e+00 -5.025000e+00 -5.225000e+00 -5.425000e+00
-5.625000e+00 -5.825000e+00 -6.025000e+00 -2.779130e+00
[row +129]
+5.032118e+00 +5.393976e+00 +4.796811e+00 +3.937208e+00
+2.892953e+00 +1.734407e+00 +5.124388e-01 -7.012096e-01
-1.831433e+00 -2.831311e+00 -3.679839e+00 -4.406424e+00
-5.069519e+00 -5.325000e+00 -5.525000e+00 -5.725000e+00
-5.925000e+00 -6.125000e+00 -6.325000e+00 -2.918717e+00
[row +130]
+5.138091e+00 +5.509348e+00 +4.888776e+00 +4.040635e+00
+3.016913e+00 +1.900833e+00 +7.248549e-01 -4.385842e-01
-1.528185e+00 -2.500115e+00 -3.342119e+00 -4.082002e+00
-4.769469e+00 -5.448499e+00 -5.825000e+00 -6.025000e+00
-6.225000e+00 -6.425000e+00 -6.618727e+00 -3.008199e+00
[row +131]
+5.160926e+00 +5.522772e+00 +4.900195e+00 +4.080943e+00
+3.099581e+00 +2.045349e+00 +9.319757e-01 -1.690515e-01
-1.212243e+00 -2.154659e+00 -2.990313e+00 -3.740315e+00
-4.445083e+00 -5.138722e+00 -5.815062e+00 -6.325000e+00
-6.525000e+00 -6.725000e+00 -6.581850e+00 -3.039579e+00
[row +132]
+5.092542e+00 +5.428328e+00 +4.827711e+00 +4.054123e+00
+3.138068e+00 +2.163626e+00 +1.129396e+00 +1.016412e-01
-8.896454e-01 -1.801561e+00 -2.631087e+00 -3.388246e+00
-4.103131e+00 -4.798639e+00 -5.471231e+00 -6.088245e+00
-6.582400e+00 -6.819411e+00 -6.423097e+00 -3.006882e+00
[row +133]
+4.927802e+00 +5.225130e+00 +4.670979e+00 +3.959073e+00
+3.131278e+00 +2.252758e+00 +1.313773e+00 +3.686781e-01
-5.653191e-01 -1.446263e+00 -2.269655e+00 -3.031311e+00
-3.749117e+00 -4.434175e+00 -5.086855e+00 -5.679250e+00
-6.167122e+00 -6.423315e+00 -6.142176e+00 -2.906576e+00
[row +134]
+4.664902e+00 +4.917255e+00 +4.432362e+00 +3.797564e+00
+3.079624e+00 +2.311266e+00 +1.482635e+00 +6.281403e-01
-2.433098e-01 -1.093228e+00 -1.910134e+00 -2.673981e+00
-3.387611e+00 -4.050744e+00 -4.667992e+00 -5.217546e+00
-5.678127e+00 -5.932647e+00 -5.743578e+00 -2.737916e+00
[row +135]
+4.305735e+00 +4.513327e+00 +4.116628e+00 +3.574042e+00
+2.984732e+00 +2.339064e+00 +1.634169e+00 +8.769886e-01
+7.298793e-02 -7.460766e-01 -1.555836e+00 -2.319894e+00
-3.022514e+00 -3.653388e+00 -4.220770e+00 -4.711126e+00
-5.124456e+00 -5.358093e+00 -5.236301e+00 -2.503156e+00
[row +136]
+3.856175e+00 +4.025791e+00 +3.730687e+00 +3.295241e+00
+2.849207e+00 +2.337346e+00 +1.767058e+00 +1.113031e+00
+3.806375e-01 -4.076688e-01 -1.209526e+00 -1.971981e+00
-2.657275e+00 -3.246818e+00 -3.751443e+00 -4.168522e+00
-4.516565e+00 -4.712439e+00 -4.633344e+00 -2.207583e+00
[row +137]
+3.326208e+00 +3.469866e+00 +3.283405e+00 +2.969607e+00
+2.676503e+00 +2.308341e+00 +1.880415e+00 +1.334821e+00
+6.770558e-01 -8.021107e-02 -8.735840e-01 -1.632579e+00
-2.295031e+00 -2.835426e+00 -3.266363e+00 -3.598595e+00
-3.866012e+00 -4.010024e+00 -3.950989e+00 -1.859329e+00
[row +138]
+2.729797e+00 +2.862332e+00 +2.785427e+00 +2.606591e+00
+2.470899e+00 +2.254978e+00 +1.973815e+00 +1.541472e+00
+9.600082e-01 +2.345926e-01 -5.500673e-01 -1.303557e+00
-1.938657e+00 -2.423303e+00 -2.771902e+00 -3.010308e+00
-3.185060e+00 -3.266152e+00 -3.207895e+00 -1.468947e+00
[row +139]
+2.084347e+00 +2.220310e+00 +2.248949e+00 +2.215919e+00
+2.237503e+00 +2.180502e+00 +2.047388e+00 +1.732436e+00
+1.227671e+00 +5.353634e-01 -2.407010e-01 -9.864638e-01
-1.590754e+00 -2.014282e+00 -2.274304e+00 -2.412534e+00
-2.486223e+00 -2.496497e+00 -2.424058e+00 -1.048765e+00
[row +140]
+1.409699e+00 +1.560223e+00 +1.687306e+00 +1.806997e+00
+1.982197e+00 +2.088152e+00 +2.101886e+00 +1.907308e+00
+1.478695e+00 +8.208899e-01 +5.315420e-02 -6.826538e-01
-1.253615e+00 -1.611967e+00 -1.779539e+00 -1.813868e+00
-1.781805e+00 -1.716520e+00 -1.619745e+00 -6.120489e-01
[row +141]
+7.267155e-01 +8.970967e-01 +1.114357e+00 +1.388529e+00
+1.711427e+00 +1.980986e+00 +2.138648e+00 +2.065719e+00
+1.712217e+00 +1.090038e+00 +3.305047e-01 -3.933664e-01
-9.292059e-01 -1.219751e+00 -1.293172e+00 -1.222452e+00
-1.083485e+00 -9.409225e-01 -8.144635e-01 -1.720900e-01
[row +142]
+5.563994e-02 +2.441958e-01 +5.436980e-01 +9.683867e-01
+1.431869e+00 +1.861858e+00 +2.159459e+00 +2.207343e+00
+1.927780e+00 +1.341748e+00 +5.906717e-01 -1.197377e-01
-6.191810e-01 -8.407831e-01 -8.202785e-01 -6.458111e-01
-4.019738e-01 -1.831748e-01 -2.607626e-02 +2.586963e-01
[row +143]
-5.854717e-01 -3.870504e-01 -1.215109e-02 +5.536505e-01
+1.150008e+00 +1.733508e+00 +2.166322e+00 +2.331992e+00
+2.125200e+00 +1.575099e+00 +8.331973e-01 +1.372377e-01
-3.249417e-01 -4.779170e-01 -3.654038e-01 -9.069790e-02
+2.532375e-01 +5.448750e-01 +7.298846e-01 +6.695192e-01
[row +144]
-1.181954e+00 -9.869908e-01 -5.424248e-01 +1.507015e-01
+8.717591e-01 +1.598673e+00 +2.161243e+00 +2.439711e+00
+2.304429e+00 +1.789383e+00 +1.057746e+00 +3.767591e-01
-4.769458e-02 -1.336499e-01 +6.745400e-02 +4.370286e-01
+8.740461e-01 +1.233263e+00 +1.440665e+00 +1.051732e+00
[row +145]
-1.723186e+00 -1.547673e+00 -1.038526e+00 -2.347214e-01
+6.022058e-01 +1.460143e+00 +2.146073e+00 +2.530841e+00
+2.465458e+00 +1.984158e+00 +1.264039e+00 +5.982514e-01
+2.115084e-01 +1.899119e-01 +4.748538e-01 +9.324719e-01
+1.453826e+00 +1.874045e+00 +2.096492e+00 +1.399075e+00
[row +146]
-2.202657e+00 -2.062797e+00 -1.494145e+00 -5.975483e-01
+3.455015e-01 +1.320733e+00 +2.122444e+00 +2.606008e+00
+2.608286e+00 +2.159239e+00 +1.451836e+00 +8.013617e-01
+4.517604e-01 +4.910578e-01 +8.539239e-01 +1.391716e+00
+1.987452e+00 +2.461293e+00 +2.690556e+00 +1.707662e+00
[row +147]
-2.617574e+00 -2.527706e+00 -1.905120e+00 -9.334671e-01
+1.048995e-01 +1.183188e+00 +2.091789e+00 +2.666056e+00
+2.732945e+00 +2.314662e+00 +1.620953e+00 +9.859264e-01
+6.723154e-01 +7.684504e-01 +1.202374e+00 +1.811794e+00
+2.471261e+00 +2.990998e+00 +3.218809e+00 +1.975753e+00
[row +148]
-2.968166e+00 -2.939349e+00 -2.269145e+00 -1.239025e+00
-1.171376e-01 +1.050054e+00 +2.055394e+00 +2.711957e+00
+2.839542e+00 +2.450623e+00 +1.771301e+00 +1.151926e+00
+8.726118e-01 +1.021091e+00 +1.518495e+00 +2.190632e+00
+2.902965e+00 +3.460883e+00 +3.679629e+00 +2.203402e+00
[row +149]
-3.256900e+00 -3.296207e+00 -2.585412e+00 -1.511696e+00
-3.188038e-01 +9.235733e-01 +2.014460e+00 +2.744727e+00
+2.928310e+00 +2.567420e+00 +1.902915e+00 +1.299447e+00
+1.052291e+00 +1.248284e+00 +1.801150e+00 +2.526966e+00
+3.281516e+00 +3.870170e+00 +4.073412e+00 +2.392041e+00
[row +150]
-3.487719e+00 -3.598142e+00 -2.854255e+00 -1.749884e+00
-4.988304e-01 +8.056142e-01 +1.970136e+00 +2.765368e+00
+2.999622e+00 +2.665423e+00 +2.015972e+00 +1.428656e+00
+1.211202e+00 +1.449611e+00 +2.049737e+00 +2.820260e+00
+3.606942e+00 +4.219333e+00 +4.402133e+00 +2.544068e+00
[row +151]
-3.665409e+00 -3.846183e+00 -3.076851e+00 -1.952865e+00
-6.563949e-01 +6.976470e-01 +1.923531e+00 +2.774839e+00
+3.054001e+00 +2.745058e+00 +2.110791e+00 +1.539791e+00
+1.349393e+00 +1.624908e+00 +2.264139e+00 +3.070612e+00
+3.880163e+00 +4.509846e+00 +4.668917e+00 +2.662481e+00
[row +152]
-3.795102e+00 -4.042285e+00 -3.254971e+00 -2.120677e+00
-7.910598e-01 +6.007598e-01 +1.875702e+00 +2.774052e+00
+3.092097e+00 +2.806811e+00 +2.187814e+00 +1.633163e+00
+1.467086e+00 +1.774255e+00 +2.444668e+00 +3.278677e+00
+4.102809e+00 +4.743946e+00 +4.877653e+00 +2.750568e+00
[row +153]
-3.881936e+00 -4.189066e+00 -3.390799e+00 -2.253978e+00
-9.027320e-01 +5.156999e-01 +1.827630e+00 +2.763886e+00
+3.114661e+00 +2.851239e+00 +2.247584e+00 +1.709166e+00
+1.564658e+00 +1.897964e+00 +2.591995e+00 +3.445570e+00
+4.277045e+00 +4.924423e+00 +5.032666e+00 +2.811670e+00
[row +154]
-3.930820e+00 -4.289568e+00 -3.486791e+00 -2.353898e+00
-9.916348e-01 +4.429294e-01 +1.780183e+00 +2.745204e+00
+3.122508e+00 +2.878990e+00 +2.290722e+00 +1.768289e+00
+1.642606e+00 +1.996569e+00 +2.707087e+00 +3.572795e+00
+4.405404e+00 +5.054436e+00 +5.138446e+00 +2.849010e+00
[row +155]
-3.946306e+00 -4.347043e+00 -3.545572e+00 -2.421897e+00
-1.058283e+00 +3.826822e-01 +1.734094e+00 +2.718871e+00
+3.116490e+00 +2.890817e+00 +2.317899e+00 +1.811124e+00
+1.701526e+00 +2.070814e+00 +2.791143e+00 +3.662162e+00
+4.490654e+00 +5.137362e+00 +5.199447e+00 +2.865581e+00
[row +156]
-3.932512e+00 -4.364789e+00 -3.569855e+00 -2.459643e+00
-1.103449e+00 +3.350121e-01 +1.689947e+00 +2.685771e+00
+3.097474e+00 +2.887583e+00 +2.329823e+00 +1.838368e+00
+1.742088e+00 +2.121631e+00 +2.845541e+00 +3.715717e+00
+4.535679e+00 +5.176667e+00 +5.219934e+00 +2.864067e+00
[row +157]
-3.893075e+00 -4.346042e+00 -3.562358e+00 -2.468931e+00
-1.128117e+00 +2.998188e-01 +1.648178e+00 +2.646790e+00
+3.066340e+00 +2.870251e+00 +2.327236e+00 +1.850814e+00
+1.765033e+00 +2.150118e+00 +2.871795e+00 +3.735669e+00
+4.543394e+00 +5.175806e+00 +5.203889e+00 +2.846815e+00
[row +158]
-3.831100e+00 -4.293947e+00 -3.525697e+00 -2.451661e+00
-1.133390e+00 +2.768322e-01 +1.609127e+00 +2.602779e+00
+3.024011e+00 +2.839846e+00 +2.310944e+00 +1.849312e+00
+1.771183e+00 +2.157485e+00 +2.871534e+00 +3.724312e+00
+4.516681e+00 +5.138139e+00 +5.154953e+00 +2.815819e+00
[row +159]
-3.749037e+00 -4.211638e+00 -3.462220e+00 -2.409902e+00
-1.120340e+00 +2.655263e-01 +1.573150e+00 +2.500000e+00
+2.750000e+00 +2.797362e+00 +2.281885e+00 +1.834693e+00
+1.761497e+00 +2.144987e+00 +2.846514e+00 +3.683943e+00
+4.458370e+00 +5.000000e+00 +5.076414e+00 +2.772723e+00
[row +160]
-3.834555e+00 -4.118743e+00 -3.373710e+00 -2.346112e+00
-1.089722e+00 +2.649086e-01 +1.540846e+00 +2.000000e+00
+2.250000e+00 +2.500000e+00 +2.241292e+00 +1.807617e+00
+1.737188e+00 +2.113779e+00 +2.798678e+00 +3.616734e+00
+4.250000e+00 +4.500000e+00 +4.750000e+00 +2.718829e+00
