MFEM mesh v1.0

#
# MFEM Geometry Types (see mesh/geom.hpp):
#
# POINT       = 0
# SEGMENT     = 1
# TRIANGLE    = 2
# SQUARE      = 3
# TETRAHEDRON = 4
# CUBE        = 5
#

dimension
3

elements
6
1 4 0 1 2 4
1 4 1 5 6 4
1 4 1 6 2 4
1 4 0 2 3 4
1 4 7 3 6 4
1 4 6 3 2 4

boundary
12
1 2 0 2 1
1 2 0 3 2
2 2 0 1 4
2 2 1 5 4
3 2 1 6 5
3 2 1 2 6
4 2 2 3 6
4 2 3 7 6
5 2 0 4 3
5 2 3 4 7
6 2 4 5 6
6 2 4 6 7

vertices 
8
3
-1.0 -1.0 -1.0
 1.0 -1.0 -1.0
 1.0  1.0 -1.0
-1.0  1.0 -1.0
-1.0 -1.0 1.0
 1.0 -1.0 1.0
 1.0  1.0 1.0
-1.0  1.0 1.0
