# mesh_time
0.0125 0.0625 0.1125 0.1625 0.2125 0.2625 0.3125 0.3625
0.4125 0.4625 0.5125 0.5625 0.6125 0.6625 0.7125 0.7625
0.8125 0.8625 0.9125 0.9625 0.0375 0.0875 0.1375 0.1875
0.2375 0.2875 0.3375 0.3875 0.4375 0.4875 0.5375 0.5875
0.6375 0.6875 0.7375 0.7875 0.8375 0.8875 0.9375 0.9875
# mesh_space
0 0.025 0.05 0.075 0.1 0.125 0.15 0.175
0.2 0.225 0.25 0.275 0.3 0.325 0.35 0.375
0.4 0.425 0.45 0.475 0.5 0.525 0.55 0.575
0.6 0.625 0.65 0.675 0.7 0.725 0.75 0.775
0.8 0.825 0.85 0.875 0.9 0.925 0.95 0.975
1 0.0125 0.0375 0.0625 0.0875 0.1125 0.1375 0.1625
0.1875 0.2125 0.2375 0.2625 0.2875 0.3125 0.3375 0.3625
0.3875 0.4125 0.4375 0.4625 0.4875 0.5125 0.5375 0.5625
0.5875 0.6125 0.6375 0.6625 0.6875 0.7125 0.7375 0.7625
0.7875 0.8125 0.8375 0.8625 0.8875 0.9125 0.9375 0.9625
0.9875 0.00625 0.03125 0.05625 0.08125 0.10625 0.13125 0.15625
0.18125 0.20625 0.23125 0.25625 0.28125 0.30625 0.33125 0.35625
0.38125 0.40625 0.43125 0.45625 0.48125 0.50625 0.53125 0.55625
0.58125 0.60625 0.63125 0.65625 0.68125 0.70625 0.73125 0.75625
0.78125 0.80625 0.83125 0.85625 0.88125 0.90625 0.93125 0.95625
0.98125 0.01875 0.04375 0.06875 0.09375 0.11875 0.14375 0.16875
0.19375 0.21875 0.24375 0.26875 0.29375 0.31875 0.34375 0.36875
0.39375 0.41875 0.44375 0.46875 0.49375 0.51875 0.54375 0.56875
0.59375 0.61875 0.64375 0.66875 0.69375 0.71875 0.74375 0.76875
0.79375 0.81875 0.84375 0.86875 0.89375 0.91875 0.94375 0.96875
0.99375
# data u
[row +0]
+2.358195e+00 +2.221900e+00 +1.928480e+00 +1.535290e+00
+9.869152e-01 +2.853714e-01 -5.382449e-01 -1.429196e+00
-1.650000e+00 -1.850000e+00 -2.050000e+00 -2.250000e+00
-2.450000e+00 -2.650000e+00 -2.850000e+00 -3.050000e+00
-3.241579e+00 -3.361691e+00 -2.632647e+00 -8.234336e-01
+2.135351e+00 +2.151464e+00 +1.990203e+00 +1.513532e+00
+8.483551e-01 +3.823164e-02 -8.730128e-01 -1.550000e+00
-1.750000e+00 -1.950000e+00 -2.150000e+00 -2.350000e+00
-2.550000e+00 -2.750000e+00 -2.950000e+00 -3.150000e+00
-3.316250e+00 -3.415738e+00 -2.522739e+00 -8.041014e-01
[row +1]
+2.608588e+00 +2.464837e+00 +2.138403e+00 +1.694392e+00
+1.077358e+00 +2.914704e-01 -6.279154e-01 -1.619299e+00
-1.950000e+00 -2.150000e+00 -2.350000e+00 -2.550000e+00
-2.750000e+00 -2.950000e+00 -3.150000e+00 -3.350000e+00
-3.547429e+00 -3.680469e+00 -3.044502e+00 -1.012130e+00
+2.368397e+00 +2.394199e+00 +2.203545e+00 +1.664726e+00
+9.182920e-01 +1.295099e-02 -1.002039e+00 -1.850000e+00
-2.050000e+00 -2.250000e+00 -2.450000e+00 -2.650000e+00
-2.850000e+00 -3.050000e+00 -3.250000e+00 -3.450000e+00
-3.628664e+00 -3.738683e+00 -2.925369e+00 -9.787557e-01
[row +2]
+2.895521e+00 +2.762618e+00 +2.409977e+00 +1.912276e+00
+1.226954e+00 +3.636207e-01 -6.374816e-01 -1.708480e+00
-2.250000e+00 -2.450000e+00 -2.650000e+00 -2.850000e+00
-3.050000e+00 -3.250000e+00 -3.450000e+00 -3.650000e+00
-3.850000e+00 -4.009927e+00 -3.487263e+00 -1.239708e+00
+2.658465e+00 +2.707378e+00 +2.470265e+00 +1.865036e+00
+1.041546e+00 +5.298227e-02 -1.046090e+00 -2.150000e+00
-2.350000e+00 -2.550000e+00 -2.750000e+00 -2.950000e+00
-3.150000e+00 -3.350000e+00 -3.550000e+00 -3.750000e+00
-3.943224e+00 -4.079349e+00 -3.367920e+00 -1.170323e+00
[row +3]
+3.207868e+00 +3.102307e+00 +2.729155e+00 +2.176316e+00
+1.424783e+00 +4.918275e-01 -5.771181e-01 -1.708645e+00
-2.550000e+00 -2.750000e+00 -2.950000e+00 -3.150000e+00
-3.350000e+00 -3.550000e+00 -3.750000e+00 -3.950000e+00
-4.150000e+00 -4.337890e+00 -3.948048e+00 -1.498752e+00
+2.993405e+00 +3.074369e+00 +2.777064e+00 +2.103475e+00
+1.208550e+00 +1.491356e-01 -1.015286e+00 -2.199323e+00
-2.650000e+00 -2.850000e+00 -3.050000e+00 -3.250000e+00
-3.450000e+00 -3.650000e+00 -3.850000e+00 -4.050000e+00
-4.250000e+00 -4.422473e+00 -3.837535e+00 -1.374479e+00
[row +4]
+3.530542e+00 +3.466451e+00 +3.077212e+00 +2.469969e+00
+1.656771e+00 +6.635867e-01 -4.591175e-01 -1.633705e+00
-2.772378e+00 -3.050000e+00 -3.250000e+00 -3.450000e+00
-3.650000e+00 -3.850000e+00 -4.050000e+00 -4.250000e+00
-4.450000e+00 -4.650000e+00 -4.408878e+00 -1.778734e+00
+3.356611e+00 +3.473037e+00 +3.106317e+00 +2.365664e+00
+1.407102e+00 +2.901427e-01 -9.216230e-01 -2.138897e+00
-2.950000e+00 -3.150000e+00 -3.350000e+00 -3.550000e+00
-3.750000e+00 -3.950000e+00 -4.150000e+00 -4.350000e+00
-4.550000e+00 -4.748806e+00 -4.316021e+00 -1.584924e+00
[row +5]
+3.846580e+00 +3.835292e+00 +3.433280e+00 +2.775075e+00
+1.907636e+00 +8.655690e-01 -2.962795e-01 -1.497774e+00
-2.649427e+00 -3.350000e+00 -3.550000e+00 -3.750000e+00
-3.950000e+00 -4.150000e+00 -4.350000e+00 -4.550000e+00
-4.750000e+00 -4.950000e+00 -4.849211e+00 -2.067003e+00
+3.728873e+00 +3.878803e+00 +3.438596e+00 +2.635880e+00
+1.624071e+00 +4.641517e-01 -7.774470e-01 -2.009718e+00
-3.137150e+00 -3.450000e+00 -3.650000e+00 -3.850000e+00
-4.050000e+00 -4.250000e+00 -4.450000e+00 -4.650000e+00
-4.850000e+00 -5.050000e+00 -4.782155e+00 -1.794002e+00
[row +6]
+4.138709e+00 +4.188401e+00 +3.776262e+00 +3.073544e+00
+2.162261e+00 +1.084748e+00 -1.009262e-01 -1.314155e+00
-2.465980e+00 -3.457671e+00 -3.850000e+00 -4.050000e+00
-4.250000e+00 -4.450000e+00 -4.650000e+00 -4.850000e+00
-5.050000e+00 -5.250000e+00 -5.247942e+00 -2.349650e+00
+4.089816e+00 +4.266941e+00 +3.754521e+00 +2.898536e+00
+1.846563e+00 +6.596750e-01 -5.945468e-01 -1.825611e+00
-2.939669e+00 -3.750000e+00 -3.950000e+00 -4.150000e+00
-4.350000e+00 -4.550000e+00 -4.750000e+00 -4.950000e+00
-5.150000e+00 -5.350000e+00 -5.213575e+00 -1.993197e+00
[row +7]
+4.390511e+00 +4.505928e+00 +4.086246e+00 +3.348540e+00
+2.406634e+00 +1.309124e+00 +1.156748e-01 -1.094835e+00
-2.236093e+00 -3.219240e+00 -3.989250e+00 -4.350000e+00
-4.550000e+00 -4.750000e+00 -4.950000e+00 -5.150000e+00
-5.350000e+00 -5.550000e+00 -5.584993e+00 -2.612256e+00
+4.419078e+00 +4.614271e+00 +4.036078e+00 +3.139203e+00
+2.062697e+00 +8.661453e-01 -3.836567e-01 -1.598959e+00
-2.690097e+00 -3.585678e+00 -4.250000e+00 -4.450000e+00
-4.650000e+00 -4.850000e+00 -5.050000e+00 -5.250000e+00
-5.450000e+00 -5.650000e+00 -5.588373e+00 -2.173586e+00
[row +8]
+4.587275e+00 +4.769574e+00 +4.345544e+00 +3.585290e+00
+2.628469e+00 +1.528144e+00 +3.435864e-01 -8.502913e-01
-1.971743e+00 -2.941646e+00 -3.715476e+00 -4.313388e+00
-4.803934e+00 -5.050000e+00 -5.250000e+00 -5.450000e+00
-5.650000e+00 -5.850000e+00 -5.842513e+00 -2.840627e+00
+4.697336e+00 +4.900368e+00 +4.267528e+00 +3.345308e+00
+2.262093e+00 +1.074255e+00 -1.542433e-01 -1.340564e+00
-2.401367e+00 -3.280279e+00 -3.962115e+00 -4.499327e+00
-4.950000e+00 -5.150000e+00 -5.350000e+00 -5.550000e+00
-5.750000e+00 -5.950000e+00 -5.886409e+00 -2.326245e+00
[row +9]
+4.716595e+00 +4.963358e+00 +4.539414e+00 +3.771602e+00
+2.817576e+00 +1.732937e+00 +5.743180e-01 -5.894820e-01
-1.682968e+00 -2.636120e+00 -3.412042e+00 -4.031644e+00
-4.557825e+00 -5.052659e+00 -5.544309e+00 -5.750000e+00
-5.950000e+00 -6.150000e+00 -6.005768e+00 -3.021504e+00
+4.907214e+00 +5.108378e+00 +4.435993e+00 +3.506561e+00
+2.436145e+00 +1.276109e+00 +8.554204e-02 -1.059678e+00
-2.084226e+00 -2.944698e+00 -3.637948e+00 -4.214014e+00
-4.749036e+00 -5.292674e+00 -5.650000e+00 -5.850000e+00
-6.050000e+00 -6.250000e+00 -6.090382e+00 -2.442648e+00
[row +10]
+4.768792e+00 +5.074249e+00 +4.656535e+00 +3.898152e+00
+2.966052e+00 +1.916391e+00 +8.008323e-01 -3.199323e-01
-1.378084e+00 -2.311738e+00 -3.088554e+00 -3.726939e+00
-4.282262e+00 -4.809827e+00 -5.335723e+00 -5.846249e+00
-6.250000e+00 -6.450000e+00 -6.063766e+00 -3.143248e+00
+5.034096e+00 +5.225520e+00 +4.531803e+00 +3.615186e+00
+2.578139e+00 +1.465258e+00 +3.288250e-01 -7.641277e-01
-1.747547e+00 -2.588822e+00 -3.292853e+00 -3.904254e+00
-4.484935e+00 -5.072678e+00 -5.663000e+00 -6.150000e+00
-6.350000e+00 -6.550000e+00 -6.186666e+00 -2.515066e+00
[row +11]
+4.737187e+00 +5.092660e+00 +4.689270e+00 +3.958613e+00
+3.068326e+00 +2.073146e+00 +1.017480e+00 -4.786712e-02
-1.063932e+00 -1.975804e+00 -2.752601e+00 -3.406913e+00
-3.984586e+00 -4.533622e+00 -5.078601e+00 -5.609739e+00
-6.076003e+00 -6.350002e+00 -6.009662e+00 -3.196458e+00
+5.066807e+00 +5.243348e+00 +4.548653e+00 +3.666004e+00
+2.683271e+00 +1.636671e+00 +5.699233e-01 -4.604763e-01
-1.398639e+00 -2.220563e+00 -2.935027e+00 -3.578000e+00
-4.195592e+00 -4.813733e+00 -5.425939e+00 -5.998817e+00
-6.468744e+00 -6.693215e+00 -6.165945e+00 -2.536985e+00
[row +12]
+4.618283e+00 +5.012813e+00 +4.633742e+00 +3.949633e+00
+3.121110e+00 +2.199511e+00 +1.219898e+00 +2.216409e-01
-7.461133e-01 -1.634205e+00 -2.410201e+00 -3.077646e+00
-3.670836e+00 -4.229910e+00 -4.778446e+00 -5.311655e+00
-5.788351e+00 -6.095108e+00 -5.840959e+00 -3.174514e+00
+4.998159e+00 +5.157805e+00 +4.483602e+00 +3.656382e+00
+2.748578e+00 +1.786653e+00 +8.042390e-01 -1.541900e-01
-1.043523e+00 -1.846271e+00 -2.570952e+00 -3.241608e+00
-3.887035e+00 -4.521439e+00 -5.137555e+00 -5.710195e+00
-6.190043e+00 -6.449848e+00 -6.023616e+00 -2.503523e+00
[row +13]
+4.411848e+00 +4.832967e+00 +4.489751e+00 +3.870716e+00
+3.123253e+00 +2.293334e+00 +1.404884e+00 +4.845229e-01
-4.292005e-01 -1.291690e+00 -2.066152e+00 -2.744028e+00
-3.346080e+00 -3.904012e+00 -4.440856e+00 -4.957767e+00
-5.424454e+00 -5.743185e+00 -5.559521e+00 -3.073997e+00
+4.825318e+00 +4.969105e+00 +4.336955e+00 +3.586100e+00
+2.772810e+00 +1.912741e+00 +1.028145e+00 +1.502053e-01
-6.871710e-01 -1.471062e+00 -2.205778e+00 -2.900208e+00
-3.564414e+00 -4.201090e+00 -4.803381e+00 -5.355632e+00
-5.823926e+00 -6.098235e+00 -5.759958e+00 -2.411834e+00
[row +14]
+4.120924e+00 +4.555472e+00 +4.260546e+00 +3.723997e+00
+3.075544e+00 +2.353846e+00 +1.570263e+00 +7.375753e-01
-1.169182e-01 -9.521124e-01 -1.724306e+00 -2.410039e+00
-3.014655e+00 -3.560872e+00 -4.071582e+00 -4.554727e+00
-4.991705e+00 -5.301909e+00 -5.171395e+00 -2.894965e+00
+4.549963e+00 +4.681465e+00 +4.112024e+00 +3.457133e+00
+2.756267e+00 +2.013570e+00 +1.238872e+00 +4.489846e-01
-3.337011e-01 -1.099089e+00 -1.843625e+00 -2.557989e+00
-3.232218e+00 -3.857801e+00 -4.429425e+00 -4.942133e+00
-5.378099e+00 -5.646372e+00 -5.380067e+00 -2.261453e+00
[row +15]
+3.751737e+00 +4.186634e+00 +3.952471e+00 +3.513950e+00
+2.980469e+00 +2.381480e+00 +1.714757e+00 +9.783340e-01
+1.877072e-01 -6.186133e-01 -1.387788e+00 -2.078958e+00
-2.680329e+00 -3.205140e+00 -3.676527e+00 -4.109948e+00
-4.499060e+00 -4.781496e+00 -4.686437e+00 -2.641042e+00
+4.178206e+00 +4.302706e+00 +3.814801e+00 +3.273378e+00
+2.700600e+00 +2.088744e+00 +1.434398e+00 +7.391038e-01
+1.346414e-02 -7.337446e-01 -1.487815e+00 -2.218410e+00
-2.894436e+00 -3.496565e+00 -4.022118e+00 -4.477826e+00
-4.862285e+00 -5.105276e+00 -4.893546e+00 -2.054526e+00
[row +16]
+3.313477e+00 +3.736374e+00 +3.574506e+00 +3.247027e+00
+2.841924e+00 +2.377691e+00 +1.837850e+00 +1.204963e+00
+4.822236e-01 -2.937672e-01 -1.059152e+00 -1.753519e+00
-2.346422e+00 -2.841222e+00 -3.261680e+00 -3.631412e+00
-3.956712e+00 -4.194226e+00 -4.117750e+00 -2.319278e+00
+3.720262e+00 +3.843722e+00 +3.453541e+00 +3.040337e+00
+2.608596e+00 +2.138690e+00 +1.613351e+00 +1.018097e+00
+3.514725e-01 -3.778217e-01 -1.141045e+00 -1.884364e+00
-2.554650e+00 -3.122263e+00 -3.588196e+00 -3.971704e+00
-4.287832e+00 -4.488443e+00 -4.313963e+00 -1.795891e+00
[row +17]
+2.817917e+00 +3.217670e+00 +3.137715e+00 +2.931243e+00
+2.664930e+00 +2.344757e+00 +1.939666e+00 +1.416156e+00
+7.646542e-01 +2.030532e-02 -7.405059e-01 -1.436024e+00
-2.015887e+00 -2.473294e+00 -2.833034e+00 -3.127454e+00
-3.375708e+00 -3.553892e+00 -3.480980e+00 -1.939773e+00
+3.189854e+00 +3.317848e+00 +3.038285e+00 +2.764768e+00
+2.483952e+00 +2.164521e+00 +1.774912e+00 +1.283993e+00
+6.779432e-01 -3.363299e-02 -8.055219e-01 -1.558285e+00
-2.216106e+00 -2.739643e+00 -3.134568e+00 -3.433340e+00
-3.667252e+00 -3.811202e+00 -3.658090e+00 -1.492936e+00
[row +18]
+2.278861e+00 +2.645815e+00 +2.654629e+00 +2.575736e+00
+2.455323e+00 +2.285598e+00 +2.020846e+00 +1.611053e+00
+1.033418e+00 +3.218517e-01 -4.336005e-01 -1.128426e+00
-1.691355e+00 -2.105290e+00 -2.396484e+00 -2.606532e+00
-2.767552e+00 -2.875201e+00 -2.793488e+00 -1.515059e+00
+2.603385e+00 +2.740136e+00 +2.580328e+00 +2.454325e+00
+2.331051e+00 +2.167901e+00 +1.918730e+00 +1.535240e+00
+9.908907e-01 +2.968986e-01 -4.830572e-01 -1.242237e+00
-1.881750e+00 -2.353284e+00 -2.668154e+00 -2.872577e+00
-3.013719e+00 -3.090022e+00 -2.944958e+00 -1.155224e+00
[row +19]
+1.711413e+00 +2.037526e+00 +2.138598e+00 +2.190313e+00
+2.219463e+00 +2.203594e+00 +2.082446e+00 +1.789163e+00
+1.287264e+00 +6.094227e-01 -1.398936e-01 -8.323851e-01
-1.375176e+00 -1.740892e+00 -1.957726e+00 -2.076994e+00
-2.143794e+00 -2.173154e+00 -2.073455e+00 -1.059275e+00
+1.978923e+00 +2.126576e+00 +2.091667e+00 +2.117198e+00
+2.154734e+00 +2.150910e+00 +2.044843e+00 +1.770649e+00
+1.288665e+00 +6.121729e-01 -1.751411e-01 -9.379744e-01
-1.554256e+00 -1.967547e+00 -2.195738e+00 -2.299226e+00
-2.340575e+00 -2.341779e+00 -2.194793e+00 -7.938792e-01
[row +20]
+1.131114e+00 +1.409976e+00 +1.603148e+00 +1.784998e+00
+1.963954e+00 +2.102416e+00 +2.125835e+00 +1.950305e+00
+1.525223e+00 +8.818236e-01 +1.393997e-01 -5.493138e-01
-1.069440e+00 -1.383503e+00 -1.522161e+00 -1.546871e+00
-1.515658e+00 -1.462457e+00 -1.338985e+00 -5.872242e-01
+1.335091e+00 +1.493314e+00 +1.584462e+00 +1.761761e+00
+1.960098e+00 +2.115931e+00 +2.153609e+00 +1.989341e+00
+1.569904e+00 +9.108623e-01 +1.170053e-01 -6.469854e-01
-1.236036e+00 -1.586529e+00 -1.723823e+00 -1.722785e+00
-1.660841e+00 -1.583055e+00 -1.427911e+00 -4.207981e-01
[row +21]
+5.530443e-01 +7.798461e-01 +1.061379e+00 +1.369626e+00
+1.695386e+00 +1.985876e+00 +2.152605e+00 +2.094548e+00
+1.746565e+00 +1.138077e+00 +4.032728e-01 -2.804050e-01
-7.759865e-01 -1.036231e+00 -1.094809e+00 -1.023690e+00
-8.937055e-01 -7.569845e-01 -6.072677e-01 -1.133904e-01
+6.899533e-01 +8.559056e-01 +1.070522e+00 +1.396263e+00
+1.752299e+00 +2.065533e+00 +2.245642e+00 +2.190708e+00
+1.833502e+00 +1.191875e+00 +3.923902e-01 -3.705225e-01
-9.292470e-01 -1.214020e+00 -1.258500e+00 -1.152187e+00
-9.867932e-01 -8.294903e-01 -6.636696e-01 -4.776963e-02
[row +22]
-9.019824e-03 +1.624766e-01 +5.254403e-01 +9.534784e-01
+1.420120e+00 +1.857790e+00 +2.164496e+00 +2.222165e+00
+1.950767e+00 +1.377397e+00 +6.509017e-01 -2.665511e-02
-4.964194e-01 -7.018664e-01 -6.802426e-01 -5.143250e-01
-2.875550e-01 -6.932671e-02 +1.061361e-01 +3.489476e-01
+6.003086e-02 +2.286682e-01 +5.608726e-01 +1.028545e+00
+1.536383e+00 +2.002379e+00 +2.321752e+00 +2.374372e+00
+2.078575e+00 +1.454326e+00 +6.502223e-01 -1.096275e-01
-6.357950e-01 -8.534663e-01 -8.053489e-01 -5.955987e-01
-3.295993e-01 -9.524237e-02 +8.044004e-02 +3.143596e-01
[row +23]
-5.432758e-01 -4.287994e-01 +6.120702e-03 +5.449962e-01
+1.144101e+00 +1.721866e+00 +2.163324e+00 +2.333595e+00
+2.137483e+00 +1.599164e+00 +8.816261e-01 +2.111203e-01
-2.321113e-01 -3.828704e-01 -2.825316e-01 -2.487706e-02
+2.943255e-01 +5.895458e-01 +7.878338e-01 +7.884239e-01
-5.404742e-01 -3.758215e-01 +6.539861e-02 +6.658191e-01
+1.317148e+00 +1.929132e+00 +2.382896e+00 +2.540154e+00
+2.304442e+00 +1.697518e+00 +8.898888e-01 +1.348514e-01
-3.573361e-01 -5.079389e-01 -3.693555e-01 -6.026042e-02
+3.009515e-01 +6.074257e-01 +7.894755e-01 +6.563671e-01
[row +24]
-1.040325e+00 -9.830928e-01 -4.874334e-01 +1.515665e-01
+8.727200e-01 +1.581611e+00 +2.150926e+00 +2.429402e+00
+2.306527e+00 +1.802914e+00 +1.094935e+00 +4.322734e-01
+1.578848e-02 -8.136700e-02 +9.479167e-02 +4.393995e-01
+8.447577e-01 +1.210502e+00 +1.426937e+00 +1.196040e+00
-1.100169e+00 -9.470661e-01 -4.073998e-01 +3.144975e-01
+1.099027e+00 +1.848391e+00 +2.430134e+00 +2.688051e+00
+2.510607e+00 +1.920925e+00 +1.110939e+00 +3.622454e-01
-9.527997e-02 -1.801156e-01 +4.514619e-02 +4.476183e-01
+8.966272e-01 +1.268403e+00 +1.451466e+00 +9.710953e-01
[row +25]
-1.493334e+00 -1.492154e+00 -9.478671e-01 -2.206068e-01
+6.107139e-01 +1.440255e+00 +2.129109e+00 +2.510247e+00
+2.457852e+00 +1.988322e+00 +1.290458e+00 +6.363144e-01
+2.463479e-01 +2.008606e-01 +4.487515e-01 +8.741395e-01
+1.357921e+00 +1.786346e+00 +2.015190e+00 +1.565349e+00
-1.610669e+00 -1.476808e+00 -8.505487e-01 -1.991664e-02
+8.860056e-01 +1.762625e+00 +2.464591e+00 +2.818208e+00
+2.696741e+00 +2.124178e+00 +1.313070e+00 +5.720536e-01
+1.492068e-01 +1.277312e-01 +4.345038e-01 +9.229149e-01
+1.450837e+00 +1.879836e+00 +2.057563e+00 +1.253624e+00
[row +26]
-1.897958e+00 -1.950343e+00 -1.369641e+00 -5.665545e-01
+3.621080e-01 +1.300701e+00 +2.099612e+00 +2.576863e+00
+2.591533e+00 +2.155195e+00 +1.467953e+00 +8.229022e-01
+4.588447e-01 +4.623668e-01 +7.769319e-01 +1.275874e+00
+1.829354e+00 +2.311802e+00 +2.546918e+00 +1.892393e+00
-2.066527e+00 -1.959025e+00 -1.258639e+00 -3.328861e-01
+6.815622e-01 +1.674128e+00 +2.487419e+00 +2.930898e+00
+2.862672e+00 +2.307056e+00 +1.496119e+00 +7.639328e-01
+3.751950e-01 +4.137365e-01 +7.957567e-01 +1.361603e+00
+1.958627e+00 +2.436101e+00 +2.601953e+00 +1.501198e+00
[row +27]
-2.252075e+00 -2.354429e+00 -1.748948e+00 -8.825276e-01
+1.301942e-01 +1.165494e+00 +2.064073e+00 +2.630032e+00
+2.707755e+00 +2.303461e+00 +1.627302e+00 +9.918374e-01
+6.527581e-01 +7.020356e-01 +1.077466e+00 +1.642008e+00
+2.255902e+00 +2.783403e+00 +3.018822e+00 +2.175456e+00
-2.464958e+00 -2.389797e+00 -1.627780e+00 -6.208455e-01
+4.886406e-01 +1.584985e+00 +2.499773e+00 +3.026505e+00
+3.008372e+00 +2.469477e+00 +1.660048e+00 +9.376888e-01
+5.819860e-01 +6.764367e-01 +1.126624e+00 +1.760723e+00
+2.416607e+00 +2.933649e+00 +3.081580e+00 +1.712971e+00
[row +28]
-2.555415e+00 -2.703264e+00 -2.083555e+00 -1.165926e+00
-8.245909e-02 +1.036797e+00 +2.024008e+00 +2.670566e+00
+2.806803e+00 +2.433164e+00 +1.768505e+00 +1.143054e+00
+8.277598e-01 +9.190684e-01 +1.349015e+00 +1.970772e+00
+2.635621e+00 +3.199318e+00 +3.429673e+00 +2.414687e+00
-2.805437e+00 -2.767077e+00 -1.955483e+00 -8.811665e-01
+3.096411e-01 +1.497047e+00 +2.502788e+00 +3.105505e+00
+3.133944e+00 +2.611490e+00 +1.804945e+00 +1.093267e+00
+7.691025e-01 +9.147575e-01 +1.425478e+00 +2.118315e+00
+2.822817e+00 +3.370788e+00 +3.495746e+00 +1.889636e+00
[row +29]
-2.809151e+00 -2.997399e+00 -2.372593e+00 -1.415192e+00
-2.739717e-01 +9.163966e-01 +1.980792e+00 +2.699290e+00
+2.889049e+00 +2.544458e+00 +1.891673e+00 +1.276612e+00
+9.837037e-01 +1.112968e+00 +1.590734e+00 +2.261161e+00
+2.967649e+00 +3.559127e+00 +3.779955e+00 +2.611686e+00
-3.089225e+00 -3.090398e+00 -2.240503e+00 -1.112091e+00
+1.464324e-01 +1.411920e+00 +2.497555e+00 +3.168452e+00
+3.239619e+00 +2.733269e+00 +1.931006e+00 +1.230746e+00
+9.362786e-01 +1.127995e+00 +1.691302e+00 +2.433334e+00
+3.176556e+00 +3.747398e+00 +3.845651e+00 +2.033034e+00
[row +30]
-3.015496e+00 -3.238688e+00 -2.616318e+00 -1.629675e+00
-4.430980e-01 +8.057044e-01 +1.935649e+00 +2.717032e+00
+2.954944e+00 +2.637599e+00 +1.997023e+00 +1.392693e+00
+1.120615e+00 +1.283519e+00 +1.802238e+00 +2.512853e+00
+3.252061e+00 +3.863584e+00 +4.071490e+00 +2.769075e+00
-3.318908e+00 -3.360575e+00 -2.482652e+00 -1.312644e+00
+3.791852e-04 +1.330957e+00 +2.485112e+00 +3.215965e+00
+3.325742e+00 +2.835105e+00 +2.038538e+00 +1.350327e+00
+1.083447e+00 +1.315792e+00 +1.923636e+00 +2.705544e+00
+3.478190e+00 +4.064638e+00 +4.133926e+00 +2.145759e+00
[row +31]
-3.177349e+00 -3.429909e+00 -2.815882e+00 -1.809487e+00
-5.891608e-01 +7.057806e-01 +1.889647e+00 +2.724607e+00
+3.005010e+00 +2.712941e+00 +2.084875e+00 +1.491587e+00
+1.238680e+00 +1.430766e+00 +1.983554e+00 +2.726121e+00
+3.489712e+00 +4.114367e+00 +4.307081e+00 +2.890130e+00
-3.497964e+00 -3.579400e+00 -2.682605e+00 -1.482529e+00
-1.276206e-01 +1.255259e+00 +2.466429e+00 +3.248718e+00
+3.392765e+00 +2.917399e+00 +2.127943e+00 +1.452325e+00
+1.210728e+00 +1.478112e+00 +2.122523e+00 +2.935402e+00
+3.728958e+00 +4.324654e+00 +4.364202e+00 +2.230834e+00
[row +32]
-3.298008e+00 -3.574438e+00 -2.973104e+00 -1.955359e+00
-7.119775e-01 +6.173567e-01 +1.843698e+00 +2.722816e+00
+3.039830e+00 +2.770934e+00 +2.155643e+00 +1.573691e+00
+1.338230e+00 +1.554995e+00 +2.135076e+00 +2.901750e+00
+3.682089e+00 +4.313855e+00 +4.490193e+00 +2.978452e+00
-3.630393e+00 -3.749372e+00 -2.841712e+00 -1.622026e+00
-2.370892e-01 +1.185690e+00 +2.442400e+00 +3.267426e+00
+3.441239e+00 +2.980659e+00 +2.199722e+00 +1.537164e+00
+1.318411e+00 +1.615208e+00 +2.288442e+00 +3.123945e+00
+3.930778e+00 +4.530305e+00 +4.540726e+00 +2.291439e+00
[row +33]
-3.380935e+00 -3.675975e+00 -3.090272e+00 -2.068504e+00
-8.117850e-01 +5.408658e-01 +1.798559e+00 +2.712430e+00
+3.060044e+00 +2.812112e+00 +2.209834e+00 +1.639499e+00
+1.419734e+00 +1.656702e+00 +2.257518e+00 +3.040946e+00
+3.831161e+00 +4.464914e+00 +4.624678e+00 +3.037721e+00
-3.720426e+00 -3.873454e+00 -2.961826e+00 -1.731882e+00
-3.279195e-01 +1.122883e+00 +2.413838e+00 +3.272836e+00
+3.471806e+00 +3.025489e+00 +2.254456e+00 +1.605365e+00
+1.406948e+00 +1.727595e+00 +2.422249e+00 +3.272678e+00
+4.086069e+00 +4.684931e+00 +4.668052e+00 +2.330713e+00
[row +34]
-3.429598e+00 -3.738327e+00 -3.169975e+00 -2.150491e+00
-8.891657e-01 +4.764750e-01 +1.754839e+00 +2.694191e+00
+3.066343e+00 +2.837095e+00 +2.248038e+00 +1.689593e+00
+1.483783e+00 +1.736575e+00 +2.351868e+00 +3.145250e+00
+3.939252e+00 +4.570724e+00 +4.714556e+00 +3.071509e+00
-3.772294e+00 -3.954883e+00 -3.045150e+00 -1.813216e+00
-4.003235e-01 +1.067259e+00 +2.381474e+00 +3.265723e+00
+3.485194e+00 +3.052585e+00 +2.292813e+00 +1.657541e+00
+1.476929e+00 +1.816014e+00 +2.525110e+00 +3.383462e+00
+4.197596e+00 +4.792146e+00 +4.750791e+00 +2.351616e+00
[row +35]
-3.447346e+00 -3.765246e+00 -3.214960e+00 -2.203136e+00
-9.449778e-01 +4.241186e-01 +1.713008e+00 +2.668807e+00
+3.059459e+00 +2.846580e+00 +2.270930e+00 +1.724640e+00
+1.531079e+00 +1.795469e+00 +2.419338e+00 +3.216464e+00
+4.008926e+00 +4.634624e+00 +4.763846e+00 +3.083149e+00
-3.790069e+00 -3.997007e+00 -3.094104e+00 -1.867426e+00
-4.547815e-01 +1.019042e+00 +2.345953e+00 +3.246875e+00
+3.482205e+00 +3.062731e+00 +2.315530e+00 +1.694385e+00
+1.529076e+00 +1.881404e+00 +2.598444e+00 +3.458424e+00
+4.268333e+00 +4.855679e+00 +4.793435e+00 +2.356844e+00
[row +36]
-3.437337e+00 -3.760318e+00 -3.228026e+00 -2.228411e+00
-9.802923e-01 +3.835314e-01 +1.673403e+00 +2.636946e+00
+3.040162e+00 +2.841335e+00 +2.279255e+00 +1.745379e+00
+1.562420e+00 +1.834380e+00 +2.461326e+00 +3.256578e+00
+4.042884e+00 +4.659998e+00 +4.776435e+00 +3.075655e+00
-3.777553e+00 -4.003171e+00 -3.111227e+00 -1.896110e+00
-4.919941e-01 +9.782860e-01 +2.307834e+00 +3.217096e+00
+3.463711e+00 +3.056787e+00 +2.323415e+00 +1.716666e+00
+1.564223e+00 +1.924870e+00 +2.643866e+00 +3.499867e+00
+4.301356e+00 +4.879246e+00 +4.800227e+00 +2.348777e+00
[row +37]
-3.402494e+00 -3.726886e+00 -3.211934e+00 -2.228368e+00
-9.963359e-01 +3.542796e-01 +1.636240e+00 +2.599237e+00
+3.009253e+00 +2.822199e+00 +2.273831e+00 +1.752620e+00
+1.578695e+00 +1.854428e+00 +2.479372e+00 +3.267708e+00
+4.043884e+00 +4.650178e+00 +4.755994e+00 +3.051679e+00
-3.738212e+00 -3.976625e+00 -3.099087e+00 -1.900997e+00
-5.128374e-01 +9.448891e-01 +2.267600e+00 +3.177191e+00
+3.430649e+00 +3.035689e+00 +2.317337e+00 +1.725218e+00
+1.583300e+00 +1.947654e+00 +2.663140e+00 +3.510202e+00
+4.299747e+00 +4.866457e+00 +4.775082e+00 +2.329462e+00
[row +38]
-3.345480e+00 -3.668007e+00 -3.169356e+00 -2.205081e+00
-9.944436e-01 +3.357925e-01 +1.601631e+00 +2.556269e+00
+2.967564e+00 +2.790073e+00 +2.255543e+00 +1.747230e+00
+1.580862e+00 +1.856828e+00 +2.475122e+00 +3.252044e+00
+4.014679e+00 +4.608381e+00 +4.705923e+00 +3.013495e+00
-3.675147e+00 -3.920467e+00 -3.060215e+00 -1.883891e+00
-5.183221e-01 +9.186131e-01 +2.225649e+00 +2.937500e+00
+3.187500e+00 +3.000439e+00 +2.298222e+00 +1.720935e+00
+1.587326e+00 +1.951107e+00 +2.658128e+00 +3.491883e+00
+4.266527e+00 +4.820747e+00 +4.721536e+00 +2.300615e+00
[row +39]
-3.343382e+00 -3.586431e+00 -3.102822e+00 -2.160594e+00
-9.760163e-01 +3.273884e-01 +1.569583e+00 +2.312500e+00
+2.562500e+00 +2.745916e+00 +2.225332e+00 +1.730133e+00
+1.569945e+00 +1.842879e+00 +2.450299e+00 +3.211803e+00
+3.957960e+00 +4.537654e+00 +4.629315e+00 +2.963005e+00
-3.591083e+00 -3.837601e+00 -2.997067e+00 -1.846626e+00
-5.095582e-01 +8.991074e-01 +2.182309e+00 +2.437500e+00
+2.687500e+00 +2.937500e+00 +2.267045e+00 +1.704760e+00
+1.577387e+00 +1.936666e+00 +2.630755e+00 +3.447356e+00
+4.204609e+00 +4.745336e+00 +4.642732e+00 +2.263632e+00
[row +40]
-3.522029e+00 -3.668787e+00 -3.089113e+00 -2.096894e+00
-9.424882e-01 +3.283024e-01 +1.511487e+00 +1.812500e+00
+2.062500e+00 +2.312500e+00 +2.184197e+00 +1.702295e+00
+1.547021e+00 +1.813937e+00 +2.406668e+00 +3.149194e+00
+3.876321e+00 +4.312500e+00 +4.528952e+00 +2.901761e+00
-3.749671e+00 -3.827794e+00 -2.920380e+00 -1.791024e+00
-4.877232e-01 +8.859171e-01 +1.687500e+00 +1.937500e+00
+2.187500e+00 +2.437500e+00 +2.224828e+00 +1.677684e+00
+1.554631e+00 +1.905828e+00 +2.582971e+00 +3.379024e+00
+4.116754e+00 +4.437500e+00 +4.541422e+00 +2.219611e+00
[row +41]
+2.478352e+00 +2.335956e+00 +2.025125e+00 +1.606936e+00
+1.024250e+00 +2.796991e-01 -5.935850e-01 -1.537456e+00
-1.800000e+00 -2.000000e+00 -2.200000e+00 -2.400000e+00
-2.600000e+00 -2.800000e+00 -3.000000e+00 -3.200000e+00
-3.394586e+00 -3.519179e+00 -2.834184e+00 -9.126143e-01
+2.244225e+00 +2.263302e+00 +2.089624e+00 +1.582505e+00
+8.762233e-01 +1.698874e-02 -9.486476e-01 -1.700000e+00
-1.900000e+00 -2.100000e+00 -2.300000e+00 -2.500000e+00
-2.700000e+00 -2.900000e+00 -3.100000e+00 -3.300000e+00
-3.471708e+00 -3.574121e+00 -2.718538e+00 -8.891402e-01
[row +42]
+2.748061e+00 +2.607544e+00 +2.267218e+00 +1.796651e+00
+1.145343e+00 +3.198311e-01 -6.421487e-01 -1.675836e+00
-2.100000e+00 -2.300000e+00 -2.500000e+00 -2.700000e+00
-2.900000e+00 -3.100000e+00 -3.300000e+00 -3.500000e+00
-3.699440e+00 -3.844530e+00 -3.262672e+00 -1.121436e+00
+2.506933e+00 +2.542852e+00 +2.330928e+00 +1.759321e+00
+9.737664e-01 +2.530524e-02 -1.034121e+00 -2.000000e+00
-2.200000e+00 -2.400000e+00 -2.600000e+00 -2.800000e+00
-3.000000e+00 -3.200000e+00 -3.400000e+00 -3.600000e+00
-3.786246e+00 -3.907705e+00 -3.142303e+00 -1.072641e+00
[row +43]
+3.049395e+00 +2.928238e+00 +2.564709e+00 +2.039499e+00
+1.320671e+00 +4.214627e-01 -6.153001e-01 -1.718841e+00
-2.400000e+00 -2.600000e+00 -2.800000e+00 -3.000000e+00
-3.200000e+00 -3.400000e+00 -3.600000e+00 -3.800000e+00
-4.000000e+00 -4.174860e+00 -3.716439e+00 -1.365894e+00
+2.821283e+00 +2.885442e+00 +2.619688e+00 +1.980336e+00
+1.120303e+00 +9.471999e-02 -1.039317e+00 -2.199124e+00
-2.500000e+00 -2.700000e+00 -2.900000e+00 -3.100000e+00
-3.300000e+00 -3.500000e+00 -3.700000e+00 -3.900000e+00
-4.098236e+00 -4.251770e+00 -3.600386e+00 -1.271183e+00
[row +44]
+3.368951e+00 +3.282525e+00 +2.900852e+00 +2.320561e+00
+1.537452e+00 +5.730924e-01 -5.245206e-01 -1.679671e+00
-2.700000e+00 -2.900000e+00 -3.100000e+00 -3.300000e+00
-3.500000e+00 -3.700000e+00 -3.900000e+00 -4.100000e+00
-4.300000e+00 -4.496897e+00 -4.179707e+00 -1.636878e+00
+3.172632e+00 +3.271253e+00 +2.940080e+00 +2.232571e+00
+1.304697e+00 +2.147731e-01 -9.755353e-01 -2.178617e+00
-2.800000e+00 -3.000000e+00 -3.200000e+00 -3.400000e+00
-3.600000e+00 -3.800000e+00 -4.000000e+00 -4.200000e+00
-4.400000e+00 -4.589008e+00 -4.076948e+00 -1.479368e+00
[row +45]
+3.690479e+00 +3.651562e+00 +3.255576e+00 +2.622239e+00
+1.780806e+00 +7.616315e-01 -3.825131e-01 -1.572506e+00
-2.719425e+00 -3.200000e+00 -3.400000e+00 -3.600000e+00
-3.800000e+00 -4.000000e+00 -4.200000e+00 -4.400000e+00
-4.600000e+00 -4.800000e+00 -4.632933e+00 -1.922682e+00
+3.542871e+00 +3.676598e+00 +3.273308e+00 +2.500760e+00
+1.514107e+00 +3.737559e-01 -8.550916e-01 -2.082007e+00
-3.100000e+00 -3.300000e+00 -3.500000e+00 -3.700000e+00
-3.900000e+00 -4.100000e+00 -4.300000e+00 -4.500000e+00
-4.700000e+00 -4.900000e+00 -4.552023e+00 -1.690151e+00
[row +46]
+3.996691e+00 +4.015079e+00 +3.607693e+00 +2.926232e+00
+2.035389e+00 +9.737892e-01 -2.019340e-01 -1.411143e+00
-2.564338e+00 -3.500000e+00 -3.700000e+00 -3.900000e+00
-4.100000e+00 -4.300000e+00 -4.500000e+00 -4.700000e+00
-4.900000e+00 -5.100000e+00 -5.055072e+00 -2.209927e+00
+3.912045e+00 +4.076577e+00 +3.599773e+00 +2.769092e+00
+1.735400e+00 +5.599109e-01 -6.901381e-01 -1.923720e+00
-3.045823e+00 -3.600000e+00 -3.800000e+00 -4.000000e+00
-4.200000e+00 -4.400000e+00 -4.600000e+00 -4.800000e+00
-5.000000e+00 -5.200000e+00 -5.003601e+00 -1.895388e+00
[row +47]
+4.270618e+00 +4.352802e+00 +3.936546e+00 +3.214955e+00
+2.286542e+00 +1.196983e+00 +5.372599e-03 -1.208267e+00
-2.356045e+00 -3.344149e+00 -4.000000e+00 -4.200000e+00
-4.400000e+00 -4.600000e+00 -4.800000e+00 -5.000000e+00
-5.200000e+00 -5.400000e+00 -5.425358e+00 -2.484359e+00
+4.259651e+00 +4.447059e+00 +3.900641e+00 +3.022454e+00
+1.956112e+00 +7.621554e-01 -4.919779e-01 -1.716891e+00
-2.820531e+00 -3.723312e+00 -4.100000e+00 -4.300000e+00
-4.500000e+00 -4.700000e+00 -4.900000e+00 -5.100000e+00
-5.300000e+00 -5.500000e+00 -5.409365e+00 -2.086305e+00
[row +48]
+4.496608e+00 +4.645547e+00 +4.223228e+00 +3.472523e+00
+2.521058e+00 +1.419899e+00 +2.287818e-01 -9.751214e-01
-2.107555e+00 -3.084581e+00 -3.856764e+00 -4.442723e+00
-4.700000e+00 -4.900000e+00 -5.100000e+00 -5.300000e+00
-5.500000e+00 -5.700000e+00 -5.724697e+00 -2.731580e+00
+4.565724e+00 +4.766118e+00 +4.158944e+00 +3.247276e+00
+2.165069e+00 +9.705229e-01 -2.707252e-01 -1.473116e+00
-2.549907e+00 -3.437459e+00 -4.113203e+00 -4.600000e+00
-4.800000e+00 -5.000000e+00 -5.200000e+00 -5.400000e+00
-5.600000e+00 -5.800000e+00 -5.748145e+00 -2.253929e+00
[row +49]
+4.661038e+00 +4.876089e+00 +4.451449e+00 +3.685403e+00
+2.727662e+00 +1.632805e+00 +4.590729e-01 -7.214173e-01
-1.829852e+00 -2.791761e+00 -3.566814e+00 -4.175936e+00
-4.685082e+00 -5.159520e+00 -5.400000e+00 -5.600000e+00
-5.800000e+00 -6.000000e+00 -5.936704e+00 -2.937776e+00
+4.811809e+00 +5.015033e+00 +4.360316e+00 +3.432087e+00
+2.352752e+00 +1.176401e+00 -3.518836e-02 -1.202411e+00
-2.245753e+00 -3.115591e+00 -3.803240e+00 -4.360298e+00
-4.869424e+00 -5.300000e+00 -5.500000e+00 -5.700000e+00
-5.900000e+00 -6.100000e+00 -6.001100e+00 -2.389485e+00
[row +50]
+4.752824e+00 +5.029850e+00 +4.608133e+00 +3.842813e+00
+2.897296e+00 +1.827706e+00 +6.884868e-01 -4.553819e-01
-1.532081e+00 -2.475792e+00 -3.252289e+00 -3.881643e+00
-4.423231e+00 -4.935809e+00 -5.446427e+00 -5.900000e+00
-6.100000e+00 -6.300000e+00 -6.048452e+00 -3.090415e+00
+4.981816e+00 +5.178938e+00 +4.493454e+00 +3.567836e+00
+2.511493e+00 +1.372619e+00 +2.071282e-01 -9.132979e-01
-1.917839e+00 -2.768761e+00 -3.467459e+00 -4.061650e+00
-4.620559e+00 -5.187912e+00 -5.760682e+00 -6.000000e+00
-6.200000e+00 -6.400000e+00 -6.152674e+00 -2.484796e+00
[row +51]
+4.763759e+00 +5.095468e+00 +4.683781e+00 +3.936922e+00
+3.023222e+00 +1.998374e+00 +9.106909e-01 -1.838718e-01
-1.221790e+00 -2.144817e+00 -2.921727e+00 -3.568429e+00
-4.135785e+00 -4.675515e+00 -5.212886e+00 -5.736015e+00
-6.189416e+00 -6.439449e+00 -6.050986e+00 -3.178905e+00
+5.062771e+00 +5.247204e+00 +4.550360e+00 +3.648044e+00
+2.635540e+00 +1.553443e+00 +4.499587e-01 -6.129492e-01
-1.574218e+00 -2.405811e+00 -3.115091e+00 -3.742759e+00
-4.343018e+00 -4.947715e+00 -5.551212e+00 -6.116563e+00
-6.500000e+00 -6.700000e+00 -6.191332e+00 -2.532686e+00
[row +52]
+4.688739e+00 +5.065224e+00 +4.672636e+00 +3.962899e+00
+3.101024e+00 +2.140296e+00 +1.120694e+00 +8.748278e-02
-9.051734e-01 -1.805392e+00 -2.581882e+00 -3.243104e+00
-3.829384e+00 -4.384861e+00 -4.933556e+00 -5.468055e+00
-5.942101e+00 -6.235054e+00 -5.939620e+00 -3.195173e+00
+5.045435e+00 +5.213582e+00 +4.526419e+00 +3.668816e+00
+2.721019e+00 +1.714523e+00 +6.881770e-01 -3.073593e-01
-1.221524e+00 -2.033826e+00 -2.753421e+00 -3.410726e+00
-4.043376e+00 -4.671419e+00 -5.287828e+00 -5.863137e+00
-6.340715e+00 -6.585431e+00 -6.110079e+00 -2.527406e+00
[row +53]
+4.525893e+00 +4.935338e+00 +4.572679e+00 +3.918842e+00
+3.128505e+00 +2.250569e+00 +1.314728e+00 +3.541292e-01
-5.872929e-01 -1.462802e+00 -2.238122e+00 -2.911113e+00
-3.509548e+00 -4.069418e+00 -4.613975e+00 -5.141290e+00
-5.615511e+00 -5.930860e+00 -5.714048e+00 -3.134157e+00
+4.924764e+00 +5.076176e+00 +4.420338e+00 +3.628748e+00
+2.765843e+00 +1.852794e+00 +9.176851e-01 -1.505918e-03
-8.652261e-01 -1.658502e+00 -2.388224e+00 -3.071253e+00
-3.727189e+00 -4.364449e+00 -4.975827e+00 -5.540747e+00
-6.017481e+00 -6.287149e+00 -5.906745e+00 -2.465045e+00
[row +54]
+4.276630e+00 +4.706121e+00 +4.385472e+00 +3.805603e+00
+3.105511e+00 +2.327753e+00 +1.490123e+00 +6.124479e-01
-2.722766e-01 -1.121323e+00 -1.894743e+00 -2.576860e+00
-3.180954e+00 -3.734301e+00 -4.259813e+00 -4.761944e+00
-5.216160e+00 -5.533132e+00 -5.378262e+00 -2.994152e+00
+4.700174e+00 +4.837243e+00 +4.233959e+00 +3.528750e+00
+2.769561e+00 +1.966359e+00 +1.135298e+00 +3.005019e-01
-5.098472e-01 -1.284443e+00 -2.024100e+00 -2.728969e+00
-3.399253e+00 -4.031999e+00 -4.620982e+00 -5.155765e+00
-5.610411e+00 -5.884211e+00 -5.584042e+00 -2.343909e+00
[row +55]
+3.945605e+00 +4.381930e+00 +4.115861e+00 +3.626528e+00
+3.033714e+00 +2.371704e+00 +1.645169e+00 +8.596198e-01
+3.651705e-02 -7.844303e-01 -1.555209e+00 -2.243952e+00
-2.847638e+00 -3.384299e+00 -3.876904e+00 -4.337067e+00
-4.752258e+00 -5.050870e+00 -4.940270e+00 -2.777002e+00
+4.375587e+00 +4.502860e+00 +3.971980e+00 +3.371794e+00
+2.733174e+00 +2.054355e+00 +1.338635e+00 +5.952933e-01
-1.591401e-01 -9.154012e-01 -1.664746e+00 -2.387677e+00
-3.063793e+00 -3.679119e+00 -4.229525e+00 -4.715786e+00
-5.128264e+00 -5.386185e+00 -5.149372e+00 -2.164818e+00
[row +56]
+3.540560e+00 +3.970934e+00 +3.771575e+00 +3.387129e+00
+2.916339e+00 +2.383388e+00 +1.778984e+00 +1.093508e+00
+3.363626e-01 -4.549665e-01 -1.222343e+00 -1.915380e+00
-2.513131e+00 -3.023938e+00 -3.471202e+00 -3.874384e+00
-4.233424e+00 -4.495385e+00 -4.411632e+00 -2.488074e+00
+3.959224e+00 +4.082457e+00 +3.641584e+00 +3.162621e+00
+2.658927e+00 +2.116815e+00 +1.526009e+00 +8.801252e-01
+1.837717e-01 -5.544508e-01 -1.313152e+00 -2.050534e+00
-2.724584e+00 -3.310747e+00 -3.808054e+00 -4.229403e+00
-4.581628e+00 -4.805403e+00 -4.614403e+00 -1.931267e+00
[row +57]
+3.072036e+00 +3.484666e+00 +3.362708e+00 +3.094692e+00
+2.757884e+00 +2.364697e+00 +1.891388e+00 +1.312553e+00
+6.250569e-01 -1.352668e-01 -8.984632e-01 -1.593649e+00
-2.180562e+00 -2.657507e+00 -3.048710e+00 -3.382082e+00
-3.670329e+00 -3.879787e+00 -3.806821e+00 -2.136008e+00
+3.463143e+00 +3.588237e+00 +3.251980e+00 +2.907407e+00
+2.550093e+00 +2.154527e+00 +1.696338e+00 +1.152788e+00
+5.162826e-01 -2.041321e-01 -9.717562e-01 -1.720191e+00
-2.385032e+00 -2.931702e+00 -3.363411e+00 -3.705940e+00
-3.982494e+00 -4.156362e+00 -3.994414e+00 -1.649401e+00
[row +58]
+2.552903e+00 +2.937364e+00 +2.901136e+00 +2.757852e+00
+2.563814e+00 +2.318253e+00 +1.982778e+00 +1.515680e+00
+9.008295e-01 +1.727414e-01 -5.854884e-01 -1.280878e+00
-1.852717e+00 -2.289065e+00 -2.615385e+00 -2.868587e+00
-3.074299e+00 -3.218404e+00 -3.142447e+00 -1.732210e+00
+2.902524e+00 +3.034485e+00 +2.813904e+00 +2.613402e+00
+2.410739e+00 +2.168896e+00 +1.849045e+00 +1.411530e+00
+8.362177e-01 +1.334469e-01 -6.425573e-01 -1.398890e+00
-2.048231e+00 -2.546653e+00 -2.902530e+00 -3.155141e+00
-3.343769e+00 -3.455051e+00 -3.307432e+00 -1.327757e+00
[row +59]
+1.997715e+00 +2.345151e+00 +2.399883e+00 +2.386138e+00
+2.340265e+00 +2.247228e+00 +2.054014e+00 +1.702224e+00
+1.162272e+00 +4.674643e-01 -2.850161e-01 -9.788670e-01
-1.532085e+00 -1.922421e+00 -2.177036e+00 -2.342328e+00
-2.456910e+00 -2.526164e+00 -2.436396e+00 -1.290129e+00
+2.294739e+00 +2.436822e+00 +2.339073e+00 +2.288574e+00
+2.245504e+00 +2.161808e+00 +1.983984e+00 +1.654986e+00
+1.141766e+00 +4.565318e-01 -3.271985e-01 -1.088534e+00
-1.716988e+00 -2.160075e+00 -2.432282e+00 -2.586871e+00
-2.678772e+00 -2.718232e+00 -2.573224e+00 -9.767698e-01
[row +60]
+1.421906e+00 +1.725094e+00 +1.872465e+00 +1.989518e+00
+2.093750e+00 +2.155165e+00 +2.106322e+00 +1.871856e+00
+1.408280e+00 +7.475852e-01 +1.622103e-03 -6.891488e-01
-1.220882e+00 -1.561120e+00 -1.739221e+00 -1.811521e+00
-1.829594e+00 -1.817995e+00 -1.706920e+00 -8.243593e-01
+1.658274e+00 +1.811414e+00 +1.839631e+00 +1.941246e+00
+2.059383e+00 +2.135511e+00 +2.101361e+00 +1.882128e+00
+1.431426e+00 +7.636642e-01 -2.702971e-02 -7.907372e-01
-1.393846e+00 -1.776203e+00 -1.959326e+00 -2.010818e+00
-2.000742e+00 -1.962720e+00 -1.812198e+00 -6.080561e-01
[row +61]
+8.409001e-01 +1.094234e+00 +1.332267e+00 +1.577972e+00
+1.830897e+00 +2.045826e+00 +2.141191e+00 +2.024526e+00
+1.638009e+00 +1.012022e+00 +2.733192e-01 -4.130224e-01
-9.210721e-01 -1.208421e+00 -1.307161e+00 -1.283966e+00
-1.203283e+00 -1.108246e+00 -9.717643e-01 -3.496625e-01
+1.011606e+00 +1.174198e+00 +1.327622e+00 +1.579767e+00
+1.857524e+00 +2.092494e+00 +2.201671e+00 +2.092219e+00
+1.703969e+00 +1.053638e+00 +2.568468e-01 -5.068684e-01
-1.081088e+00 -1.398987e+00 -1.489975e+00 -1.436225e+00
-1.322379e+00 -1.204702e+00 -1.044314e+00 -2.335683e-01
[row +62]
+2.692213e-01 +4.686796e-01 +7.919710e-01 +1.161099e+00
+1.558207e+00 +1.923041e+00 +2.160298e+00 +2.160411e+00
+1.850834e+00 +1.259896e+00 +5.291627e-01 -1.515801e-01
-6.343760e-01 -8.672737e-01 -8.856609e-01 -7.668802e-01
-5.880968e-01 -4.102019e-01 -2.473838e-01 +1.199774e-01
+3.721411e-01 +5.401837e-01 +8.145132e-01 +1.212214e+00
+1.645048e+00 +2.035383e+00 +2.285630e+00 +2.284768e+00
+1.958401e+00 +1.325468e+00 +5.235426e-01 -2.380717e-01
-7.807446e-01 -1.032048e+00 -1.030076e+00 -8.716660e-01
-6.554429e-01 -4.591371e-01 -2.880984e-01 +1.352783e-01
[row +63]
-2.802708e-01 -1.371644e-01 +2.630907e-01 +7.477908e-01
+1.281853e+00 +1.790583e+00 +2.165428e+00 +2.279871e+00
+2.046326e+00 +1.490507e+00 +7.684122e-01 +9.427375e-02
-3.622809e-01 -5.403066e-01 -4.790465e-01 -2.667624e-01
+6.898980e-03 +2.643232e-01 +4.516899e-01 +5.721649e-01
-2.446804e-01 -7.712774e-02 +3.107978e-01 +8.461371e-01
+1.426893e+00 +1.966852e+00 +2.354130e+00 +2.459502e+00
+2.193944e+00 +1.578366e+00 +7.723580e-01 +1.470982e-02
-4.945976e-01 -6.786476e-01 -5.849209e-01 -3.248601e-01
-1.044113e-02 +2.607235e-01 +4.401629e-01 +4.883776e-01
[row +64]
-7.969385e-01 -7.111471e-01 -2.443794e-01 +3.459833e-01
+1.007519e+00 +1.652071e+00 +2.158414e+00 +2.383412e+00
+2.224220e+00 +1.703315e+00 +9.904840e-01 +3.238089e-01
-1.060471e-01 -2.298127e-01 -9.112236e-02 +2.107016e-01
+5.738686e-01 +9.052589e-01 +1.113287e+00 +9.966777e-01
-8.260179e-01 -6.661688e-01 -1.743076e-01 +4.883665e-01
+1.207688e+00 +1.889540e+00 +2.408184e+00 +2.616332e+00
+2.410011e+00 +1.811722e+00 +1.002763e+00 +2.507191e-01
-2.241792e-01 -3.416627e-01 -1.591737e-01 +1.974573e-01
+6.035995e-01 +9.436696e-01 +1.126977e+00 +8.175012e-01
[row +65]
-1.272662e+00 -1.243689e+00 -7.221785e-01 -3.751689e-02
+7.402764e-01 +1.510881e+00 +2.141084e+00 +2.471650e+00
+2.384403e+00 +1.897926e+00 +1.194938e+00 +5.364577e-01
+1.332858e-01 +6.225453e-02 +2.748561e-01 +6.606993e-01
+1.106308e+00 +1.504437e+00 +1.727833e+00 +1.385786e+00
-1.361976e+00 -1.217553e+00 -6.330550e-01 +1.448705e-01
+9.916493e-01 +1.805988e+00 +2.448889e+00 +2.755332e+00
+2.606192e+00 +2.025088e+00 +1.214383e+00 +4.693727e-01
+2.922312e-02 -2.356909e-02 +2.431692e-01 +6.896164e-01
+1.179263e+00 +1.580715e+00 +1.761933e+00 +1.116605e+00
[row +66]
-1.701875e+00 -1.727862e+00 -1.163863e+00 -3.971212e-01
+4.845130e-01 +1.370085e+00 +2.115215e+00 +2.545285e+00
+2.526889e+00 +2.074083e+00 +1.381469e+00 +7.318057e-01
+3.548914e-01 +3.342813e-01 +6.161935e-01 +1.079315e+00
+1.599080e+00 +2.055630e+00 +2.288379e+00 +1.734310e+00
-1.845661e+00 -1.724149e+00 -1.059254e+00 -1.793273e-01
+7.825150e-01 +1.718582e+00 +2.477386e+00 +2.876714e+00
+2.782237e+00 +2.218172e+00 +1.406985e+00 +6.702498e-01
+2.645622e-01 +2.735648e-01 +6.188016e-01 +1.147044e+00
+1.710781e+00 +2.165133e+00 +2.337723e+00 +1.381874e+00
[row +67]
-2.081385e+00 -2.159265e+00 -1.564777e+00 -7.284763e-01
+2.438874e-01 +1.232410e+00 +2.082500e+00 +2.605078e+00
+2.651811e+00 +2.231654e+00 +1.549898e+00 +9.095836e-01
+5.581493e-01 +5.849881e-01 +9.307505e-01 +1.463520e+00
+2.048387e+00 +2.554484e+00 +2.790470e+00 +2.039452e+00
-2.273001e+00 -2.181010e+00 -1.448265e+00 -4.801776e-01
+5.834985e-01 +1.629515e+00 +2.494833e+00 +2.980809e+00
+2.938047e+00 +2.390823e+00 +1.580471e+00 +8.530827e-01
+4.810250e-01 +5.480757e-01 +9.651052e-01 +1.566254e+00
+2.193998e+00 +2.692360e+00 +2.849956e+00 +1.611548e+00
[row +68]
-2.410048e+00 -2.535753e+00 -1.921923e+00 -1.028419e+00
+2.132688e-02 +1.100211e+00 +2.044517e+00 +2.651827e+00
+2.759405e+00 +2.370626e+00 +1.700167e+00 +1.069660e+00
+7.426362e-01 +8.134195e-01 +1.216928e+00 +1.811141e+00
+2.451693e+00 +2.998377e+00 +3.231885e+00 +2.300480e+00
-2.642399e+00 -2.585186e+00 -1.796916e+00 -7.545901e-01
+3.972716e-01 +1.540759e+00 +2.502378e+00 +3.068048e+00
+3.073662e+00 +2.543026e+00 +1.734866e+00 +1.017748e+00
+6.780250e-01 +7.986969e-01 +1.280130e+00 +1.944795e+00
+2.626255e+00 +3.159810e+00 +3.296810e+00 +1.805599e+00
[row +69]
-2.688365e+00 -2.857079e+00 -2.233778e+00 -1.294886e+00
-1.809499e-01 +9.754632e-01 +2.002714e+00 +2.686353e+00
+2.850000e+00 +2.491099e+00 +1.832332e+00 +1.212032e+00
+9.081163e-01 +1.018930e+00 +1.473638e+00 +2.120799e+00
+2.807612e+00 +3.386213e+00 +3.612299e+00 +2.518321e+00
-2.954281e+00 -2.935457e+00 -2.103363e+00 -1.000382e+00
+2.259662e-01 +1.454042e+00 +2.501136e+00 +3.138947e+00
+3.189250e+00 +2.674893e+00 +1.870313e+00 +1.164260e+00
+8.551918e-01 +1.024542e+00 +1.562560e+00 +2.281178e+00
+3.006245e+00 +3.566613e+00 +3.678594e+00 +1.965345e+00
[row +70]
-2.918078e+00 -3.124493e+00 -2.500066e+00 -1.526791e+00
-3.613879e-01 +8.597626e-01 +1.958391e+00 +2.709483e+00
+2.924010e+00 +2.593278e+00 +1.946558e+00 +1.336822e+00
+1.054531e+00 +1.201165e+00 +1.700271e+00 +2.391840e+00
+3.115770e+00 +3.718189e+00 +3.932910e+00 +2.695138e+00
-3.210629e+00 -3.232037e+00 -2.366912e+00 -1.216197e+00
+7.119491e-02 +1.370843e+00 +2.492173e+00 +3.194097e+00
+3.285099e+00 +2.786657e+00 +1.987065e+00 +1.292757e+00
+1.012361e+00 +1.225083e+00 +1.811663e+00 +2.574776e+00
+3.333826e+00 +3.913325e+00 +3.997284e+00 +2.093048e+00
[row +71]
-3.101784e+00 -3.340356e+00 -2.721520e+00 -1.723882e+00
-5.190345e-01 +7.543433e-01 +1.912695e+00 +2.722040e+00
+2.981921e+00 +2.677469e+00 +2.043113e+00 +1.444266e+00
+1.181986e+00 +1.360043e+00 +1.896653e+00 +2.624251e+00
+3.376652e+00 +3.995550e+00 +4.196074e+00 +2.833924e+00
-3.414523e+00 -3.476264e+00 -2.587832e+00 -1.401415e+00
-6.591645e-02 +1.292390e+00 +2.476493e+00 +3.234143e+00
+3.361609e+00 +2.878665e+00 +2.085477e+00 +1.403500e+00
+1.149559e+00 +1.400127e+00 +2.027240e+00 +2.825714e+00
+3.609826e+00 +4.201634e+00 +4.256059e+00 +2.191556e+00
[row +72]
-3.242613e+00 -3.507784e+00 -2.899652e+00 -1.886600e+00
-6.534691e-01 +6.600974e-01 +1.866615e+00 +2.724833e+00
+3.024287e+00 +2.744075e+00 +2.122365e+00 +1.534709e+00
+1.290743e+00 +1.495732e+00 +2.063001e+00 +2.818574e+00
+3.591447e+00 +4.220353e+00 +4.404962e+00 +2.938152e+00
-3.569745e+00 -3.670316e+00 -2.767158e+00 -1.556039e+00
-1.846860e-01 +1.219664e+00 +2.455030e+00 +3.259782e+00
+3.419283e+00 +2.951373e+00 +2.166001e+00 +1.496859e+00
+1.266994e+00 +1.549786e+00 +2.209558e+00 +3.034753e+00
+3.835845e+00 +4.434075e+00 +4.458903e+00 +2.263997e+00
[row +73]
-3.343970e+00 -3.630343e+00 -3.036539e+00 -2.015932e+00
-7.647283e-01 +5.776033e-01 +1.820986e+00 +2.718650e+00
+3.051721e+00 +2.793588e+00 +2.184776e+00 +1.608598e+00
+1.381203e+00 +1.608625e+00 +2.199876e+00 +2.975813e+00
+3.761899e+00 +4.395245e+00 +4.563264e+00 +3.011490e+00
-3.680442e+00 -3.816951e+00 -2.906512e+00 -1.680596e+00
-2.848277e-01 +1.153411e+00 +2.428638e+00 +3.271745e+00
+3.458718e+00 +3.005337e+00 +2.229180e+00 +1.573308e+00
+1.365039e+00 +1.674449e+00 +2.359293e+00 +3.203179e+00
+4.014073e+00 +4.613775e+00 +4.610250e+00 +2.313552e+00
[row +74]
-3.409337e+00 -3.711812e+00 -3.134638e+00 -2.113283e+00
-8.532307e-01 +5.071569e-01 +1.776489e+00 +2.704247e+00
+3.064888e+00 +2.826587e+00 +2.230894e+00 +1.666470e+00
+1.453899e+00 +1.699318e+00 +2.308134e+00 +3.097352e+00
+3.890173e+00 +4.523269e+00 +4.674940e+00 +3.057585e+00
-3.750871e+00 -3.919292e+00 -3.007939e+00 -1.776033e+00
-3.664004e-01 +1.094155e+00 +2.398089e+00 +3.270796e+00
+3.480599e+00 +3.041207e+00 +2.275637e+00 +1.633414e+00
+1.444216e+00 +1.774746e+00 +2.477464e+00 +3.332686e+00
+4.147120e+00 +4.744233e+00 +4.714709e+00 +2.343285e+00
[row +75]
-3.442134e+00 -3.755986e+00 -3.196633e+00 -2.180360e+00
-9.197052e-01 +4.488047e-01 +1.733663e+00 +2.682349e+00
+3.064502e+00 +2.843728e+00 +2.261353e+00 +1.708953e+00
+1.509477e+00 +1.768585e+00 +2.388880e+00 +3.184873e+00
+3.978725e+00 +4.607701e+00 +4.744028e+00 +3.079901e+00
-3.785199e+00 -3.980648e+00 -3.073766e+00 -1.843616e+00
-4.297565e-01 +1.042217e+00 +2.364071e+00 +3.257716e+00
+3.485694e+00 +3.059725e+00 +2.306077e+00 +1.677833e+00
+1.505183e+00 +1.851522e+00 +2.565371e+00 +3.425280e+00
+4.237872e+00 +4.829139e+00 +4.776852e+00 +2.356033e+00
[row +76]
-3.445623e+00 -3.766547e+00 -3.225309e+00 -2.219067e+00
-9.651237e-01 +4.023773e-01 +1.692911e+00 +2.653646e+00
+3.051313e+00 +2.845748e+00 +2.276863e+00 +1.736749e+00
+1.548690e+00 +1.817355e+00 +2.443424e+00 +3.240279e+00
+4.030198e+00 +4.651916e+00 +4.774493e+00 +3.081620e+00
-3.787373e+00 -4.004378e+00 -3.106484e+00 -1.884853e+00
-4.754923e-01 +9.977345e-01 +2.327186e+00 +3.233302e+00
+3.474839e+00 +3.061713e+00 +2.321274e+00 +1.707295e+00
+1.548719e+00 +1.905803e+00 +2.624537e+00 +3.483186e+00
+4.289366e+00 +4.872229e+00 +4.801059e+00 +2.354336e+00
[row +77]
-3.422847e+00 -3.746967e+00 -3.223455e+00 -2.231425e+00
-9.906416e-01 +3.675213e-01 +1.654507e+00 +2.618785e+00
+3.026108e+00 +2.833449e+00 +2.278208e+00 +1.750634e+00
+1.572383e+00 +1.846688e+00 +2.473241e+00 +3.265630e+00
+4.047331e+00 +4.659283e+00 +4.770124e+00 +3.065577e+00
-3.761033e+00 -3.993789e+00 -3.108655e+00 -1.901416e+00
-5.044014e-01 +9.606794e-01 +2.287955e+00 +3.198359e+00
+3.448941e+00 +3.048071e+00 +2.322065e+00 +1.722604e+00
+1.575708e+00 +1.938765e+00 +2.656657e+00 +3.508770e+00
+4.304689e+00 +4.877177e+00 +4.791417e+00 +2.340410e+00
[row +78]
-3.376602e+00 -3.700448e+00 -3.193794e+00 -2.219501e+00
-9.975453e-01 +3.437306e-01 +1.618613e+00 +2.578375e+00
+2.989704e+00 +2.807701e+00 +2.266237e+00 +1.751448e+00
+1.581479e+00 +1.857755e+00 +2.479928e+00 +3.263087e+00
+4.032887e+00 +4.633082e+00 +4.734462e+00 +3.034235e+00
-3.709466e+00 -3.952061e+00 -3.082837e+00 -1.895079e+00
-5.174321e-01 +9.308806e-01 +2.246817e+00 +3.153694e+00
+3.408962e+00 +3.019768e+00 +2.309349e+00 +1.724623e+00
+1.587128e+00 +1.951709e+00 +2.663551e+00 +3.504471e+00
+4.286903e+00 +4.847510e+00 +4.751653e+00 +2.316135e+00
[row +79]
-3.309419e+00 -3.629896e+00 -3.138931e+00 -2.185361e+00
-9.872076e-01 +3.303761e-01 +1.585289e+00 +2.532985e+00
+2.812500e+00 +2.769436e+00 +2.241866e+00 +1.740086e+00
+1.576973e+00 +1.851814e+00 +2.465173e+00 +3.234857e+00
+3.989594e+00 +4.576450e+00 +4.670755e+00 +2.989683e+00
-3.635584e+00 -3.882199e+00 -3.031527e+00 -1.867664e+00
-5.156488e-01 +9.080402e-01 +2.204135e+00 +2.687500e+00
+2.937500e+00 +2.977836e+00 +2.284078e+00 +1.714273e+00
+1.584031e+00 +1.946031e+00 +2.647115e+00 +3.472743e+00
+4.238979e+00 +4.786562e+00 +4.685110e+00 +2.283065e+00
[row +80]
-3.435591e+00 -3.583733e+00 -3.061321e+00 -2.131025e+00
-9.610499e-01 +3.267315e-01 +1.554503e+00 +2.062500e+00
+2.312500e+00 +2.562500e+00 +2.206067e+00 +1.717494e+00
+1.559915e+00 +1.830195e+00 +2.430723e+00 +3.183158e+00
+3.920098e+00 +4.492342e+00 +4.581942e+00 +2.933644e+00
-3.666299e+00 -3.787002e+00 -2.957125e+00 -1.821004e+00
-5.001989e-01 +8.917527e-01 +1.937500e+00 +2.187500e+00
+2.437500e+00 +2.687500e+00 +2.247251e+00 +1.692521e+00
+1.567538e+00 +1.923202e+00 +2.609292e+00 +3.416018e+00
+4.163757e+00 +4.687500e+00 +4.594733e+00 +2.242443e+00
[row +81]
+2.416980e+00 +2.277034e+00 +1.974675e+00 +1.569094e+00
+1.003572e+00 +2.803143e-01 -5.685865e-01 -1.486683e+00
-1.725000e+00 -1.925000e+00 -2.125000e+00 -2.325000e+00
-2.525000e+00 -2.725000e+00 -2.925000e+00 -3.125000e+00
-3.318078e+00 -3.439875e+00 -2.732283e+00 -8.667090e-01
+2.187835e+00 +2.204947e+00 +2.038058e+00 +1.546326e+00
+8.604795e-01 +2.542373e-02 -9.136556e-01 -1.625000e+00
-1.825000e+00 -2.025000e+00 -2.225000e+00 -2.425000e+00
-2.625000e+00 -2.825000e+00 -3.025000e+00 -3.225000e+00
-3.393659e+00 -3.494239e+00 -2.619224e+00 -8.460374e-01
[row +82]
+2.677239e+00 +2.534544e+00 +2.200958e+00 +1.743752e+00
+1.109562e+00 +3.036432e-01 -6.374748e-01 -1.650648e+00
-2.025000e+00 -2.225000e+00 -2.425000e+00 -2.625000e+00
-2.825000e+00 -3.025000e+00 -3.225000e+00 -3.425000e+00
-3.623600e+00 -3.762118e+00 -3.152683e+00 -1.065606e+00
+2.435946e+00 +2.466411e+00 +2.265639e+00 +1.710547e+00
+9.444162e-01 +1.714081e-02 -1.020674e+00 -1.925000e+00
-2.125000e+00 -2.325000e+00 -2.525000e+00 -2.725000e+00
-2.925000e+00 -3.125000e+00 -3.325000e+00 -3.525000e+00
-3.707464e+00 -3.822517e+00 -3.032651e+00 -1.025190e+00
[row +83]
+2.971765e+00 +2.844235e+00 +2.485983e+00 +1.974558e+00
+1.272402e+00 +3.908778e-01 -6.284877e-01 -1.716340e+00
-2.325000e+00 -2.525000e+00 -2.725000e+00 -2.925000e+00
-3.125000e+00 -3.325000e+00 -3.525000e+00 -3.725000e+00
-3.925000e+00 -4.092537e+00 -3.601407e+00 -1.301884e+00
+2.738582e+00 +2.794878e+00 +2.543844e+00 +1.921593e+00
+1.079643e+00 +7.217787e-02 -1.044956e+00 -2.190590e+00
-2.425000e+00 -2.625000e+00 -2.825000e+00 -3.025000e+00
-3.225000e+00 -3.425000e+00 -3.625000e+00 -3.825000e+00
-4.021084e+00 -4.165753e+00 -3.483427e+00 -1.220400e+00
[row +84]
+3.288212e+00 +3.191797e+00 +2.814257e+00 +2.247650e+00
+1.480166e+00 +5.312012e-01 -5.525212e-01 -1.696392e+00
-2.625000e+00 -2.825000e+00 -3.025000e+00 -3.225000e+00
-3.425000e+00 -3.625000e+00 -3.825000e+00 -4.025000e+00
-4.225000e+00 -4.418023e+00 -4.064027e+00 -1.567249e+00
+3.082275e+00 +3.172004e+00 +2.858016e+00 +2.167400e+00
+1.255738e+00 +1.806450e-01 -9.972785e-01 -2.191464e+00
-2.725000e+00 -2.925000e+00 -3.125000e+00 -3.325000e+00
-3.525000e+00 -3.725000e+00 -3.925000e+00 -4.125000e+00
-4.325000e+00 -4.506434e+00 -3.957118e+00 -1.426781e+00
[row +85]
+3.610854e+00 +3.559018e+00 +3.166311e+00 +2.545890e+00
+1.718320e+00 +7.117696e-01 -4.221166e-01 -1.604901e+00
-2.748158e+00 -3.125000e+00 -3.325000e+00 -3.525000e+00
-3.725000e+00 -3.925000e+00 -4.125000e+00 -4.325000e+00
-4.525000e+00 -4.725000e+00 -4.521712e+00 -1.850552e+00
+3.449613e+00 +3.574791e+00 +3.189873e+00 +2.433086e+00
+1.460133e+00 +3.310117e-01 -8.898397e-01 -2.112486e+00
-3.025000e+00 -3.225000e+00 -3.425000e+00 -3.625000e+00
-3.825000e+00 -4.025000e+00 -4.225000e+00 -4.425000e+00
-4.625000e+00 -4.825000e+00 -4.434580e+00 -1.637643e+00
[row +86]
+3.922517e+00 +3.925837e+00 +3.521060e+00 +2.851001e+00
+1.971512e+00 +9.192420e-01 -2.500287e-01 -1.455847e+00
-2.608652e+00 -3.425000e+00 -3.625000e+00 -3.825000e+00
-4.025000e+00 -4.225000e+00 -4.425000e+00 -4.625000e+00
-4.825000e+00 -5.025000e+00 -4.953606e+00 -2.138752e+00
+3.820975e+00 +3.978433e+00 +3.519846e+00 +2.702843e+00
+1.679662e+00 +5.114478e-01 -7.349127e-01 -1.968331e+00
-3.093462e+00 -3.525000e+00 -3.725000e+00 -3.925000e+00
-4.125000e+00 -4.325000e+00 -4.525000e+00 -4.725000e+00
-4.925000e+00 -5.125000e+00 -4.894139e+00 -1.845072e+00
[row +87]
+4.206049e+00 +4.271866e+00 +3.857587e+00 +3.145111e+00
+2.224828e+00 +1.140794e+00 -4.835555e-02 -1.262236e+00
-2.412359e+00 -3.402442e+00 -3.925000e+00 -4.125000e+00
-4.325000e+00 -4.525000e+00 -4.725000e+00 -4.925000e+00
-5.125000e+00 -5.325000e+00 -5.338731e+00 -2.417744e+00
+4.175882e+00 +4.358451e+00 +3.828792e+00 +2.961291e+00
+1.901626e+00 +7.106529e-01 -5.440563e-01 -1.772488e+00
-2.881614e+00 -3.787602e+00 -4.025000e+00 -4.225000e+00
-4.425000e+00 -4.625000e+00 -4.825000e+00 -5.025000e+00
-5.225000e+00 -5.425000e+00 -5.313409e+00 -2.040409e+00
[row +88]
+4.445390e+00 +4.577560e+00 +4.156454e+00 +3.411836e+00
+2.464641e+00 +1.364757e+00 +1.719492e-01 -1.035688e+00
-2.172812e+00 -3.153033e+00 -3.924202e+00 -4.425000e+00
-4.625000e+00 -4.825000e+00 -5.025000e+00 -5.225000e+00
-5.425000e+00 -5.625000e+00 -5.657464e+00 -2.673098e+00
+4.494143e+00 +4.692260e+00 +4.099194e+00 +3.194413e+00
+2.114483e+00 +9.183522e-01 -3.276991e-01 -1.536949e+00
-2.621131e+00 -3.512786e+00 -4.185351e+00 -4.525000e+00
-4.725000e+00 -4.925000e+00 -5.125000e+00 -5.325000e+00
-5.525000e+00 -5.725000e+00 -5.670810e+00 -2.214693e+00
[row +89]
+4.626355e+00 +4.825133e+00 +4.400649e+00 +3.637011e+00
+2.679163e+00 +1.580984e+00 +4.013043e-01 -7.862962e-01
-1.901487e+00 -2.867494e+00 -3.641984e+00 -4.245593e+00
-4.745630e+00 -5.125000e+00 -5.325000e+00 -5.525000e+00
-5.725000e+00 -5.925000e+00 -5.892661e+00 -2.890786e+00
+4.756840e+00 +4.960263e+00 +4.315984e+00 +3.390174e+00
+2.308277e+00 +1.125582e+00 -9.497956e-02 -1.272122e+00
-2.324369e+00 -3.198789e+00 -3.883561e+00 -4.430798e+00
-4.926263e+00 -5.225000e+00 -5.425000e+00 -5.625000e+00
-5.825000e+00 -6.025000e+00 -5.946822e+00 -2.359064e+00
[row +90]
+4.737188e+00 +4.999289e+00 +4.576252e+00 +3.809140e+00
+2.858762e+00 +1.781040e+00 +6.315857e-01 -5.226497e-01
-1.607967e+00 -2.556480e+00 -3.332723e+00 -3.957291e+00
-4.491383e+00 -4.995427e+00 -5.497014e+00 -5.825000e+00
-6.025000e+00 -6.225000e+00 -6.030475e+00 -3.057894e+00
+4.947216e+00 +5.146587e+00 +4.467061e+00 +3.538898e+00
+2.474869e+00 +1.324807e+00 +1.462764e-01 -9.868884e-01
-2.001578e+00 -2.857292e+00 -3.553283e+00 -4.138524e+00
-4.685748e+00 -5.241650e+00 -5.725000e+00 -5.925000e+00
-6.125000e+00 -6.325000e+00 -6.124990e+00 -2.465155e+00
[row +91]
+4.768939e+00 +5.087815e+00 +4.672845e+00 +3.919644e+00
+2.996118e+00 +1.958254e+00 +8.561109e-01 -2.519352e-01
-1.300177e+00 -2.228585e+00 -3.005475e+00 -3.648108e+00
-4.209661e+00 -4.743664e+00 -5.275778e+00 -5.793174e+00
-6.238273e+00 -6.474505e+00 -6.060922e+00 -3.163285e+00
+5.051455e+00 +5.239520e+00 +4.543590e+00 +3.633456e+00
+2.608024e+00 +1.509940e+00 +3.895017e-01 -6.887433e-01
-1.661212e+00 -2.497646e+00 -3.204311e+00 -3.823965e+00
-4.414713e+00 -5.011368e+00 -5.608831e+00 -6.168525e+00
-6.425000e+00 -6.625000e+00 -6.192717e+00 -2.525502e+00
[row +92]
+4.715711e+00 +5.082048e+00 +4.683732e+00 +3.962945e+00
+3.086242e+00 +2.107696e+00 +1.069563e+00 +1.992454e-02
-9.846263e-01 -1.890733e+00 -2.667399e+00 -3.325253e+00
-3.907443e+00 -4.460057e+00 -5.007380e+00 -5.540781e+00
-6.011576e+00 -6.295688e+00 -5.978231e+00 -3.198209e+00
+5.059335e+00 +5.231716e+00 +4.540110e+00 +3.669313e+00
+2.703408e+00 +1.676292e+00 +6.292955e-01 -3.839601e-01
-1.310231e+00 -2.127337e+00 -2.844373e+00 -3.494634e+00
-4.120040e+00 -4.743576e+00 -5.358447e+00 -5.933179e+00
-6.407601e+00 -6.642832e+00 -6.141836e+00 -2.533960e+00
[row +93]
+4.574817e+00 +4.977204e+00 +4.605968e+00 +3.936420e+00
+3.126394e+00 +2.226070e+00 +1.267881e+00 +2.881214e-01
-6.666414e-01 -1.548498e+00 -2.324178e+00 -2.994480e+00
-3.590498e+00 -4.150317e+00 -4.697336e+00 -5.228169e+00
-5.704265e+00 -6.015971e+00 -5.781001e+00 -3.156809e+00
+4.964729e+00 +5.120202e+00 +4.454510e+00 +3.644457e+00
+2.758500e+00 +1.820486e+00 +8.613134e-01 -7.775573e-02
-9.543767e-01 -1.752378e+00 -2.479585e+00 -3.156550e+00
-3.807513e+00 -4.443780e+00 -5.058077e+00 -5.627484e+00
-6.106446e+00 -6.371837e+00 -5.968958e+00 -2.486121e+00
[row +94]
+4.346847e+00 +4.772567e+00 +4.440241e+00 +3.840255e+00
+3.115929e+00 +2.311587e+00 +1.448131e+00 +5.488153e-01
-3.505667e-01 -1.206386e+00 -1.980350e+00 -2.660427e+00
-3.263693e+00 -3.819658e+00 -4.351279e+00 -4.861337e+00
-5.322396e+00 -5.640884e+00 -5.472168e+00 -3.036519e+00
+4.765925e+00 +4.906223e+00 +4.287870e+00 +3.559238e+00
+2.772454e+00 +1.940347e+00 +1.082153e+00 +2.255563e-01
-5.983888e-01 -1.377622e+00 -2.114815e+00 -2.814584e+00
-3.482099e+00 -4.117222e+00 -4.713377e+00 -5.257482e+00
-5.719594e+00 -5.994285e+00 -5.675581e+00 -2.379704e+00
[row +95]
+4.035654e+00 +4.471497e+00 +4.190611e+00 +3.677201e+00
+3.056086e+00 +2.363796e+00 +1.608377e+00 +7.989990e-01
-3.993918e-02 -8.680585e-01 -1.639568e+00 -2.326881e+00
-2.931209e+00 -3.472943e+00 -3.975002e+00 -4.447142e+00
-4.873779e+00 -5.178777e+00 -5.058772e+00 -2.838287e+00
+4.465728e+00 +4.594940e+00 +4.044208e+00 +3.416141e+00
+2.745927e+00 +2.034765e+00 +1.289242e+00 +5.224318e-01
-2.461984e-01 -1.007013e+00 -1.753963e+00 -2.472725e+00
-3.148150e+00 -3.768982e+00 -4.330466e+00 -4.830481e+00
-5.255288e+00 -5.518974e+00 -5.267966e+00 -2.214879e+00
[row +96]
+3.648228e+00 +4.081243e+00 +3.864131e+00 +3.452262e+00
+2.949729e+00 +2.383403e+00 +1.747542e+00 +1.036375e+00
+2.623687e-01 -5.365008e-01 -1.304800e+00 -1.996973e+00
-2.596692e+00 -3.114761e+00 -3.574436e+00 -3.993157e+00
-4.367713e+00 -4.640429e+00 -4.551541e+00 -2.566615e+00
+4.071318e+00 +4.194996e+00 +3.730124e+00 +3.219493e+00
+2.680875e+00 +2.103562e+00 +1.480731e+00 +8.099801e-01
+9.892514e-02 -6.437830e-01 -1.400181e+00 -2.134278e+00
-2.809545e+00 -3.404026e+00 -3.915864e+00 -4.354849e+00
-4.723697e+00 -4.957596e+00 -4.756767e+00 -1.994468e+00
[row +97]
+3.194449e+00 +3.612550e+00 +3.470354e+00 +3.172320e+00
+2.801064e+00 +2.372085e+00 +1.865282e+00 +1.259249e+00
+5.540323e-01 -2.141649e-01 -9.784796e-01 -1.673319e+00
-2.263365e+00 -2.749458e+00 -3.155579e+00 -3.507476e+00
-3.814640e+00 -4.038554e+00 -3.964285e+00 -2.229361e+00
+3.593852e+00 +3.717960e+00 +3.354366e+00 +2.975145e+00
+2.580334e+00 +2.147351e+00 +1.655393e+00 +1.085866e+00
+4.342557e-01 -2.905933e-01 -1.056033e+00 -1.802011e+00
-2.469778e+00 -3.027206e+00 -3.476365e+00 -3.839753e+00
-4.136504e+00 -4.324167e+00 -4.156434e+00 -1.723967e+00
[row +98]
+2.686657e+00 +3.079053e+00 +3.020771e+00 +2.845715e+00
+2.615344e+00 +2.332300e+00 +1.961861e+00 +1.466433e+00
+8.331804e-01 +9.692753e-02 -6.626173e-01 -1.358127e+00
-1.934094e+00 -2.381152e+00 -2.724411e+00 -2.998484e+00
-3.225761e+00 -3.387230e+00 -3.313159e+00 -1.837301e+00
+3.047807e+00 +3.177665e+00 +2.927339e+00 +2.690113e+00
+2.448193e+00 +2.167395e+00 +1.812535e+00 +1.348230e+00
+7.575178e-01 +5.034774e-02 -7.236182e-01 -1.478259e+00
-2.132015e+00 -2.643230e+00 -3.018894e+00 -3.294863e+00
-3.506436e+00 -3.634369e+00 -3.484397e+00 -1.411353e+00
[row +99]
+2.139055e+00 +2.496488e+00 +2.528179e+00 +2.481794e+00
+2.398563e+00 +2.267099e+00 +2.038033e+00 +1.657166e+00
+1.098320e+00 +3.951052e-01 -3.588850e-01 -1.053273e+00
-1.611441e+00 -2.013715e+00 -2.286785e+00 -2.474635e+00
-2.612628e+00 -2.701295e+00 -2.615815e+00 -1.403451e+00
+2.450104e+00 +2.589472e+00 +2.460565e+00 +2.372218e+00
+2.288971e+00 +2.165473e+00 +1.951909e+00 +1.595616e+00
+1.066815e+00 +3.772036e-01 -4.046622e-01 -1.165004e+00
-1.799134e+00 -2.256627e+00 -2.550353e+00 -2.730041e+00
-2.846754e+00 -2.904840e+00 -2.760088e+00 -1.066645e+00
[row +100]
+1.566939e+00 +1.881777e+00 +2.006033e+00 +2.090459e+00
+2.157169e+00 +2.179950e+00 +2.094942e+00 +1.831040e+00
+1.348275e+00 +6.789867e-01 -6.867628e-02 -7.603513e-01
-1.297687e+00 -1.650761e+00 -1.848332e+00 -1.944214e+00
-1.986744e+00 -1.995731e+00 -1.890497e+00 -9.422090e-01
+1.819057e+00 +1.969485e+00 +1.966134e+00 +2.029728e+00
+2.107591e+00 +2.143753e+00 +2.073641e+00 +1.826917e+00
+1.360572e+00 +6.884464e-01 -1.005836e-01 -8.639300e-01
-1.473743e+00 -1.871696e+00 -2.077467e+00 -2.155046e+00
-2.170764e+00 -2.152449e+00 -2.003860e+00 -7.012402e-01
[row +101]
+9.858215e-01 +1.252058e+00 +1.467804e+00 +1.681723e+00
+1.897782e+00 +2.074571e+00 +2.134020e+00 +1.987942e+00
+1.582140e+00 +9.474346e-01 +2.068488e-01 -4.807168e-01
-9.948583e-01 -1.295622e+00 -1.414366e+00 -1.415144e+00
-1.359197e+00 -1.285083e+00 -1.155157e+00 -4.683872e-01
+1.173250e+00 +1.333766e+00 +1.456161e+00 +1.671015e+00
+1.909182e+00 +2.104673e+00 +2.178158e+00 +2.041326e+00
+1.637496e+00 +9.828104e-01 +1.874571e-01 -5.764637e-01
-1.158188e+00 -1.492463e+00 -1.606646e+00 -1.579254e+00
-1.491339e+00 -1.393598e+00 -1.235882e+00 -3.270903e-01
[row +102]
+4.105288e-01 +6.237483e-01 +9.264005e-01 +1.265316e+00
+1.626957e+00 +1.954789e+00 +2.156903e+00 +2.127996e+00
+1.799239e+00 +1.199522e+00 +4.667315e-01 -2.155117e-01
-7.047354e-01 -9.513282e-01 -9.898008e-01 -8.948016e-01
-7.403346e-01 -5.829415e-01 -4.266363e-01 +3.752981e-03
+5.304469e-01 +6.976184e-01 +9.422997e-01 +1.304248e+00
+1.698888e+00 +2.050836e+00 +2.266127e+00 +2.238294e+00
+1.896537e+00 +1.259258e+00 +4.585207e-01 -3.038030e-01
-8.545647e-01 -1.122634e+00 -1.143865e+00 -1.011427e+00
-8.205070e-01 -6.436036e-01 -4.751234e-01 +4.417679e-02
[row +103]
-1.456012e-01 +1.174201e-02 +3.936653e-01 +8.503314e-01
+1.350965e+00 +1.824403e+00 +2.165356e+00 +2.251520e+00
+1.999095e+00 +1.434505e+00 +7.101901e-01 +3.431436e-02
-4.288632e-01 -6.205879e-01 -5.790873e-01 -3.898756e-01
-1.395063e-01 +9.847932e-02 +2.800029e-01 +4.613543e-01
-9.334902e-02 +7.496577e-02 +4.353179e-01 +9.371305e-01
+1.481705e+00 +1.984910e+00 +2.338401e+00 +2.417497e+00
+2.136864e+00 +1.516953e+00 +7.118622e-01 -4.693965e-02
-5.647154e-01 -7.655643e-01 -6.945613e-01 -4.595112e-01
-1.691147e-01 +8.381828e-02 +2.615076e-01 +4.020651e-01
[row +104]
-6.713371e-01 -5.712076e-01 -1.200019e-01 +4.449645e-01
+1.075624e+00 +1.687077e+00 +2.161205e+00 +2.358987e+00
+2.181405e+00 +1.651806e+00 +9.366031e-01 +2.679886e-01
-1.685580e-01 -3.057792e-01 -1.861636e-01 +9.373776e-02
+4.351326e-01 +7.486539e-01 +9.519704e-01 +8.936106e-01
-6.846033e-01 -5.221107e-01 -5.522600e-02 +5.766884e-01
+1.262349e+00 +1.909550e+00 +2.395966e+00 +2.578802e+00
+2.357846e+00 +1.755242e+00 +9.469108e-01 +1.933240e-01
-2.902346e-01 -4.242276e-01 -2.635607e-01 +6.950247e-02
+4.534257e-01 +7.769240e-01 +9.597827e-01 +7.378373e-01
[row +105]
-1.157917e+00 -1.114862e+00 -6.058940e-01 +5.631513e-02
+8.061699e-01 +1.546256e+00 +2.146285e+00 +2.450988e+00
+2.346019e+00 +1.850995e+00 +1.145495e+00 +4.849037e-01
+7.508573e-02 -8.940814e-03 +1.855759e-01 +5.510043e-01
+9.767398e-01 +1.358931e+00 +1.579032e+00 +1.292154e+00
-1.232668e+00 -1.083665e+00 -5.212047e-01 +2.291149e-01
+1.045149e+00 +1.827328e+00 +2.439902e+00 +2.722245e+00
+2.559027e+00 +1.973639e+00 +1.163254e+00 +4.163622e-01
-3.247082e-02 -1.012013e-01 +1.449703e-01 +5.696729e-01
+1.039288e+00 +1.426163e+00 +1.608507e+00 +1.044889e+00
[row +106]
-1.599145e+00 -1.611635e+00 -1.057112e+00 -3.097192e-01
+5.471650e-01 +1.405092e+00 +2.122388e+00 +2.528205e+00
+2.492921e+00 +2.031783e+00 +1.336529e+00 +6.846077e-01
+3.011892e-01 +2.682289e-01 +5.332956e-01 +9.777834e-01
+1.479836e+00 +1.922599e+00 +2.153589e+00 +1.651175e+00
-1.729908e+00 -1.602005e+00 -9.560353e-01 -1.003252e-01
+8.339663e-01 +1.740671e+00 +2.471343e+00 +2.848004e+00
+2.740121e+00 +2.171813e+00 +1.360625e+00 +6.217143e-01
+2.074693e-01 +2.013442e-01 +5.275525e-01 +1.036152e+00
+1.582294e+00 +2.024247e+00 +2.199609e+00 +1.318858e+00
[row +107]
-1.991261e+00 -2.056514e+00 -1.468561e+00 -6.484784e-01
+3.024521e-01 +1.266401e+00 +2.091232e+00 +2.591385e+00
+2.622216e+00 +2.194006e+00 +1.509493e+00 +8.667957e-01
+5.090813e-01 +5.243678e-01 +8.547184e-01 +1.370828e+00
+1.940294e+00 +2.434849e+00 +2.670584e+00 +1.967305e+00
-2.171574e+00 -2.071651e+00 -1.354696e+00 -4.073389e-01
+6.321486e-01 +1.651826e+00 +2.491444e+00 +2.956384e+00
+2.900992e+00 +2.349579e+00 +1.538892e+00 +8.090753e-01
+4.287149e-01 +4.816449e-01 +8.813967e-01 +1.465186e+00
+2.077892e+00 +2.566088e+00 +2.727996e+00 +1.557494e+00
[row +108]
-2.332646e+00 -2.446822e+00 -1.836846e+00 -9.565088e-01
+7.514032e-02 +1.132633e+00 +2.054425e+00 +2.641318e+00
+2.734114e+00 +2.337623e+00 +1.664302e+00 +1.031302e+00
+6.982902e-01 +7.584404e-01 +1.148112e+00 +1.727754e+00
+2.355273e+00 +2.892641e+00 +3.127266e+00 +2.239332e+00
-2.555489e+00 -2.489175e+00 -1.713659e+00 -6.885997e-01
+4.425036e-01 +1.562820e+00 +2.501359e+00 +3.047791e+00
+3.041645e+00 +2.506888e+00 +1.698051e+00 +9.782868e-01
+6.306235e-01 +7.383362e-01 +1.204389e+00 +1.854070e+00
+2.523061e+00 +3.048626e+00 +3.191241e+00 +1.760373e+00
[row +109]
-2.623428e+00 -2.781872e+00 -2.160094e+00 -1.231483e+00
-1.323782e-01 +1.005858e+00 +2.013449e+00 +2.678822e+00
+2.828924e+00 +2.462706e+00 +1.800981e+00 +1.178094e+00
+8.685342e-01 +9.697250e-01 +1.412264e+00 +2.046991e+00
+2.723111e+00 +3.294519e+00 +3.522871e+00 +2.467808e+00
-2.881617e+00 -2.852953e+00 -2.030763e+00 -9.417043e-01
+2.672968e-01 +1.475445e+00 +2.502211e+00 +3.122723e+00
+3.162217e+00 +2.643822e+00 +1.838216e+00 +1.129328e+00
+8.127719e-01 +9.704381e-01 +1.495058e+00 +2.201083e+00
+2.916173e+00 +3.470589e+00 +3.589165e+00 +1.928514e+00
[row +110]
-2.865076e+00 -3.062580e+00 -2.437741e+00 -1.472082e+00
-3.183876e-01 +8.877661e-01 +1.969643e+00 +2.704723e+00
+2.907037e+00 +2.569433e+00 +1.919670e+00 +1.307262e+00
+1.019711e+00 +1.157797e+00 +1.646449e+00 +2.327711e+00
+3.043195e+00 +3.640379e+00 +3.858251e+00 +2.654627e+00
-3.151595e+00 -3.162869e+00 -2.305046e+00 -1.165099e+00
+1.082681e-01 +1.391242e+00 +2.495081e+00 +3.181751e+00
+3.262967e+00 +2.760584e+00 +1.959612e+00 +1.262309e+00
+9.749449e-01 +1.177336e+00 +1.752531e+00 +2.505393e+00
+3.256814e+00 +3.832205e+00 +3.923369e+00 +2.063978e+00
[row +111]
-3.060006e+00 -3.291063e+00 -2.670288e+00 -1.677859e+00
-4.817909e-01 +7.796800e-01 +1.924191e+00 +2.719847e+00
+2.968923e+00 +2.658087e+00 +2.020612e+00 +1.419014e+00
+1.151888e+00 +1.322508e+00 +1.850388e+00 +2.569749e+00
+3.315809e+00 +3.931229e+00 +4.135506e+00 +2.802608e+00
-3.368269e+00 -3.420008e+00 -2.536554e+00 -1.357988e+00
-3.333878e-02 +1.311501e+00 +2.480990e+00 +3.225510e+00
+3.344269e+00 +2.857492e+00 +2.062570e+00 +1.377460e+00
+1.117123e+00 +1.358755e+00 +1.976481e+00 +2.766947e+00
+3.545586e+00 +4.134905e+00 +4.196775e+00 +2.169497e+00
[row +112]
-3.211242e+00 -3.470278e+00 -2.859075e+00 -1.849097e+00
-6.220417e-01 +6.825747e-01 +1.878123e+00 +2.725007e+00
+3.015120e+00 +2.729047e+00 +2.104150e+00 +1.513669e+00
+1.265287e+00 +1.463966e+00 +2.024205e+00 +2.773516e+00
+3.541981e+00 +4.168943e+00 +4.357633e+00 +2.915135e+00
-3.535279e+00 -3.626364e+00 -2.726146e+00 -1.520230e+00
-1.567352e-01 +1.237264e+00 +2.460890e+00 +3.254683e+00
+3.406599e+00 +2.934977e+00 +2.147519e+00 +1.475125e+00
+1.239471e+00 +1.514735e+00 +2.167066e+00 +2.986359e+00
+3.783915e+00 +4.381039e+00 +4.413198e+00 +2.248155e+00
[row +113]
-3.322140e+00 -3.603705e+00 -3.006054e+00 -1.986658e+00
-7.390691e-01 +5.971045e-01 +1.832311e+00 +2.720995e+00
+3.046226e+00 +2.782782e+00 +2.170723e+00 +1.591649e+00
+1.360276e+00 +1.582509e+00 +2.168378e+00 +2.939910e+00
+3.723331e+00 +4.356040e+00 +4.528217e+00 +2.995850e+00
-3.656709e+00 -3.784571e+00 -2.875315e+00 -1.652230e+00
-2.615409e-01 +1.169335e+00 +2.435654e+00 +3.269995e+00
+3.450533e+00 +2.993569e+00 +2.214978e+00 +1.555751e+00
+1.342320e+00 +1.645596e+00 +2.324864e+00 +3.164794e+00
+3.973859e+00 +4.573608e+00 +4.576989e+00 +2.303138e+00
[row +114]
-3.396180e+00 -3.695088e+00 -3.113605e+00 -2.091854e+00
-8.332033e-01 +5.236326e-01 +1.787475e+00 +2.708578e+00
+3.062896e+00 +2.819851e+00 +2.220859e+00 +1.653471e+00
+1.437357e+00 +1.678686e+00 +2.283696e+00 +3.070226e+00
+3.861929e+00 +4.495480e+00 +4.651171e+00 +3.048422e+00
-3.736808e+00 -3.897680e+00 -2.986015e+00 -1.754839e+00
-3.477335e-01 +1.108292e+00 +2.406077e+00 +3.272201e+00
+3.476734e+00 +3.033897e+00 +2.265553e+00 +1.619885e+00
+1.426157e+00 +1.751913e+00 +2.450814e+00 +3.303853e+00
+4.117940e+00 +4.716035e+00 +4.692738e+00 +2.337551e+00
[row +115]
-3.436806e+00 -3.748235e+00 -3.184367e+00 -2.166328e+00
-9.051021e-01 +4.622649e-01 +1.744189e+00 +2.688488e+00
+3.065828e+00 +2.840891e+00 +2.255169e+00 +1.699738e+00
+1.497148e+00 +1.753228e+00 +2.371204e+00 +3.166081e+00
+3.960169e+00 +4.590495e+00 +4.730529e+00 +3.076372e+00
-3.779780e+00 -3.968967e+00 -3.060512e+00 -1.829252e+00
-4.155965e-01 +1.054505e+00 +2.372866e+00 +3.262080e+00
+3.485949e+00 +3.056679e+00 +2.299928e+00 +1.668160e+00
+1.491607e+00 +1.834480e+00 +2.546151e+00 +3.405473e+00
+4.218985e+00 +4.811978e+00 +4.765040e+00 +2.354294e+00
[row +116]
-3.447327e+00 -3.766864e+00 -3.221110e+00 -2.211941e+00
-9.556824e-01 +4.128828e-01 +1.702887e+00 +2.661424e+00
+3.055767e+00 +2.846618e+00 +2.274346e+00 +1.731135e+00
+1.540376e+00 +1.807028e+00 +2.432166e+00 +3.229327e+00
+4.020657e+00 +4.644448e+00 +4.770286e+00 +3.082960e+00
-3.789639e+00 -4.001790e+00 -3.101269e+00 -1.876924e+00
-4.656699e-01 +1.008155e+00 +2.336646e+00 +3.240424e+00
+3.478999e+00 +3.062718e+00 +2.318859e+00 +1.701289e+00
+1.539422e+00 +1.894280e+00 +2.612349e+00 +3.471834e+00
+4.280004e+00 +4.865174e+00 +4.798335e+00 +2.355988e+00
[row +117]
-3.430846e+00 -3.754508e+00 -3.226630e+00 -2.230693e+00
-9.860592e-01 +3.751759e-01 +1.663877e+00 +2.628043e+00
+3.033491e+00 +2.837819e+00 +2.279154e+00 +1.748422e+00
+1.567865e+00 +1.841115e+00 +2.468019e+00 +3.261993e+00
+4.046116e+00 +4.660714e+00 +4.774284e+00 +3.071111e+00
-3.770105e+00 -3.999477e+00 -3.110836e+00 -1.899493e+00
-4.987022e-01 +9.692540e-01 +2.297957e+00 +3.208038e+00
+3.456774e+00 +3.052895e+00 +2.323170e+00 +1.720057e+00
+1.570460e+00 +1.932454e+00 +2.651065e+00 +3.505272e+00
+4.304081e+00 +4.879320e+00 +4.796790e+00 +2.344930e+00
[row +118]
-3.390221e+00 -3.714439e+00 -3.203671e+00 -2.224645e+00
-9.974905e-01 +3.486736e-01 +1.627346e+00 +2.588966e+00
+2.999809e+00 +2.815349e+00 +2.270429e+00 +1.752421e+00
+1.580520e+00 +1.856633e+00 +2.480333e+00 +3.266217e+00
+4.039308e+00 +4.642605e+00 +4.746128e+00 +3.043384e+00
-3.724557e+00 -3.965245e+00 -3.091777e+00 -1.898711e+00
-5.156066e-01 +9.376645e-01 +2.257259e+00 +3.165728e+00
+3.420222e+00 +3.028163e+00 +2.313744e+00 +1.725315e+00
+1.585676e+00 +1.950275e+00 +2.664090e+00 +3.508213e+00
+4.294289e+00 +4.857986e+00 +4.764229e+00 +2.323084e+00
[row +119]
-3.328050e+00 -3.649640e+00 -3.154872e+00 -2.195868e+00
-9.913312e-01 +3.327748e-01 +1.593380e+00 +2.544770e+00
+2.937500e+00 +2.780123e+00 +2.249070e+00 +1.744017e+00
+1.579318e+00 +1.854822e+00 +2.470777e+00 +3.244201e+00
+4.002975e+00 +4.593296e+00 +4.689145e+00 +3.001960e+00
-3.656001e+00 -3.902145e+00 -3.046611e+00 -1.876393e+00
-5.174220e-01 +9.131183e-01 +2.214933e+00 +2.812500e+00
+3.062500e+00 +2.989538e+00 +2.291519e+00 +1.717968e+00
+1.586106e+00 +1.949117e+00 +2.653305e+00 +3.483113e+00
+4.253628e+00 +4.804558e+00 +4.704089e+00 +2.292084e+00
[row +120]
-3.390147e+00 -3.562784e+00 -3.082728e+00 -2.146394e+00
-9.689938e-01 +3.267752e-01 +1.561966e+00 +2.187500e+00
+2.437500e+00 +2.687500e+00 +2.216033e+00 +1.724141e+00
+1.565297e+00 +1.836995e+00 +2.441085e+00 +3.198162e+00
+3.939788e+00 +4.515791e+00 +4.606350e+00 +2.948650e+00
-3.622444e+00 -3.813031e+00 -2.977764e+00 -1.834374e+00
-5.052778e-01 +8.952361e-01 +2.062500e+00 +2.312500e+00
+2.562500e+00 +2.812500e+00 +2.257485e+00 +1.698974e+00
+1.572854e+00 +1.930435e+00 +2.620646e+00 +3.432412e+00
+4.184973e+00 +4.722198e+00 +4.619415e+00 +2.253249e+00
[row +121]
+2.542252e+00 +2.398594e+00 +2.079739e+00 +1.648739e+00
+1.048879e+00 +2.834487e-01 -6.133276e-01 -1.581619e+00
-1.875000e+00 -2.075000e+00 -2.275000e+00 -2.475000e+00
-2.675000e+00 -2.875000e+00 -3.075000e+00 -3.275000e+00
-3.471035e+00 -3.599258e+00 -2.938290e+00 -9.611078e-01
+2.304445e+00 +2.326435e+00 +2.144824e+00 +1.622004e+00
+8.955244e-01 +1.286374e-02 -9.780723e-01 -1.775000e+00
-1.975000e+00 -2.175000e+00 -2.375000e+00 -2.575000e+00
-2.775000e+00 -2.975000e+00 -3.175000e+00 -3.375000e+00
-3.550058e+00 -3.655604e+00 -2.820619e+00 -9.333907e-01
[row +122]
+2.820884e+00 +2.683642e+00 +2.336969e+00 +1.852896e+00
+1.184535e+00 +3.398783e-01 -6.420950e-01 -1.695048e+00
-2.175000e+00 -2.375000e+00 -2.575000e+00 -2.775000e+00
-2.975000e+00 -3.175000e+00 -3.375000e+00 -3.575000e+00
-3.775000e+00 -3.927033e+00 -3.374271e+00 -1.179512e+00
+2.581173e+00 +2.623268e+00 +2.399212e+00 +1.810879e+00
+1.006197e+00 +3.730424e-02 -1.042537e+00 -2.075000e+00
-2.275000e+00 -2.475000e+00 -2.675000e+00 -2.875000e+00
-3.075000e+00 -3.275000e+00 -3.475000e+00 -3.675000e+00
-3.864814e+00 -3.993184e+00 -3.254133e+00 -1.121043e+00
[row +123]
+3.128178e+00 +3.014356e+00 +2.645868e+00 +2.106841e+00
+1.371540e+00 +4.551792e-01 -5.981113e-01 -1.716202e+00
-2.475000e+00 -2.675000e+00 -2.875000e+00 -3.075000e+00
-3.275000e+00 -3.475000e+00 -3.675000e+00 -3.875000e+00
-4.075000e+00 -4.256747e+00 -3.832084e+00 -1.431573e+00
+2.906314e+00 +2.978724e+00 +2.697523e+00 +2.041041e+00
+1.163338e+00 +1.204333e-01 -1.029364e+00 -2.201956e+00
-2.575000e+00 -2.775000e+00 -2.975000e+00 -3.175000e+00
-3.375000e+00 -3.575000e+00 -3.775000e+00 -3.975000e+00
-4.174608e+00 -4.337465e+00 -3.718522e+00 -1.322577e+00
[row +124]
+3.449817e+00 +3.374181e+00 +2.988615e+00 +2.394762e+00
+1.596401e+00 +6.172908e-01 -4.933189e-01 -1.658701e+00
-2.775000e+00 -2.975000e+00 -3.175000e+00 -3.375000e+00
-3.575000e+00 -3.775000e+00 -3.975000e+00 -4.175000e+00
-4.375000e+00 -4.574283e+00 -4.294767e+00 -1.707439e+00
+3.264180e+00 +3.371726e+00 +3.022950e+00 +2.298742e+00
+1.355222e+00 +2.513350e-01 -9.502524e-01 -2.161017e+00
-2.875000e+00 -3.075000e+00 -3.275000e+00 -3.475000e+00
-3.675000e+00 -3.875000e+00 -4.075000e+00 -4.275000e+00
-4.475000e+00 -4.669898e+00 -4.196696e+00 -1.532124e+00
[row +125]
+3.769145e+00 +3.743760e+00 +3.344677e+00 +2.698728e+00
+1.843990e+00 +8.129653e-01 -3.405041e-01 -1.536727e+00
-2.686431e+00 -3.275000e+00 -3.475000e+00 -3.675000e+00
-3.875000e+00 -4.075000e+00 -4.275000e+00 -4.475000e+00
-4.675000e+00 -4.875000e+00 -4.742210e+00 -1.994905e+00
+3.636065e+00 +3.778064e+00 +3.356318e+00 +2.568439e+00
+1.568820e+00 +4.181966e-01 -8.175665e-01 -2.047680e+00
-3.175000e+00 -3.375000e+00 -3.575000e+00 -3.775000e+00
-3.975000e+00 -4.175000e+00 -4.375000e+00 -4.575000e+00
-4.775000e+00 -4.975000e+00 -4.668000e+00 -1.742316e+00
[row +126]
+4.068840e+00 +4.102704e+00 +3.692864e+00 +3.000500e+00
+2.099044e+00 +1.029020e+00 -1.521755e-01 -1.363850e+00
-2.516709e+00 -3.509603e+00 -3.775000e+00 -3.975000e+00
-4.175000e+00 -4.375000e+00 -4.575000e+00 -4.775000e+00
-4.975000e+00 -5.175000e+00 -5.153288e+00 -2.280302e+00
+4.001766e+00 +4.172866e+00 +3.678092e+00 +2.834397e+00
+1.791095e+00 +6.093749e-01 -6.432945e-01 -1.876084e+00
-2.994480e+00 -3.675000e+00 -3.875000e+00 -4.075000e+00
-4.275000e+00 -4.475000e+00 -4.675000e+00 -4.875000e+00
-5.075000e+00 -5.275000e+00 -5.110194e+00 -1.944810e+00
[row +127]
+4.332181e+00 +4.430917e+00 +4.012857e+00 +3.282840e+00
+2.347207e+00 +1.253147e+00 +6.010036e-02 -1.152413e+00
-2.297229e+00 -3.283012e+00 -4.051699e+00 -4.275000e+00
-4.475000e+00 -4.675000e+00 -4.875000e+00 -5.075000e+00
-5.275000e+00 -5.475000e+00 -5.507537e+00 -2.549270e+00
+4.340816e+00 +4.532437e+00 +3.969817e+00 +3.081822e+00
+2.009856e+00 +8.140339e-01 -4.384631e-01 -1.658993e+00
-2.756626e+00 -3.655927e+00 -4.175000e+00 -4.375000e+00
-4.575000e+00 -4.775000e+00 -4.975000e+00 -5.175000e+00
-5.375000e+00 -5.575000e+00 -5.501124e+00 -2.130743e+00
[row +128]
+4.543966e+00 +4.709634e+00 +4.286334e+00 +3.530403e+00
+2.575718e+00 +1.474406e+00 +2.860376e-01 -9.132766e-01
-2.040481e+00 -3.014061e+00 -3.787127e+00 -4.379155e+00
-4.775000e+00 -4.975000e+00 -5.175000e+00 -5.375000e+00
-5.575000e+00 -5.775000e+00 -5.786455e+00 -2.787492e+00
+4.633544e+00 +4.835573e+00 +4.215120e+00 +3.297627e+00
+2.214316e+00 +1.022531e+00 -2.128651e-01 -1.407607e+00
-2.476598e+00 -3.359894e+00 -4.038725e+00 -4.565714e+00
-4.875000e+00 -5.075000e+00 -5.275000e+00 -5.475000e+00
-5.675000e+00 -5.875000e+00 -5.820100e+00 -2.291157e+00
[row +129]
+4.691167e+00 +4.922230e+00 +4.497761e+00 +3.730313e+00
+2.773840e+00 +1.683492e+00 +5.167800e-01 -6.557743e-01
-1.756970e+00 -2.714591e+00 -3.490118e+00 -4.104571e+00
-4.622434e+00 -5.107395e+00 -5.475000e+00 -5.675000e+00
-5.875000e+00 -6.075000e+00 -5.974461e+00 -2.981408e+00
+4.862008e+00 +5.064468e+00 +4.400367e+00 +3.470922e+00
+2.395408e+00 +1.226609e+00 +2.502041e-02 -1.131557e+00
-2.165661e+00 -3.030845e+00 -3.721317e+00 -4.287986e+00
-4.810304e+00 -5.340885e+00 -5.575000e+00 -5.775000e+00
-5.975000e+00 -6.175000e+00 -6.049022e+00 -2.417387e+00
[row +130]
+4.763391e+00 +5.054885e+00 +4.634931e+00 +3.872515e+00
+2.933086e+00 +1.872850e+00 +7.449310e-01 -3.877779e-01
-1.455418e+00 -2.394175e+00 -3.170861e+00 -3.804820e+00
-4.353487e+00 -4.873908e+00 -5.392634e+00 -5.895167e+00
-6.175000e+00 -6.375000e+00 -6.059582e+00 -3.118914e+00
+5.010832e+00 +5.205290e+00 +4.515065e+00 +3.593291e+00
+2.545941e+00 +1.419460e+00 +2.680066e-01 -8.390111e-01
-1.833125e+00 -2.679231e+00 -3.380608e+00 -3.983520e+00
-4.553585e+00 -5.131557e+00 -5.713642e+00 -6.075000e+00
-6.275000e+00 -6.475000e+00 -6.173278e+00 -2.501466e+00
[row +131]
+4.753192e+00 +5.097111e+00 +4.689273e+00 +3.949927e+00
+3.047307e+00 +2.036690e+00 +9.645029e-01 -1.158236e-01
-1.143014e+00 -2.060527e+00 -2.837405e+00 -3.488000e+00
-4.060729e+00 -4.605471e+00 -5.147131e+00 -5.674844e+00
-6.135306e+00 -6.397937e+00 -6.033909e+00 -3.189995e+00
+5.067923e+00 +5.248498e+00 +4.552060e+00 +3.658905e+00
+2.660636e+00 +1.595704e+00 +5.101225e-01 -5.368325e-01
-1.486664e+00 -2.313418e+00 -3.025297e+00 -3.660739e+00
-4.269948e+00 -4.881808e+00 -5.490221e+00 -6.059970e+00
-6.524074e+00 -6.736529e+00 -6.182429e+00 -2.536538e+00
[row +132]
+4.656262e+00 +5.042152e+00 +4.655971e+00 +3.958462e+00
+3.112651e+00 +2.170912e+00 +1.170822e+00 +1.547419e-01
-8.256459e-01 -1.719859e+00 -2.496125e+00 -3.160544e+00
-3.750489e+00 -4.308118e+00 -4.857216e+00 -5.391649e+00
-5.867662e+00 -6.168167e+00 -5.893850e+00 -3.187290e+00
+5.025055e+00 +5.188941e+00 +4.507580e+00 +3.664505e+00
+2.736081e+00 +1.751321e+00 +7.465098e-01 -2.307464e-01
-1.132596e+00 -1.940112e+00 -2.662255e+00 -3.326358e+00
-3.965682e+00 -4.597346e+00 -5.214168e+00 -5.788779e+00
-6.268166e+00 -6.521077e+00 -6.070667e+00 -2.517274e+00
[row +133]
+4.471552e+00 +4.887245e+00 +4.533921e+00 +3.896928e+00
+3.127452e+00 +2.272994e+00 +1.360407e+00 +4.196122e-01
-5.081271e-01 -1.377180e+00 -2.152094e+00 -2.827609e+00
-3.428053e+00 -3.987291e+00 -4.528451e+00 -5.051121e+00
-5.522201e+00 -5.839889e+00 -5.640187e+00 -3.106550e+00
+4.878282e+00 +5.025785e+00 +4.381134e+00 +3.609285e+00
+2.770611e+00 +1.883551e+00 +9.733095e-01 +7.449994e-02
-7.761366e-01 -1.564709e+00 -2.296934e+00 -2.985785e+00
-3.646132e+00 -4.283526e+00 -4.890896e+00 -5.450092e+00
-5.923266e+00 -6.195905e+00 -5.837049e+00 -2.440284e+00
[row +134]
+4.201288e+00 +4.633721e+00 +4.325538e+00 +3.766825e+00
+3.092036e+00 +2.341836e+00 +1.530840e+00 +6.753799e-01
-1.943784e-01 -1.036549e+00 -1.809379e+00 -2.493381e+00
-3.097922e+00 -3.648015e+00 -4.166550e+00 -4.659701e+00
-5.105881e+00 -5.420086e+00 -5.277950e+00 -2.946946e+00
+4.628151e+00 +4.762280e+00 +4.175310e+00 +3.494694e+00
+2.764156e+00 +1.990767e+00 +1.187548e+00 +3.749934e-01
-4.216006e-01 -1.191582e+00 -1.933687e+00 -2.643420e+00
-3.315939e+00 -3.945499e+00 -4.526298e+00 -5.050606e+00
-5.496528e+00 -5.768180e+00 -5.485484e+00 -2.304479e+00
[row +135]
+3.850916e+00 +4.286922e+00 +4.036433e+00 +3.572076e+00
+3.008487e+00 +2.377590e+00 +1.680632e+00 +9.194069e-01
+1.124116e-01 -7.012689e-01 -1.471269e+00 -2.161298e+00
-2.763994e+00 -3.295008e+00 -3.777381e+00 -4.224627e+00
-4.627297e+00 -4.918377e+00 -4.816087e+00 -2.711214e+00
+4.279690e+00 +4.405389e+00 +3.895467e+00 +3.324177e+00
+2.718050e+00 +2.072345e+00 +1.387027e+00 +6.675298e-01
-7.257136e-02 -8.242977e-01 -1.576016e+00 -2.302891e+00
-2.979203e+00 -3.588288e+00 -4.126707e+00 -4.598186e+00
-4.997203e+00 -5.248214e+00 -5.024492e+00 -2.111340e+00
[row +136]
+3.428913e+00 +3.855908e+00 +3.674975e+00 +3.318674e+00
+2.880377e+00 +2.381472e+00 +1.809087e+00 +1.149710e+00
+4.096576e-01 -3.740447e-01 -1.140450e+00 -1.834217e+00
-2.429693e+00 -2.932737e+00 -3.366919e+00 -3.753759e+00
-4.096365e+00 -4.346577e+00 -4.266952e+00 -2.405574e+00
+3.842131e+00 +3.965295e+00 +3.549336e+00 +3.102867e+00
+2.634815e+00 +2.128518e+00 +1.570220e+00 +9.495076e-01
+2.679664e-01 -4.657855e-01 -1.226762e+00 -1.967217e+00
-2.639602e+00 -3.216801e+00 -3.698795e+00 -4.101638e+00
-4.436274e+00 -4.648938e+00 -4.466712e+00 -1.865034e+00
[row +137]
+2.946452e+00 +3.352958e+00 +3.251762e+00 +3.014284e+00
+2.712475e+00 +2.355572e+00 +1.916180e+00 +1.364859e+00
+6.952722e-01 -5.710134e-02 -8.191296e-01 -1.514541e+00
-2.098056e+00 -2.565432e+00 -2.941164e+00 -3.255364e+00
-3.523958e+00 -3.718156e+00 -3.645627e+00 -2.039412e+00
+3.328390e+00 +3.454786e+00 +3.146560e+00 +2.837240e+00
+2.517943e+00 +2.160241e+00 +1.736179e+00 +1.218838e+00
+5.975220e-01 -1.184690e-01 -8.882432e-01 -1.638939e+00
-2.300459e+00 -2.835824e+00 -3.249443e+00 -3.570417e+00
-3.826007e+00 -3.985288e+00 -3.828198e+00 -1.572339e+00
[row +138]
+2.416891e+00 +2.792863e+00 +2.779018e+00 +2.667808e+00
+2.510441e+00 +2.302668e+00 +2.002434e+00 +1.563889e+00
+9.675816e-01 +2.477233e-01 -5.091419e-01 -1.204302e+00
-1.771792e+00 -2.197092e+00 -2.506047e+00 -2.737893e+00
-2.921502e+00 -3.047649e+00 -2.969128e+00 -1.624721e+00
+2.754288e+00 +2.888558e+00 +2.698171e+00 +2.534763e+00
+2.371666e+00 +2.169052e+00 +1.884443e+00 +1.473872e+00
+9.140172e-01 +2.156385e-01 -5.623627e-01 -1.320207e+00
-1.964795e+00 -2.449982e+00 -2.785581e+00 -3.014328e+00
-3.179460e+00 -3.273514e+00 -3.127513e+00 -1.242321e+00
[row +139]
+1.855086e+00 +2.192073e+00 +2.269952e+00 +2.288925e+00
+2.280530e+00 +2.226040e+00 +2.068812e+00 +1.746224e+00
+1.225258e+00 +5.389094e-01 -2.120127e-01 -9.052307e-01
-1.453319e+00 -1.831462e+00 -2.067321e+00 -2.209740e+00
-2.300573e+00 -2.350041e+00 -2.255514e+00 -1.175327e+00
+2.137581e+00 +2.282439e+00 +2.216044e+00 +2.203523e+00
+2.200732e+00 +2.156941e+00 +2.014960e+00 +1.713334e+00
+1.215723e+00 +5.348615e-01 -2.506852e-01 -1.012849e+00
-1.635350e+00 -2.063694e+00 -2.314043e+00 -2.443217e+00
-2.509978e+00 -2.530459e+00 -2.384686e+00 -8.857853e-01
[row +140]
+1.276553e+00 +1.567740e+00 +1.738102e+00 +1.887647e+00
+2.029311e+00 +2.129301e+00 +2.116611e+00 +1.911610e+00
+1.467266e+00 +8.152024e-01 +7.098602e-02 -6.187970e-01
-1.144790e+00 -1.472018e+00 -1.630471e+00 -1.679035e+00
-1.672511e+00 -1.640165e+00 -1.522993e+00 -7.059557e-01
+1.496857e+00 +1.652610e+00 +1.712345e+00 +1.851881e+00
+2.010192e+00 +2.126223e+00 +2.128014e+00 +1.936273e+00
+1.501209e+00 +8.378081e-01 +4.550503e-02 -7.184160e-01
-1.314599e+00 -1.681128e+00 -1.841413e+00 -1.866685e+00
-1.830705e+00 -1.772842e+00 -1.620115e+00 -5.145139e-01
[row +141]
+6.965701e-01 +9.367516e-01 +1.196729e+00 +1.473892e+00
+1.763399e+00 +2.016241e+00 +2.147378e+00 +2.060059e+00
+1.692820e+00 +1.075574e+00 +3.387982e-01 -3.462469e-01
-8.481067e-01 -1.121943e+00 -1.200619e+00 -1.153446e+00
-1.048070e+00 -9.321489e-01 -7.890544e-01 -2.312618e-01
+8.504219e-01 +1.014837e+00 +1.199018e+00 +1.488143e+00
+1.805203e+00 +2.079433e+00 +2.224161e+00 +2.142015e+00
+1.769309e+00 +1.123330e+00 +3.251619e-01 -4.382160e-01
-1.004764e+00 -1.306155e+00 -1.373898e+00 -1.293827e+00
-1.154140e+00 -1.016594e+00 -8.534867e-01 -1.404053e-01
[row +142]
+1.293115e-01 +3.148543e-01 +6.582620e-01 +1.057110e+00
+1.489231e+00 +1.890688e+00 +2.162820e+00 +2.191798e+00
+1.901345e+00 +1.319191e+00 +5.905562e-01 -8.862395e-02
-5.649304e-01 -7.841073e-01 -7.824540e-01 -6.400235e-01
-4.371269e-01 -2.389409e-01 -6.972460e-02 +2.351002e-01
+2.152631e-01 +3.838026e-01 +6.873200e-01 +1.120276e+00
+1.590855e+00 +2.019217e+00 +2.304167e+00 +2.330129e+00
+2.019084e+00 +1.390494e+00 +5.874462e-01 -1.733422e-01
-7.078128e-01 -9.423093e-01 -9.172120e-01 -7.330194e-01
-4.917568e-01 -2.762875e-01 -1.028343e-01 +2.253863e-01
[row +143]
-4.128764e-01 -2.840666e-01 +1.338624e-01 +6.459747e-01
+1.212871e+00 +1.756386e+00 +2.164741e+00 +2.307226e+00
+2.092456e+00 +1.545396e+00 +8.255603e-01 +1.532122e-01
-2.966912e-01 -4.610567e-01 -3.801766e-01 -1.450695e-01
+1.515461e-01 +4.280584e-01 +6.210220e-01 +6.812332e-01
-3.937798e-01 -2.274434e-01 +1.874479e-01 +7.556670e-01
+1.372018e+00 +1.948246e+00 +2.368956e+00 +2.500388e+00
+2.249806e+00 +1.638557e+00 +8.317025e-01 +7.531026e-02
-4.254640e-01 -5.927587e-01 -4.764968e-01 -1.917449e-01
+1.462895e-01 +4.353105e-01 +6.162127e-01 +5.731810e-01
[row +144]
-9.199682e-01 -8.484833e-01 -3.668939e-01 +2.481526e-01
+9.398595e-01 +1.616899e+00 +2.154978e+00 +2.406880e+00
+2.265928e+00 +1.753686e+00 +1.043264e+00 +3.785728e-01
-4.459360e-02 -1.549996e-01 +2.544490e-03 +3.259442e-01
+7.104397e-01 +1.059244e+00 +1.271651e+00 +1.097519e+00
-9.645817e-01 -8.078620e-01 -2.917343e-01 +4.009415e-01
+1.153227e+00 +1.869141e+00 +2.419568e+00 +2.652748e+00
+2.460933e+00 +1.866951e+00 +1.057441e+00 +3.070288e-01
-1.591883e-01 -2.602804e-01 -5.625279e-02 +3.235219e-01
+7.513666e-01 +1.107535e+00 +1.290916e+00 +8.952781e-01
[row +145]
-1.384489e+00 -1.369481e+00 -8.361973e-01 -1.298491e-01
+6.751039e-01 +1.475532e+00 +2.135349e+00 +2.491399e+00
+2.421680e+00 +1.943703e+00 +1.243260e+00 +5.869295e-01
+1.903767e-01 +1.321956e-01 +3.625935e-01 +7.684284e-01
+1.233391e+00 +1.646935e+00 +1.873247e+00 +1.476870e+00
-1.488003e+00 -1.348630e+00 -7.428636e-01 +6.183695e-02
+9.385836e-01 +1.784409e+00 +2.457112e+00 +2.787319e+00
+2.652097e+00 +2.075269e+00 +1.264322e+00 +5.212716e-01
+8.978706e-02 +5.275126e-02 +3.396954e-01 +8.073841e-01
+1.316470e+00 +1.731967e+00 +1.911646e+00 +1.186197e+00
[row +146]
-1.801489e+00 -1.840780e+00 -1.268058e+00 -4.827516e-01
+4.228106e-01 +1.335275e+00 +2.107614e+00 +2.561501e+00
+2.559758e+00 +2.115221e+00 +1.425278e+00 +7.779047e-01
+4.074457e-01 +3.989995e-01 +6.974149e-01 +1.178691e+00
+1.715602e+00 +2.185381e+00 +2.419504e+00 +1.814723e+00
-1.957879e+00 -1.843174e+00 -1.160141e+00 -2.568656e-01
+7.316985e-01 +1.696390e+00 +2.482738e+00 +2.904344e+00
+2.823087e+00 +2.263253e+00 +1.452150e+00 +7.176569e-01
+3.204743e-01 +3.443696e-01 +7.082145e-01 +1.255543e+00
+1.836242e+00 +2.302434e+00 +2.471851e+00 +1.442658e+00
[row +147]
-2.168323e+00 -2.258574e+00 -1.658250e+00 -8.065053e-01
+1.864552e-01 +1.198763e+00 +2.073439e+00 +2.617957e+00
+2.680322e+00 +2.268139e+00 +1.589168e+00 +9.512643e-01
+6.060431e-01 +6.442146e-01 +1.005006e+00 +1.553922e+00
+2.153599e+00 +2.670677e+00 +2.906554e+00 +2.108833e+00
-2.370797e+00 -2.287068e+00 -1.539305e+00 -5.513595e-01
+5.356503e-01 +1.607226e+00 +2.497604e+00 +3.004180e+00
+2.973840e+00 +2.430789e+00 +1.620856e+00 +8.959541e-01
+5.321178e-01 +6.130118e-01 +1.046856e+00 +1.664776e+00
+2.306912e+00 +2.814888e+00 +2.967819e+00 +1.663369e+00
[row +148]
-2.484297e+00 -2.621230e+00 -2.004163e+00 -1.098232e+00
-3.121557e-02 +1.068257e+00 +2.034371e+00 +2.661572e+00
+2.783632e+00 +2.402472e+00 +1.734901e+00 +1.106910e+00
+7.857933e-01 +8.669645e-01 +1.283899e+00 +1.892152e+00
+2.545146e+00 +3.100604e+00 +3.332684e+00 +2.358922e+00
-2.725707e+00 -2.677821e+00 -1.877530e+00 -8.187876e-01
+3.529746e-01 +1.518827e+00 +2.502849e+00 +3.087282e+00
+3.104427e+00 +2.577892e+00 +1.770496e+00 +1.056075e+00
+7.241860e-01 +8.575075e-01 +1.353832e+00 +2.032882e+00
+2.726176e+00 +3.267197e+00 +3.398304e+00 +1.848677e+00
[row +149]
-2.750261e+00 -2.928911e+00 -2.304608e+00 -1.356126e+00
-2.281538e-01 +9.456356e-01 +1.991822e+00 +2.693171e+00
+2.870040e+00 +2.518348e+00 +1.862561e+00 +1.244870e+00
+9.465058e-01 +1.066678e+00 +1.533129e+00 +2.192190e+00
+2.889124e+00 +3.474411e+00 +3.697983e+00 +2.566266e+00
-3.023470e+00 -3.014600e+00 -2.173276e+00 -1.057182e+00
+1.856712e-01 +1.432860e+00 +2.499578e+00 +3.154187e+00
+3.215049e+00 +2.704707e+00 +1.901242e+00 +1.198065e+00
+8.963610e-01 +1.077062e+00 +1.627977e+00 +2.358596e+00
+3.093036e+00 +3.658875e+00 +3.764075e+00 +2.000171e+00
[row +150]
-2.968203e+00 -3.183181e+00 -2.559585e+00 -1.579321e+00
-4.029612e-01 +8.324035e-01 +1.947055e+00 +2.713581e+00
+2.939976e+00 +2.615998e+00 +1.972340e+00 +1.365297e+00
+1.088164e+00 +1.243072e+00 +1.752200e+00 +2.453552e+00
+3.185387e+00 +3.792581e+00 +4.003974e+00 +2.733270e+00
-3.266381e+00 -3.297929e+00 -2.426110e+00 -1.265380e+00
+3.522746e-02 +1.350743e+00 +2.488845e+00 +3.205498e+00
+3.306022e+00 +2.811495e+00 +2.013371e+00 +1.322094e+00
+1.048527e+00 +1.271235e+00 +1.868698e+00 +2.641490e+00
+3.407611e+00 +3.990791e+00 +4.067450e+00 +2.120293e+00
[row +151]
-3.140881e+00 -3.386621e+00 -2.770042e+00 -1.767754e+00
-5.548251e-01 +7.297067e-01 +1.901176e+00 +2.723623e+00
+2.993946e+00 +2.695751e+00 +2.064531e+00 +1.468455e+00
+1.210915e+00 +1.396127e+00 +1.941039e+00 +2.676371e+00
+3.434611e+00 +4.056583e+00 +4.253247e+00 +2.863079e+00
-3.457733e+00 -3.529381e+00 -2.636509e+00 -1.442926e+00
-9.734605e-02 +1.273639e+00 +2.471635e+00 +3.241876e+00
+3.377772e+00 +2.898632e+00 +2.107266e+00 +1.428452e+00
+1.180759e+00 +1.439911e+00 +2.075917e+00 +2.881860e+00
+3.670940e+00 +4.264868e+00 +4.311846e+00 +2.211985e+00
[row +152]
-3.271517e+00 -3.542484e+00 -2.937650e+00 -1.922014e+00
-6.834462e-01 +6.383561e-01 +1.855136e+00 +2.724099e+00
+3.032520e+00 +2.758035e+00 +2.139527e+00 +1.554714e+00
+1.315054e+00 +1.526072e+00 +2.099955e+00 +2.861312e+00
+3.638138e+00 +4.268642e+00 +4.449128e+00 +2.959238e+00
-3.601427e+00 -3.711303e+00 -2.805671e+00 -1.589966e+00
-2.114711e-01 +1.202470e+00 +2.448862e+00 +3.264025e+00
+3.430826e+00 +2.966597e+00 +2.183399e+00 +1.517536e+00
+1.293306e+00 +1.583275e+00 +2.250012e+00 +3.080608e+00
+3.884786e+00 +4.483813e+00 +4.501388e+00 +2.278408e+00
[row +153]
-3.363550e+00 -3.654414e+00 -3.064598e+00 -2.043205e+00
-7.889636e-01 +5.588565e-01 +1.809732e+00 +2.715791e+00
+3.056323e+00 +2.803362e+00 +2.197809e+00 +1.624544e+00
+1.401019e+00 +1.633352e+00 +2.229584e+00 +3.009483e+00
+3.797830e+00 +4.431519e+00 +4.595396e+00 +3.025429e+00
-3.701659e+00 -3.846562e+00 -2.935338e+00 -1.707141e+00
-3.069527e-01 +1.137925e+00 +2.421362e+00 +3.272688e+00
+3.465805e+00 +3.015973e+00 +2.242335e+00 +1.589842e+00
+1.386579e+00 +1.701778e+00 +2.391749e+00 +3.239131e+00
+4.051461e+00 +4.650864e+00 +4.640580e+00 +2.322728e+00
[row +154]
-3.420459e+00 -3.726205e+00 -3.153413e+00 -2.132819e+00
-8.718802e-01 +4.914383e-01 +1.765608e+00 +2.699448e+00
+3.066033e+00 +2.832331e+00 +2.239951e+00 +1.678508e+00
+1.469370e+00 +1.718609e+00 +2.330852e+00 +3.122350e+00
+3.915934e+00 +4.548332e+00 +4.696047e+00 +3.065264e+00
-3.762678e+00 -3.938342e+00 -3.027638e+00 -1.795484e+00
-3.839279e-01 +1.080476e+00 +2.389885e+00 +3.268632e+00
+3.483415e+00 +3.047432e+00 +2.284720e+00 +1.645962e+00
+1.461136e+00 +1.796108e+00 +2.502222e+00 +3.359211e+00
+4.173657e+00 +4.769584e+00 +4.734037e+00 +2.347960e+00
[row +155]
-3.445631e+00 -3.761638e+00 -3.206816e+00 -2.192619e+00
-9.329913e-01 +4.360910e-01 +1.723268e+00 +2.675786e+00
+3.062374e+00 +2.845621e+00 +2.266603e+00 +1.717249e+00
+1.520783e+00 +1.782660e+00 +2.404917e+00 +3.201657e+00
+3.994963e+00 +4.622393e+00 +4.755113e+00 +3.082145e+00
-3.788609e+00 -3.989977e+00 -3.084950e+00 -1.856332e+00
-4.428145e-01 +1.030396e+00 +2.355097e+00 +3.252644e+00
+3.484441e+00 +3.061738e+00 +2.311274e+00 +1.686570e+00
+1.517668e+00 +1.867158e+00 +2.582793e+00 +3.442918e+00
+4.254306e+00 +4.843687e+00 +4.786295e+00 +2.356871e+00
[row +156]
-3.442277e+00 -3.764348e+00 -3.227600e+00 -2.224546e+00
-9.733204e-01 +3.925960e-01 +1.683081e+00 +2.645483e+00
+3.046106e+00 +2.843982e+00 +2.278495e+00 +1.741492e+00
+1.556034e+00 +1.826466e+00 +2.453136e+00 +3.249351e+00
+4.037592e+00 +4.657082e+00 +4.776523e+00 +3.079171e+00
-3.783326e+00 -4.004821e+00 -3.109790e+00 -1.891239e+00
-4.842625e-01 +9.877788e-01 +2.317580e+00 +3.225522e+00
+3.469738e+00 +3.059731e+00 +2.322788e+00 +1.712417e+00
+1.556981e+00 +1.915993e+00 +2.635033e+00 +3.492518e+00
+4.296467e+00 +4.876901e+00 +4.801670e+00 +2.351922e+00
[row +157]
-3.413383e+00 -3.737744e+00 -3.218543e+00 -2.230639e+00
-9.940601e-01 +3.605590e-01 +1.645294e+00 +2.609180e+00
+3.018024e+00 +2.828237e+00 +2.276429e+00 +1.752029e+00
+1.575987e+00 +1.851119e+00 +2.477016e+00 +3.267524e+00
+4.046573e+00 +4.655754e+00 +4.764010e+00 +3.059087e+00
-3.750386e+00 -3.986156e+00 -3.104726e+00 -1.901908e+00
-5.091080e-01 +9.525593e-01 +2.277833e+00 +3.188073e+00
+3.440227e+00 +3.042331e+00 +2.320116e+00 +1.724320e+00
+1.579983e+00 +1.943825e+00 +2.660673e+00 +3.510401e+00
+4.303229e+00 +4.872871e+00 +4.784163e+00 +2.335246e+00
[row +158]
-3.361677e+00 -3.684956e+00 -3.182342e+00 -2.212969e+00
-9.965223e-01 +3.394407e-01 +1.610041e+00 +2.567474e+00
+2.978951e+00 +2.799271e+00 +2.261270e+00 +1.749712e+00
+1.581588e+00 +1.857813e+00 +2.478182e+00 +3.258350e+00
+4.024664e+00 +4.621658e+00 +4.721044e+00 +3.024262e+00
-3.692982e+00 -3.937120e+00 -3.072303e+00 -1.890129e+00
-5.183316e-01 +9.245321e-01 +2.236278e+00 +3.062500e+00
+3.312500e+00 +3.010521e+00 +2.304170e+00 +1.723158e+00
+1.587672e+00 +1.951979e+00 +2.661554e+00 +3.499014e+00
+4.277634e+00 +4.835080e+00 +4.737407e+00 +2.308639e+00
[row +159]
-3.295595e+00 -3.608814e+00 -3.121569e+00 -2.173593e+00
-9.820952e-01 +3.285849e-01 +1.577357e+00 +2.437500e+00
+2.687500e+00 +2.758029e+00 +2.233949e+00 +1.735452e+00
+1.573843e+00 +1.847826e+00 +2.458338e+00 +3.224046e+00
+3.974575e+00 +4.557888e+00 +4.650798e+00 +2.976691e+00
-3.613932e+00 -3.860670e+00 -3.015000e+00 -1.857732e+00
-5.130215e-01 +9.033720e-01 +2.193259e+00 +2.562500e+00
+2.812500e+00 +2.965349e+00 +2.275915e+00 +1.709865e+00
+1.581119e+00 +1.941873e+00 +2.639588e+00 +3.460812e+00
+4.222626e+00 +4.766806e+00 +4.664644e+00 +2.273575e+00
[row +160]
-3.479280e+00 -3.626799e+00 -3.044005e+00 -2.114515e+00
-9.522072e-01 +3.272451e-01 +1.547190e+00 +1.937500e+00
+2.187500e+00 +2.437500e+00 +2.195449e+00 +1.710206e+00
+1.553817e+00 +1.822502e+00 +2.419242e+00 +3.166823e+00
+3.898930e+00 +4.437500e+00 +4.556130e+00 +2.918008e+00
-3.708943e+00 -3.787279e+00 -2.935186e+00 -1.806545e+00
-4.943412e-01 +8.886497e-01 +1.812500e+00 +2.062500e+00
+2.312500e+00 +2.562500e+00 +2.236360e+00 +1.685419e+00
+1.561457e+00 +1.914992e+00 +2.596723e+00 +3.398210e+00
+4.141005e+00 +4.562500e+00 +4.568723e+00 +2.231226e+00
