# mesh_time
0 0.05 0.1 0.15 0.2 0.25 0.3 0.35
0.4 0.45 0.5 0.55 0.6 0.65 0.7 0.75
0.8 0.85 0.9 0.95 1
# mesh_space
0 0.025 0.05 0.075 0.1 0.125 0.15 0.175
0.2 0.225 0.25 0.275 0.3 0.325 0.35 0.375
0.4 0.425 0.45 0.475 0.5 0.525 0.55 0.575
0.6 0.625 0.65 0.675 0.7 0.725 0.75 0.775
0.8 0.825 0.85 0.875 0.9 0.925 0.95 0.975
1 0.0125 0.0375 0.0625 0.0875 0.1125 0.1375 0.1625
0.1875 0.2125 0.2375 0.2625 0.2875 0.3125 0.3375 0.3625
0.3875 0.4125 0.4375 0.4625 0.4875 0.5125 0.5375 0.5625
0.5875 0.6125 0.6375 0.6625 0.6875 0.7125 0.7375 0.7625
0.7875 0.8125 0.8375 0.8625 0.8875 0.9125 0.9375 0.9625
0.9875 0.00625 0.03125 0.05625 0.08125 0.10625 0.13125 0.15625
0.18125 0.20625 0.23125 0.25625 0.28125 0.30625 0.33125 0.35625
0.38125 0.40625 0.43125 0.45625 0.48125 0.50625 0.53125 0.55625
0.58125 0.60625 0.63125 0.65625 0.68125 0.70625 0.73125 0.75625
0.78125 0.80625 0.83125 0.85625 0.88125 0.90625 0.93125 0.95625
0.98125 0.01875 0.04375 0.06875 0.09375 0.11875 0.14375 0.16875
0.19375 0.21875 0.24375 0.26875 0.29375 0.31875 0.34375 0.36875
0.39375 0.41875 0.44375 0.46875 0.49375 0.51875 0.54375 0.56875
0.59375 0.61875 0.64375 0.66875 0.69375 0.71875 0.74375 0.76875
0.79375 0.81875 0.84375 0.86875 0.89375 0.91875 0.94375 0.96875
0.99375
# data y_d
[row +0]
+9.866143e-01 +9.780261e-01 +9.640276e-01 +9.413755e-01
+9.051483e-01 +8.482836e-01 +7.615942e-01 +6.351490e-01
+4.621172e-01 +2.449187e-01 -0.000000e+00 -2.449187e-01
-4.621172e-01 -6.351490e-01 -7.615942e-01 -8.482836e-01
-9.051483e-01 -9.413755e-01 -9.640276e-01 -9.780261e-01
-9.866143e-01
[row +1]
+9.828450e-01 +9.725577e-01 +9.562375e-01 +9.305531e-01
+8.906374e-01 +8.298019e-01 +7.397831e-01 +6.122421e-01
+4.422304e-01 +2.331330e-01 -0.000000e+00 -2.331330e-01
-4.422304e-01 -6.122421e-01 -7.397831e-01 -8.298019e-01
-8.906374e-01 -9.305531e-01 -9.562375e-01 -9.725577e-01
-9.828450e-01
[row +2]
+9.780261e-01 +9.657519e-01 +9.468060e-01 +9.178174e-01
+8.740533e-01 +8.093011e-01 +7.162979e-01 +5.882593e-01
+4.218990e-01 +2.212785e-01 -0.000000e+00 -2.212785e-01
-4.218990e-01 -5.882593e-01 -7.162979e-01 -8.093011e-01
-8.740533e-01 -9.178174e-01 -9.468060e-01 -9.657519e-01
-9.780261e-01
[row +3]
+9.718727e-01 +9.572949e-01 +9.354091e-01 +9.028637e-01
+8.551470e-01 +7.866188e-01 +6.910695e-01 +5.631949e-01
+4.011343e-01 +2.093582e-01 -0.000000e+00 -2.093582e-01
-4.011343e-01 -5.631949e-01 -6.910695e-01 -7.866188e-01
-8.551470e-01 -9.028637e-01 -9.354091e-01 -9.572949e-01
-9.718727e-01
[row +4]
+9.640276e-01 +9.468060e-01 +9.216686e-01 +8.853516e-01
+8.336546e-01 +7.615942e-01 +6.640368e-01 +5.370496e-01
+3.799490e-01 +1.973753e-01 -0.000000e+00 -1.973753e-01
-3.799490e-01 -5.370496e-01 -6.640368e-01 -7.615942e-01
-8.336546e-01 -8.853516e-01 -9.216686e-01 -9.468060e-01
-9.640276e-01
[row +5]
+9.540453e-01 +9.338280e-01 +9.051483e-01 +8.649066e-01
+8.093011e-01 +7.340715e-01 +6.351490e-01 +5.098300e-01
+3.583574e-01 +1.853332e-01 -0.000000e+00 -1.853332e-01
-3.583574e-01 -5.098300e-01 -6.351490e-01 -7.340715e-01
-8.093011e-01 -8.649066e-01 -9.051483e-01 -9.338280e-01
-9.540453e-01
[row +6]
+9.413755e-01 +9.178174e-01 +8.853516e-01 +8.411229e-01
+7.818064e-01 +7.039056e-01 +6.043678e-01 +4.815498e-01
+3.363755e-01 +1.732352e-01 -0.000000e+00 -1.732352e-01
-3.363755e-01 -4.815498e-01 -6.043678e-01 -7.039056e-01
-7.818064e-01 -8.411229e-01 -8.853516e-01 -9.178174e-01
-9.413755e-01
[row +7]
+9.253462e-01 +8.981371e-01 +8.617232e-01 +8.135706e-01
+7.508933e-01 +6.709671e-01 +5.716700e-01 +4.522300e-01
+3.140209e-01 +1.610846e-01 -0.000000e+00 -1.610846e-01
-3.140209e-01 -4.522300e-01 -5.716700e-01 -6.709671e-01
-7.508933e-01 -8.135706e-01 -8.617232e-01 -8.981371e-01
-9.253462e-01
[row +8]
+9.051483e-01 +8.740533e-01 +8.336546e-01 +7.818064e-01
+7.162979e-01 +6.351490e-01 +5.370496e-01 +4.218990e-01
+2.913126e-01 +1.488850e-01 -0.000000e+00 -1.488850e-01
-2.913126e-01 -4.218990e-01 -5.370496e-01 -6.351490e-01
-7.162979e-01 -7.818064e-01 -8.336546e-01 -8.740533e-01
-9.051483e-01
[row +9]
+8.798267e-01 +8.447411e-01 +8.004990e-01 +7.453899e-01
+6.777821e-01 +5.963736e-01 +5.005202e-01 +3.905933e-01
+2.682712e-01 +1.366400e-01 -0.000000e+00 -1.366400e-01
-2.682712e-01 -3.905933e-01 -5.005202e-01 -5.963736e-01
-6.777821e-01 -7.453899e-01 -8.004990e-01 -8.447411e-01
-8.798267e-01
[row +10]
+8.482836e-01 +8.093011e-01 +7.615942e-01 +7.039056e-01
+6.351490e-01 +5.545997e-01 +4.621172e-01 +3.583574e-01
+2.449187e-01 +1.243530e-01 -0.000000e+00 -1.243530e-01
-2.449187e-01 -3.583574e-01 -4.621172e-01 -5.545997e-01
-6.351490e-01 -7.039056e-01 -7.615942e-01 -8.093011e-01
-8.482836e-01
[row +11]
+8.093011e-01 +7.667941e-01 +7.162979e-01 +6.569905e-01
+5.882593e-01 +5.098300e-01 +4.218990e-01 +3.252437e-01
+2.212785e-01 +1.120278e-01 -0.000000e+00 -1.120278e-01
-2.212785e-01 -3.252437e-01 -4.218990e-01 -5.098300e-01
-5.882593e-01 -6.569905e-01 -7.162979e-01 -7.667941e-01
-8.093011e-01
[row +12]
+7.615942e-01 +7.162979e-01 +6.640368e-01 +6.043678e-01
+5.370496e-01 +4.621172e-01 +3.799490e-01 +2.913126e-01
+1.973753e-01 +9.966799e-02 -0.000000e+00 -9.966799e-02
-1.973753e-01 -2.913126e-01 -3.799490e-01 -4.621172e-01
-5.370496e-01 -6.043678e-01 -6.640368e-01 -7.162979e-01
-7.615942e-01
[row +13]
+7.039056e-01 +6.569905e-01 +6.043678e-01 +5.458845e-01
+4.815498e-01 +4.115701e-01 +3.363755e-01 +2.566324e-01
+1.732352e-01 +8.727737e-02 -0.000000e+00 -8.727737e-02
-1.732352e-01 -2.566324e-01 -3.363755e-01 -4.115701e-01
-4.815498e-01 -5.458845e-01 -6.043678e-01 -6.569905e-01
-7.039056e-01
[row +14]
+6.351490e-01 +5.882593e-01 +5.370496e-01 +4.815498e-01
+4.218990e-01 +3.583574e-01 +2.913126e-01 +2.212785e-01
+1.488850e-01 +7.485969e-02 -0.000000e+00 -7.485969e-02
-1.488850e-01 -2.212785e-01 -2.913126e-01 -3.583574e-01
-4.218990e-01 -4.815498e-01 -5.370496e-01 -5.882593e-01
-6.351490e-01
[row +15]
+5.545997e-01 +5.098300e-01 +4.621172e-01 +4.115701e-01
+3.583574e-01 +3.027097e-01 +2.449187e-01 +1.853332e-01
+1.243530e-01 +6.241875e-02 -0.000000e+00 -6.241875e-02
-1.243530e-01 -1.853332e-01 -2.449187e-01 -3.027097e-01
-3.583574e-01 -4.115701e-01 -4.621172e-01 -5.098300e-01
-5.545997e-01
[row +16]
+4.621172e-01 +4.218990e-01 +3.799490e-01 +3.363755e-01
+2.913126e-01 +2.449187e-01 +1.973753e-01 +1.488850e-01
+9.966799e-02 +4.995837e-02 -0.000000e+00 -4.995837e-02
-9.966799e-02 -1.488850e-01 -1.973753e-01 -2.449187e-01
-2.913126e-01 -3.363755e-01 -3.799490e-01 -4.218990e-01
-4.621172e-01
[row +17]
+3.583574e-01 +3.252437e-01 +2.913126e-01 +2.566324e-01
+2.212785e-01 +1.853332e-01 +1.488850e-01 +1.120278e-01
+7.485969e-02 +3.748243e-02 -0.000000e+00 -3.748243e-02
-7.485969e-02 -1.120278e-01 -1.488850e-01 -1.853332e-01
-2.212785e-01 -2.566324e-01 -2.913126e-01 -3.252437e-01
-3.583574e-01
[row +18]
+2.449187e-01 +2.212785e-01 +1.973753e-01 +1.732352e-01
+1.488850e-01 +1.243530e-01 +9.966799e-02 +7.485969e-02
+4.995837e-02 +2.499479e-02 -0.000000e+00 -2.499479e-02
-4.995837e-02 -7.485969e-02 -9.966799e-02 -1.243530e-01
-1.488850e-01 -1.732352e-01 -1.973753e-01 -2.212785e-01
-2.449187e-01
[row +19]
+1.243530e-01 +1.120278e-01 +9.966799e-02 +8.727737e-02
+7.485969e-02 +6.241875e-02 +4.995837e-02 +3.748243e-02
+2.499479e-02 +1.249935e-02 -0.000000e+00 -1.249935e-02
-2.499479e-02 -3.748243e-02 -4.995837e-02 -6.241875e-02
-7.485969e-02 -8.727737e-02 -9.966799e-02 -1.120278e-01
-1.243530e-01
[row +20]
-0.000000e+00 -0.000000e+00 -0.000000e+00 -0.000000e+00
-0.000000e+00 -0.000000e+00 -0.000000e+00 -0.000000e+00
-0.000000e+00 -0.000000e+00 +0.000000e+00 +0.000000e+00
+0.000000e+00 +0.000000e+00 +0.000000e+00 +0.000000e+00
+0.000000e+00 +0.000000e+00 +0.000000e+00 +0.000000e+00
+0.000000e+00
[row +21]
-1.243530e-01 -1.120278e-01 -9.966799e-02 -8.727737e-02
-7.485969e-02 -6.241875e-02 -4.995837e-02 -3.748243e-02
-2.499479e-02 -1.249935e-02 +0.000000e+00 +1.249935e-02
+2.499479e-02 +3.748243e-02 +4.995837e-02 +6.241875e-02
+7.485969e-02 +8.727737e-02 +9.966799e-02 +1.120278e-01
+1.243530e-01
[row +22]
-2.449187e-01 -2.212785e-01 -1.973753e-01 -1.732352e-01
-1.488850e-01 -1.243530e-01 -9.966799e-02 -7.485969e-02
-4.995837e-02 -2.499479e-02 +0.000000e+00 +2.499479e-02
+4.995837e-02 +7.485969e-02 +9.966799e-02 +1.243530e-01
+1.488850e-01 +1.732352e-01 +1.973753e-01 +2.212785e-01
+2.449187e-01
[row +23]
-3.583574e-01 -3.252437e-01 -2.913126e-01 -2.566324e-01
-2.212785e-01 -1.853332e-01 -1.488850e-01 -1.120278e-01
-7.485969e-02 -3.748243e-02 +0.000000e+00 +3.748243e-02
+7.485969e-02 +1.120278e-01 +1.488850e-01 +1.853332e-01
+2.212785e-01 +2.566324e-01 +2.913126e-01 +3.252437e-01
+3.583574e-01
[row +24]
-4.621172e-01 -4.218990e-01 -3.799490e-01 -3.363755e-01
-2.913126e-01 -2.449187e-01 -1.973753e-01 -1.488850e-01
-9.966799e-02 -4.995837e-02 +0.000000e+00 +4.995837e-02
+9.966799e-02 +1.488850e-01 +1.973753e-01 +2.449187e-01
+2.913126e-01 +3.363755e-01 +3.799490e-01 +4.218990e-01
+4.621172e-01
[row +25]
-5.545997e-01 -5.098300e-01 -4.621172e-01 -4.115701e-01
-3.583574e-01 -3.027097e-01 -2.449187e-01 -1.853332e-01
-1.243530e-01 -6.241875e-02 +0.000000e+00 +6.241875e-02
+1.243530e-01 +1.853332e-01 +2.449187e-01 +3.027097e-01
+3.583574e-01 +4.115701e-01 +4.621172e-01 +5.098300e-01
+5.545997e-01
[row +26]
-6.351490e-01 -5.882593e-01 -5.370496e-01 -4.815498e-01
-4.218990e-01 -3.583574e-01 -2.913126e-01 -2.212785e-01
-1.488850e-01 -7.485969e-02 +0.000000e+00 +7.485969e-02
+1.488850e-01 +2.212785e-01 +2.913126e-01 +3.583574e-01
+4.218990e-01 +4.815498e-01 +5.370496e-01 +5.882593e-01
+6.351490e-01
[row +27]
-7.039056e-01 -6.569905e-01 -6.043678e-01 -5.458845e-01
-4.815498e-01 -4.115701e-01 -3.363755e-01 -2.566324e-01
-1.732352e-01 -8.727737e-02 +0.000000e+00 +8.727737e-02
+1.732352e-01 +2.566324e-01 +3.363755e-01 +4.115701e-01
+4.815498e-01 +5.458845e-01 +6.043678e-01 +6.569905e-01
+7.039056e-01
[row +28]
-7.615942e-01 -7.162979e-01 -6.640368e-01 -6.043678e-01
-5.370496e-01 -4.621172e-01 -3.799490e-01 -2.913126e-01
-1.973753e-01 -9.966799e-02 +0.000000e+00 +9.966799e-02
+1.973753e-01 +2.913126e-01 +3.799490e-01 +4.621172e-01
+5.370496e-01 +6.043678e-01 +6.640368e-01 +7.162979e-01
+7.615942e-01
[row +29]
-8.093011e-01 -7.667941e-01 -7.162979e-01 -6.569905e-01
-5.882593e-01 -5.098300e-01 -4.218990e-01 -3.252437e-01
-2.212785e-01 -1.120278e-01 +0.000000e+00 +1.120278e-01
+2.212785e-01 +3.252437e-01 +4.218990e-01 +5.098300e-01
+5.882593e-01 +6.569905e-01 +7.162979e-01 +7.667941e-01
+8.093011e-01
[row +30]
-8.482836e-01 -8.093011e-01 -7.615942e-01 -7.039056e-01
-6.351490e-01 -5.545997e-01 -4.621172e-01 -3.583574e-01
-2.449187e-01 -1.243530e-01 +0.000000e+00 +1.243530e-01
+2.449187e-01 +3.583574e-01 +4.621172e-01 +5.545997e-01
+6.351490e-01 +7.039056e-01 +7.615942e-01 +8.093011e-01
+8.482836e-01
[row +31]
-8.798267e-01 -8.447411e-01 -8.004990e-01 -7.453899e-01
-6.777821e-01 -5.963736e-01 -5.005202e-01 -3.905933e-01
-2.682712e-01 -1.366400e-01 +0.000000e+00 +1.366400e-01
+2.682712e-01 +3.905933e-01 +5.005202e-01 +5.963736e-01
+6.777821e-01 +7.453899e-01 +8.004990e-01 +8.447411e-01
+8.798267e-01
[row +32]
-9.051483e-01 -8.740533e-01 -8.336546e-01 -7.818064e-01
-7.162979e-01 -6.351490e-01 -5.370496e-01 -4.218990e-01
-2.913126e-01 -1.488850e-01 +0.000000e+00 +1.488850e-01
+2.913126e-01 +4.218990e-01 +5.370496e-01 +6.351490e-01
+7.162979e-01 +7.818064e-01 +8.336546e-01 +8.740533e-01
+9.051483e-01
[row +33]
-9.253462e-01 -8.981371e-01 -8.617232e-01 -8.135706e-01
-7.508933e-01 -6.709671e-01 -5.716700e-01 -4.522300e-01
-3.140209e-01 -1.610846e-01 +0.000000e+00 +1.610846e-01
+3.140209e-01 +4.522300e-01 +5.716700e-01 +6.709671e-01
+7.508933e-01 +8.135706e-01 +8.617232e-01 +8.981371e-01
+9.253462e-01
[row +34]
-9.413755e-01 -9.178174e-01 -8.853516e-01 -8.411229e-01
-7.818064e-01 -7.039056e-01 -6.043678e-01 -4.815498e-01
-3.363755e-01 -1.732352e-01 +0.000000e+00 +1.732352e-01
+3.363755e-01 +4.815498e-01 +6.043678e-01 +7.039056e-01
+7.818064e-01 +8.411229e-01 +8.853516e-01 +9.178174e-01
+9.413755e-01
[row +35]
-9.540453e-01 -9.338280e-01 -9.051483e-01 -8.649066e-01
-8.093011e-01 -7.340715e-01 -6.351490e-01 -5.098300e-01
-3.583574e-01 -1.853332e-01 +0.000000e+00 +1.853332e-01
+3.583574e-01 +5.098300e-01 +6.351490e-01 +7.340715e-01
+8.093011e-01 +8.649066e-01 +9.051483e-01 +9.338280e-01
+9.540453e-01
[row +36]
-9.640276e-01 -9.468060e-01 -9.216686e-01 -8.853516e-01
-8.336546e-01 -7.615942e-01 -6.640368e-01 -5.370496e-01
-3.799490e-01 -1.973753e-01 +0.000000e+00 +1.973753e-01
+3.799490e-01 +5.370496e-01 +6.640368e-01 +7.615942e-01
+8.336546e-01 +8.853516e-01 +9.216686e-01 +9.468060e-01
+9.640276e-01
[row +37]
-9.718727e-01 -9.572949e-01 -9.354091e-01 -9.028637e-01
-8.551470e-01 -7.866188e-01 -6.910695e-01 -5.631949e-01
-4.011343e-01 -2.093582e-01 +0.000000e+00 +2.093582e-01
+4.011343e-01 +5.631949e-01 +6.910695e-01 +7.866188e-01
+8.551470e-01 +9.028637e-01 +9.354091e-01 +9.572949e-01
+9.718727e-01
[row +38]
-9.780261e-01 -9.657519e-01 -9.468060e-01 -9.178174e-01
-8.740533e-01 -8.093011e-01 -7.162979e-01 -5.882593e-01
-4.218990e-01 -2.212785e-01 +0.000000e+00 +2.212785e-01
+4.218990e-01 +5.882593e-01 +7.162979e-01 +8.093011e-01
+8.740533e-01 +9.178174e-01 +9.468060e-01 +9.657519e-01
+9.780261e-01
[row +39]
-9.828450e-01 -9.725577e-01 -9.562375e-01 -9.305531e-01
-8.906374e-01 -8.298019e-01 -7.397831e-01 -6.122421e-01
-4.422304e-01 -2.331330e-01 +0.000000e+00 +2.331330e-01
+4.422304e-01 +6.122421e-01 +7.397831e-01 +8.298019e-01
+8.906374e-01 +9.305531e-01 +9.562375e-01 +9.725577e-01
+9.828450e-01
[row +40]
-9.866143e-01 -9.780261e-01 -9.640276e-01 -9.413755e-01
-9.051483e-01 -8.482836e-01 -7.615942e-01 -6.351490e-01
-4.621172e-01 -2.449187e-01 +0.000000e+00 +2.449187e-01
+4.621172e-01 +6.351490e-01 +7.615942e-01 +8.482836e-01
+9.051483e-01 +9.413755e-01 +9.640276e-01 +9.780261e-01
+9.866143e-01
[row +41]
+9.848455e-01 +9.754418e-01 +9.603194e-01 +9.361858e-01
+8.981371e-01 +8.392851e-01 +7.508933e-01 +6.238295e-01
+4.522300e-01 +2.390346e-01 -0.000000e+00 -2.390346e-01
-4.522300e-01 -6.238295e-01 -7.508933e-01 -8.392851e-01
-8.981371e-01 -9.361858e-01 -9.603194e-01 -9.754418e-01
-9.848455e-01
[row +42]
+9.805830e-01 +9.693402e-01 +9.517460e-01 +9.244427e-01
+8.826197e-01 +8.198140e-01 +7.282542e-01 +6.003857e-01
+4.321196e-01 +2.272142e-01 -0.000000e+00 -2.272142e-01
-4.321196e-01 -6.003857e-01 -7.282542e-01 -8.198140e-01
-8.826197e-01 -9.244427e-01 -9.517460e-01 -9.693402e-01
-9.805830e-01
[row +43]
+9.751367e-01 +9.617519e-01 +9.413755e-01 +9.106383e-01
+8.649066e-01 +7.982428e-01 +7.039056e-01 +5.758624e-01
+4.115701e-01 +2.153263e-01 -0.000000e+00 -2.153263e-01
-4.115701e-01 -5.758624e-01 -7.039056e-01 -7.982428e-01
-8.649066e-01 -9.106383e-01 -9.413755e-01 -9.617519e-01
-9.751367e-01
[row +44]
+9.681872e-01 +9.523311e-01 +9.288576e-01 +8.944501e-01
+8.447411e-01 +7.744092e-01 +6.777821e-01 +5.502571e-01
+3.905933e-01 +2.033744e-01 -0.000000e+00 -2.033744e-01
-3.905933e-01 -5.502571e-01 -6.777821e-01 -7.744092e-01
-8.447411e-01 -8.944501e-01 -9.288576e-01 -9.523311e-01
-9.681872e-01
[row +45]
+9.593353e-01 +9.406600e-01 +9.137855e-01 +8.755204e-01
+8.218529e-01 +7.481545e-01 +6.498275e-01 +5.235734e-01
+3.692030e-01 +1.913615e-01 -0.000000e+00 -1.913615e-01
-3.692030e-01 -5.235734e-01 -6.498275e-01 -7.481545e-01
-8.218529e-01 -8.755204e-01 -9.137855e-01 -9.406600e-01
-9.593353e-01
[row +46]
+9.480853e-01 +9.262394e-01 +8.956929e-01 +8.534585e-01
+7.959639e-01 +7.193275e-01 +6.199969e-01 +4.958213e-01
+3.474142e-01 +1.792910e-01 -0.000000e+00 -1.792910e-01
-3.474142e-01 -4.958213e-01 -6.199969e-01 -7.193275e-01
-7.959639e-01 -8.534585e-01 -8.956929e-01 -9.262394e-01
-9.480853e-01
[row +47]
+9.338280e-01 +9.084796e-01 +8.740533e-01 +8.278454e-01
+7.667941e-01 +6.877902e-01 +5.882593e-01 +4.670182e-01
+3.252437e-01 +1.671662e-01 -0.000000e+00 -1.671662e-01
-3.252437e-01 -4.670182e-01 -5.882593e-01 -6.877902e-01
-7.667941e-01 -8.278454e-01 -8.740533e-01 -9.084796e-01
-9.338280e-01
[row +48]
+9.158245e-01 +8.866951e-01 +8.482836e-01 +7.982428e-01
+7.340715e-01 +6.534236e-01 +5.545997e-01 +4.371888e-01
+3.027097e-01 +1.549907e-01 -0.000000e+00 -1.549907e-01
-3.027097e-01 -4.371888e-01 -5.545997e-01 -6.534236e-01
-7.340715e-01 -7.982428e-01 -8.482836e-01 -8.866951e-01
-9.158245e-01
[row +49]
+8.931933e-01 +8.601055e-01 +8.177541e-01 +7.642065e-01
+6.975435e-01 +6.161344e-01 +5.190218e-01 +4.063654e-01
+2.798322e-01 +1.427680e-01 -0.000000e+00 -1.427680e-01
-2.798322e-01 -4.063654e-01 -5.190218e-01 -6.161344e-01
-6.975435e-01 -7.642065e-01 -8.177541e-01 -8.601055e-01
-8.931933e-01
[row +50]
+8.649066e-01 +8.278454e-01 +7.818064e-01 +7.253055e-01
+6.569905e-01 +5.758624e-01 +4.815498e-01 +3.745886e-01
+2.566324e-01 +1.305015e-01 -0.000000e+00 -1.305015e-01
-2.566324e-01 -3.745886e-01 -4.815498e-01 -5.758624e-01
-6.569905e-01 -7.253055e-01 -7.818064e-01 -8.278454e-01
-8.649066e-01
[row +51]
+8.298019e-01 +7.889898e-01 +7.397831e-01 +6.811466e-01
+6.122421e-01 +5.325873e-01 +4.422304e-01 +3.419067e-01
+2.331330e-01 +1.181949e-01 -0.000000e+00 -1.181949e-01
-2.331330e-01 -3.419067e-01 -4.422304e-01 -5.325873e-01
-6.122421e-01 -6.811466e-01 -7.397831e-01 -7.889898e-01
-8.298019e-01
[row +52]
+7.866188e-01 +7.425995e-01 +6.910695e-01 +6.314055e-01
+5.631949e-01 +4.863360e-01 +4.011343e-01 +3.083762e-01
+2.093582e-01 +1.058520e-01 -0.000000e+00 -1.058520e-01
-2.093582e-01 -3.083762e-01 -4.011343e-01 -4.863360e-01
-5.631949e-01 -6.314055e-01 -6.910695e-01 -7.425995e-01
-7.866188e-01
[row +53]
+7.340715e-01 +6.877902e-01 +6.351490e-01 +5.758624e-01
+5.098300e-01 +4.371888e-01 +3.583574e-01 +2.740616e-01
+1.853332e-01 +9.347630e-02 -0.000000e+00 -9.347630e-02
-1.853332e-01 -2.740616e-01 -3.583574e-01 -4.371888e-01
-5.098300e-01 -5.758624e-01 -6.351490e-01 -6.877902e-01
-7.340715e-01
[row +54]
+6.709671e-01 +6.238295e-01 +5.716700e-01 +5.144407e-01
+4.522300e-01 +3.852840e-01 +3.140209e-01 +2.390346e-01
+1.610846e-01 +8.107168e-02 -0.000000e+00 -8.107168e-02
-1.610846e-01 -2.390346e-01 -3.140209e-01 -3.852840e-01
-4.522300e-01 -5.144407e-01 -5.716700e-01 -6.238295e-01
-6.709671e-01
[row +55]
+5.963736e-01 +5.502571e-01 +5.005202e-01 +4.472441e-01
+3.905933e-01 +3.308211e-01 +2.682712e-01 +2.033744e-01
+1.366400e-01 +6.864189e-02 -0.000000e+00 -6.864189e-02
-1.366400e-01 -2.033744e-01 -2.682712e-01 -3.308211e-01
-3.905933e-01 -4.472441e-01 -5.005202e-01 -5.502571e-01
-5.963736e-01
[row +56]
+5.098300e-01 +4.670182e-01 +4.218990e-01 +3.745886e-01
+3.252437e-01 +2.740616e-01 +2.212785e-01 +1.671662e-01
+1.120278e-01 +5.619075e-02 -0.000000e+00 -5.619075e-02
-1.120278e-01 -1.671662e-01 -2.212785e-01 -2.740616e-01
-3.252437e-01 -3.745886e-01 -4.218990e-01 -4.670182e-01
-5.098300e-01
[row +57]
+4.115701e-01 +3.745886e-01 +3.363755e-01 +2.970217e-01
+2.566324e-01 +2.153263e-01 +1.732352e-01 +1.305015e-01
+8.727737e-02 +4.372211e-02 -0.000000e+00 -4.372211e-02
-8.727737e-02 -1.305015e-01 -1.732352e-01 -2.153263e-01
-2.566324e-01 -2.970217e-01 -3.363755e-01 -3.745886e-01
-4.115701e-01
[row +58]
+3.027097e-01 +2.740616e-01 +2.449187e-01 +2.153263e-01
+1.853332e-01 +1.549907e-01 +1.243530e-01 +9.347630e-02
+6.241875e-02 +3.123983e-02 -0.000000e+00 -3.123983e-02
-6.241875e-02 -9.347630e-02 -1.243530e-01 -1.549907e-01
-1.853332e-01 -2.153263e-01 -2.449187e-01 -2.740616e-01
-3.027097e-01
[row +59]
+1.853332e-01 +1.671662e-01 +1.488850e-01 +1.305015e-01
+1.120278e-01 +9.347630e-02 +7.485969e-02 +5.619075e-02
+3.748243e-02 +1.874780e-02 -0.000000e+00 -1.874780e-02
-3.748243e-02 -5.619075e-02 -7.485969e-02 -9.347630e-02
-1.120278e-01 -1.305015e-01 -1.488850e-01 -1.671662e-01
-1.853332e-01
[row +60]
+6.241875e-02 +5.619075e-02 +4.995837e-02 +4.372211e-02
+3.748243e-02 +3.123983e-02 +2.499479e-02 +1.874780e-02
+1.249935e-02 +6.249919e-03 -0.000000e+00 -6.249919e-03
-1.249935e-02 -1.874780e-02 -2.499479e-02 -3.123983e-02
-3.748243e-02 -4.372211e-02 -4.995837e-02 -5.619075e-02
-6.241875e-02
[row +61]
-6.241875e-02 -5.619075e-02 -4.995837e-02 -4.372211e-02
-3.748243e-02 -3.123983e-02 -2.499479e-02 -1.874780e-02
-1.249935e-02 -6.249919e-03 +0.000000e+00 +6.249919e-03
+1.249935e-02 +1.874780e-02 +2.499479e-02 +3.123983e-02
+3.748243e-02 +4.372211e-02 +4.995837e-02 +5.619075e-02
+6.241875e-02
[row +62]
-1.853332e-01 -1.671662e-01 -1.488850e-01 -1.305015e-01
-1.120278e-01 -9.347630e-02 -7.485969e-02 -5.619075e-02
-3.748243e-02 -1.874780e-02 +0.000000e+00 +1.874780e-02
+3.748243e-02 +5.619075e-02 +7.485969e-02 +9.347630e-02
+1.120278e-01 +1.305015e-01 +1.488850e-01 +1.671662e-01
+1.853332e-01
[row +63]
-3.027097e-01 -2.740616e-01 -2.449187e-01 -2.153263e-01
-1.853332e-01 -1.549907e-01 -1.243530e-01 -9.347630e-02
-6.241875e-02 -3.123983e-02 +0.000000e+00 +3.123983e-02
+6.241875e-02 +9.347630e-02 +1.243530e-01 +1.549907e-01
+1.853332e-01 +2.153263e-01 +2.449187e-01 +2.740616e-01
+3.027097e-01
[row +64]
-4.115701e-01 -3.745886e-01 -3.363755e-01 -2.970217e-01
-2.566324e-01 -2.153263e-01 -1.732352e-01 -1.305015e-01
-8.727737e-02 -4.372211e-02 +0.000000e+00 +4.372211e-02
+8.727737e-02 +1.305015e-01 +1.732352e-01 +2.153263e-01
+2.566324e-01 +2.970217e-01 +3.363755e-01 +3.745886e-01
+4.115701e-01
[row +65]
-5.098300e-01 -4.670182e-01 -4.218990e-01 -3.745886e-01
-3.252437e-01 -2.740616e-01 -2.212785e-01 -1.671662e-01
-1.120278e-01 -5.619075e-02 +0.000000e+00 +5.619075e-02
+1.120278e-01 +1.671662e-01 +2.212785e-01 +2.740616e-01
+3.252437e-01 +3.745886e-01 +4.218990e-01 +4.670182e-01
+5.098300e-01
[row +66]
-5.963736e-01 -5.502571e-01 -5.005202e-01 -4.472441e-01
-3.905933e-01 -3.308211e-01 -2.682712e-01 -2.033744e-01
-1.366400e-01 -6.864189e-02 +0.000000e+00 +6.864189e-02
+1.366400e-01 +2.033744e-01 +2.682712e-01 +3.308211e-01
+3.905933e-01 +4.472441e-01 +5.005202e-01 +5.502571e-01
+5.963736e-01
[row +67]
-6.709671e-01 -6.238295e-01 -5.716700e-01 -5.144407e-01
-4.522300e-01 -3.852840e-01 -3.140209e-01 -2.390346e-01
-1.610846e-01 -8.107168e-02 +0.000000e+00 +8.107168e-02
+1.610846e-01 +2.390346e-01 +3.140209e-01 +3.852840e-01
+4.522300e-01 +5.144407e-01 +5.716700e-01 +6.238295e-01
+6.709671e-01
[row +68]
-7.340715e-01 -6.877902e-01 -6.351490e-01 -5.758624e-01
-5.098300e-01 -4.371888e-01 -3.583574e-01 -2.740616e-01
-1.853332e-01 -9.347630e-02 +0.000000e+00 +9.347630e-02
+1.853332e-01 +2.740616e-01 +3.583574e-01 +4.371888e-01
+5.098300e-01 +5.758624e-01 +6.351490e-01 +6.877902e-01
+7.340715e-01
[row +69]
-7.866188e-01 -7.425995e-01 -6.910695e-01 -6.314055e-01
-5.631949e-01 -4.863360e-01 -4.011343e-01 -3.083762e-01
-2.093582e-01 -1.058520e-01 +0.000000e+00 +1.058520e-01
+2.093582e-01 +3.083762e-01 +4.011343e-01 +4.863360e-01
+5.631949e-01 +6.314055e-01 +6.910695e-01 +7.425995e-01
+7.866188e-01
[row +70]
-8.298019e-01 -7.889898e-01 -7.397831e-01 -6.811466e-01
-6.122421e-01 -5.325873e-01 -4.422304e-01 -3.419067e-01
-2.331330e-01 -1.181949e-01 +0.000000e+00 +1.181949e-01
+2.331330e-01 +3.419067e-01 +4.422304e-01 +5.325873e-01
+6.122421e-01 +6.811466e-01 +7.397831e-01 +7.889898e-01
+8.298019e-01
[row +71]
-8.649066e-01 -8.278454e-01 -7.818064e-01 -7.253055e-01
-6.569905e-01 -5.758624e-01 -4.815498e-01 -3.745886e-01
-2.566324e-01 -1.305015e-01 +0.000000e+00 +1.305015e-01
+2.566324e-01 +3.745886e-01 +4.815498e-01 +5.758624e-01
+6.569905e-01 +7.253055e-01 +7.818064e-01 +8.278454e-01
+8.649066e-01
[row +72]
-8.931933e-01 -8.601055e-01 -8.177541e-01 -7.642065e-01
-6.975435e-01 -6.161344e-01 -5.190218e-01 -4.063654e-01
-2.798322e-01 -1.427680e-01 +0.000000e+00 +1.427680e-01
+2.798322e-01 +4.063654e-01 +5.190218e-01 +6.161344e-01
+6.975435e-01 +7.642065e-01 +8.177541e-01 +8.601055e-01
+8.931933e-01
[row +73]
-9.158245e-01 -8.866951e-01 -8.482836e-01 -7.982428e-01
-7.340715e-01 -6.534236e-01 -5.545997e-01 -4.371888e-01
-3.027097e-01 -1.549907e-01 +0.000000e+00 +1.549907e-01
+3.027097e-01 +4.371888e-01 +5.545997e-01 +6.534236e-01
+7.340715e-01 +7.982428e-01 +8.482836e-01 +8.866951e-01
+9.158245e-01
[row +74]
-9.338280e-01 -9.084796e-01 -8.740533e-01 -8.278454e-01
-7.667941e-01 -6.877902e-01 -5.882593e-01 -4.670182e-01
-3.252437e-01 -1.671662e-01 +0.000000e+00 +1.671662e-01
+3.252437e-01 +4.670182e-01 +5.882593e-01 +6.877902e-01
+7.667941e-01 +8.278454e-01 +8.740533e-01 +9.084796e-01
+9.338280e-01
[row +75]
-9.480853e-01 -9.262394e-01 -8.956929e-01 -8.534585e-01
-7.959639e-01 -7.193275e-01 -6.199969e-01 -4.958213e-01
-3.474142e-01 -1.792910e-01 +0.000000e+00 +1.792910e-01
+3.474142e-01 +4.958213e-01 +6.199969e-01 +7.193275e-01
+7.959639e-01 +8.534585e-01 +8.956929e-01 +9.262394e-01
+9.480853e-01
[row +76]
-9.593353e-01 -9.406600e-01 -9.137855e-01 -8.755204e-01
-8.218529e-01 -7.481545e-01 -6.498275e-01 -5.235734e-01
-3.692030e-01 -1.913615e-01 +0.000000e+00 +1.913615e-01
+3.692030e-01 +5.235734e-01 +6.498275e-01 +7.481545e-01
+8.218529e-01 +8.755204e-01 +9.137855e-01 +9.406600e-01
+9.593353e-01
[row +77]
-9.681872e-01 -9.523311e-01 -9.288576e-01 -8.944501e-01
-8.447411e-01 -7.744092e-01 -6.777821e-01 -5.502571e-01
-3.905933e-01 -2.033744e-01 +0.000000e+00 +2.033744e-01
+3.905933e-01 +5.502571e-01 +6.777821e-01 +7.744092e-01
+8.447411e-01 +8.944501e-01 +9.288576e-01 +9.523311e-01
+9.681872e-01
[row +78]
-9.751367e-01 -9.617519e-01 -9.413755e-01 -9.106383e-01
-8.649066e-01 -7.982428e-01 -7.039056e-01 -5.758624e-01
-4.115701e-01 -2.153263e-01 +0.000000e+00 +2.153263e-01
+4.115701e-01 +5.758624e-01 +7.039056e-01 +7.982428e-01
+8.649066e-01 +9.106383e-01 +9.413755e-01 +9.617519e-01
+9.751367e-01
[row +79]
-9.805830e-01 -9.693402e-01 -9.517460e-01 -9.244427e-01
-8.826197e-01 -8.198140e-01 -7.282542e-01 -6.003857e-01
-4.321196e-01 -2.272142e-01 +0.000000e+00 +2.272142e-01
+4.321196e-01 +6.003857e-01 +7.282542e-01 +8.198140e-01
+8.826197e-01 +9.244427e-01 +9.517460e-01 +9.693402e-01
+9.805830e-01
[row +80]
-9.848455e-01 -9.754418e-01 -9.603194e-01 -9.361858e-01
-8.981371e-01 -8.392851e-01 -7.508933e-01 -6.238295e-01
-4.522300e-01 -2.390346e-01 +0.000000e+00 +2.390346e-01
+4.522300e-01 +6.238295e-01 +7.508933e-01 +8.392851e-01
+8.981371e-01 +9.361858e-01 +9.603194e-01 +9.754418e-01
+9.848455e-01
[row +81]
+9.857571e-01 +9.767694e-01 +9.622181e-01 +9.388340e-01
+9.017019e-01 +8.438437e-01 +7.562943e-01 +6.295226e-01
+4.571877e-01 +2.419789e-01 -0.000000e+00 -2.419789e-01
-4.571877e-01 -6.295226e-01 -7.562943e-01 -8.438437e-01
-9.017019e-01 -9.388340e-01 -9.622181e-01 -9.767694e-01
-9.857571e-01
[row +82]
+9.817487e-01 +9.709928e-01 +9.540453e-01 +9.275599e-01
+8.866951e-01 +8.248723e-01 +7.340715e-01 +6.063476e-01
+4.371888e-01 +2.301757e-01 -0.000000e+00 -2.301757e-01
-4.371888e-01 -6.063476e-01 -7.340715e-01 -8.248723e-01
-8.866951e-01 -9.275599e-01 -9.540453e-01 -9.709928e-01
-9.817487e-01
[row +83]
+9.766255e-01 +9.638061e-01 +9.441549e-01 +9.142996e-01
+8.695545e-01 +8.038414e-01 +7.101567e-01 +5.820946e-01
+4.167480e-01 +2.183044e-01 -0.000000e+00 -2.183044e-01
-4.167480e-01 -5.820946e-01 -7.101567e-01 -8.038414e-01
-8.695545e-01 -9.142996e-01 -9.441549e-01 -9.638061e-01
-9.766255e-01
[row +84]
+9.700858e-01 +9.548796e-01 +9.322097e-01 +8.987396e-01
+8.500270e-01 +7.805885e-01 +6.844826e-01 +5.567598e-01
+3.958769e-01 +2.063682e-01 -0.000000e+00 -2.063682e-01
-3.958769e-01 -5.567598e-01 -6.844826e-01 -7.805885e-01
-8.500270e-01 -8.987396e-01 -9.322097e-01 -9.548796e-01
-9.700858e-01
[row +85]
+9.617519e-01 +9.438146e-01 +9.178174e-01 +8.805307e-01
+8.278454e-01 +7.549536e-01 +6.569905e-01 +5.303450e-01
+3.745886e-01 +1.943702e-01 -0.000000e+00 -1.943702e-01
-3.745886e-01 -5.303450e-01 -6.569905e-01 -7.549536e-01
-8.278454e-01 -8.805307e-01 -9.178174e-01 -9.438146e-01
-9.617519e-01
[row +86]
+9.511538e-01 +9.301329e-01 +9.005270e-01 +8.592901e-01
+8.027328e-01 +7.267832e-01 +6.276323e-01 +5.028587e-01
+3.528979e-01 +1.823138e-01 -0.000000e+00 -1.823138e-01
-3.528979e-01 -5.028587e-01 -6.276323e-01 -7.267832e-01
-8.027328e-01 -8.592901e-01 -9.005270e-01 -9.301329e-01
-9.511538e-01
[row +87]
+9.377123e-01 +9.132684e-01 +8.798267e-01 +8.346053e-01
+7.744092e-01 +6.959355e-01 +5.963736e-01 +4.743163e-01
+3.308211e-01 +1.702023e-01 -0.000000e+00 -1.702023e-01
-3.308211e-01 -4.743163e-01 -5.963736e-01 -6.959355e-01
-7.744092e-01 -8.346053e-01 -8.798267e-01 -9.132684e-01
-9.377123e-01
[row +88]
+9.207223e-01 +8.925597e-01 +8.551470e-01 +8.060418e-01
+7.425995e-01 +6.622861e-01 +5.631949e-01 +4.447407e-01
+3.083762e-01 +1.580392e-01 -0.000000e+00 -1.580392e-01
-3.083762e-01 -4.447407e-01 -5.631949e-01 -6.622861e-01
-7.425995e-01 -8.060418e-01 -8.551470e-01 -8.925597e-01
-9.207223e-01
[row +89]
+8.993387e-01 +8.672495e-01 +8.258685e-01 +7.731552e-01
+7.070450e-01 +6.257346e-01 +5.280952e-01 +4.141624e-01
+2.855826e-01 +1.458279e-01 -0.000000e+00 -1.458279e-01
-2.855826e-01 -4.141624e-01 -5.280952e-01 -6.257346e-01
-7.070450e-01 -7.731552e-01 -8.258685e-01 -8.672495e-01
-8.993387e-01
[row +90]
+8.725700e-01 +8.364919e-01 +7.913376e-01 +7.355093e-01
+6.675164e-01 +5.862119e-01 +4.910932e-01 +3.826197e-01
+2.624613e-01 +1.335720e-01 -0.000000e+00 -1.335720e-01
-2.624613e-01 -3.826197e-01 -4.910932e-01 -5.862119e-01
-6.675164e-01 -7.355093e-01 -7.913376e-01 -8.364919e-01
-8.725700e-01
[row +91]
+8.392851e-01 +7.993737e-01 +7.508933e-01 +6.926985e-01
+6.238295e-01 +5.436870e-01 +4.522300e-01 +3.501590e-01
+2.390346e-01 +1.212751e-01 -0.000000e+00 -1.212751e-01
-2.390346e-01 -3.501590e-01 -4.522300e-01 -5.436870e-01
-6.238295e-01 -6.926985e-01 -7.508933e-01 -7.993737e-01
-8.392851e-01
[row +92]
+7.982428e-01 +7.549536e-01 +7.039056e-01 +6.443783e-01
+5.758624e-01 +4.981744e-01 +4.115701e-01 +3.168350e-01
+2.153263e-01 +1.089409e-01 -0.000000e+00 -1.089409e-01
-2.153263e-01 -3.168350e-01 -4.115701e-01 -4.981744e-01
-5.758624e-01 -6.443783e-01 -7.039056e-01 -7.549536e-01
-7.982428e-01
[row +93]
+7.481545e-01 +7.023255e-01 +6.498275e-01 +5.902991e-01
+5.235734e-01 +4.497406e-01 +3.692030e-01 +2.827100e-01
+1.913615e-01 +9.657308e-02 -0.000000e+00 -9.657308e-02
-1.913615e-01 -2.827100e-01 -3.692030e-01 -4.497406e-01
-5.235734e-01 -5.902991e-01 -6.498275e-01 -7.023255e-01
-7.481545e-01
[row +94]
+6.877902e-01 +6.407087e-01 +5.882593e-01 +5.303450e-01
+4.670182e-01 +3.985088e-01 +3.252437e-01 +2.478540e-01
+1.671662e-01 +8.417534e-02 -0.000000e+00 -8.417534e-02
-1.671662e-01 -2.478540e-01 -3.252437e-01 -3.985088e-01
-4.670182e-01 -5.303450e-01 -5.882593e-01 -6.407087e-01
-6.877902e-01
[row +95]
+6.161344e-01 +5.695625e-01 +5.190218e-01 +4.645713e-01
+4.063654e-01 +3.446634e-01 +2.798322e-01 +2.123442e-01
+1.427680e-01 +7.175149e-02 -0.000000e+00 -7.175149e-02
-1.427680e-01 -2.123442e-01 -2.798322e-01 -3.446634e-01
-4.063654e-01 -4.645713e-01 -5.190218e-01 -5.695625e-01
-6.161344e-01
[row +96]
+5.325873e-01 +4.887183e-01 +4.422304e-01 +3.932383e-01
+3.419067e-01 +2.884502e-01 +2.331330e-01 +1.762647e-01
+1.181949e-01 +5.930532e-02 -0.000000e+00 -5.930532e-02
-1.181949e-01 -1.762647e-01 -2.331330e-01 -2.884502e-01
-3.419067e-01 -3.932383e-01 -4.422304e-01 -4.887183e-01
-5.325873e-01
[row +97]
+4.371888e-01 +3.985088e-01 +3.583574e-01 +3.168350e-01
+2.740616e-01 +2.301757e-01 +1.853332e-01 +1.397053e-01
+9.347630e-02 +4.684070e-02 -0.000000e+00 -4.684070e-02
-9.347630e-02 -1.397053e-01 -1.853332e-01 -2.301757e-01
-2.740616e-01 -3.168350e-01 -3.583574e-01 -3.985088e-01
-4.371888e-01
[row +98]
+3.308211e-01 +2.998684e-01 +2.682712e-01 +2.360860e-01
+2.033744e-01 +1.702023e-01 +1.366400e-01 +1.027610e-01
+6.864189e-02 +3.436147e-02 -0.000000e+00 -3.436147e-02
-6.864189e-02 -1.027610e-01 -1.366400e-01 -1.702023e-01
-2.033744e-01 -2.360860e-01 -2.682712e-01 -2.998684e-01
-3.308211e-01
[row +99]
+2.153263e-01 +1.943702e-01 +1.732352e-01 +1.519393e-01
+1.305015e-01 +1.089409e-01 +8.727737e-02 +6.553095e-02
+4.372211e-02 +2.187151e-02 -0.000000e+00 -2.187151e-02
-4.372211e-02 -6.553095e-02 -8.727737e-02 -1.089409e-01
-1.305015e-01 -1.519393e-01 -1.732352e-01 -1.943702e-01
-2.153263e-01
[row +100]
+9.347630e-02 +8.417534e-02 +7.485969e-02 +6.553095e-02
+5.619075e-02 +4.684070e-02 +3.748243e-02 +2.811759e-02
+1.874780e-02 +9.374725e-03 -0.000000e+00 -9.374725e-03
-1.874780e-02 -2.811759e-02 -3.748243e-02 -4.684070e-02
-5.619075e-02 -6.553095e-02 -7.485969e-02 -8.417534e-02
-9.347630e-02
[row +101]
-3.123983e-02 -2.811759e-02 -2.499479e-02 -2.187151e-02
-1.874780e-02 -1.562373e-02 -1.249935e-02 -9.374725e-03
-6.249919e-03 -3.124990e-03 +0.000000e+00 +3.124990e-03
+6.249919e-03 +9.374725e-03 +1.249935e-02 +1.562373e-02
+1.874780e-02 +2.187151e-02 +2.499479e-02 +2.811759e-02
+3.123983e-02
[row +102]
-1.549907e-01 -1.397053e-01 -1.243530e-01 -1.089409e-01
-9.347630e-02 -7.796644e-02 -6.241875e-02 -4.684070e-02
-3.123983e-02 -1.562373e-02 +0.000000e+00 +1.562373e-02
+3.123983e-02 +4.684070e-02 +6.241875e-02 +7.796644e-02
+9.347630e-02 +1.089409e-01 +1.243530e-01 +1.397053e-01
+1.549907e-01
[row +103]
-2.740616e-01 -2.478540e-01 -2.212785e-01 -1.943702e-01
-1.671662e-01 -1.397053e-01 -1.120278e-01 -8.417534e-02
-5.619075e-02 -2.811759e-02 +0.000000e+00 +2.811759e-02
+5.619075e-02 +8.417534e-02 +1.120278e-01 +1.397053e-01
+1.671662e-01 +1.943702e-01 +2.212785e-01 +2.478540e-01
+2.740616e-01
[row +104]
-3.852840e-01 -3.501590e-01 -3.140209e-01 -2.769494e-01
-2.390346e-01 -2.003767e-01 -1.610846e-01 -1.212751e-01
-8.107168e-02 -4.060267e-02 +0.000000e+00 +4.060267e-02
+8.107168e-02 +1.212751e-01 +1.610846e-01 +2.003767e-01
+2.390346e-01 +2.769494e-01 +3.140209e-01 +3.501590e-01
+3.852840e-01
[row +105]
-4.863360e-01 -4.447407e-01 -4.011343e-01 -3.556307e-01
-3.083762e-01 -2.595492e-01 -2.093582e-01 -1.580392e-01
-1.058520e-01 -5.307508e-02 +0.000000e+00 +5.307508e-02
+1.058520e-01 +1.580392e-01 +2.093582e-01 +2.595492e-01
+3.083762e-01 +3.556307e-01 +4.011343e-01 +4.447407e-01
+4.863360e-01
[row +106]
-5.758624e-01 -5.303450e-01 -4.815498e-01 -4.295747e-01
-3.745886e-01 -3.168350e-01 -2.566324e-01 -1.943702e-01
-1.305015e-01 -6.553095e-02 +0.000000e+00 +6.553095e-02
+1.305015e-01 +1.943702e-01 +2.566324e-01 +3.168350e-01
+3.745886e-01 +4.295747e-01 +4.815498e-01 +5.303450e-01
+5.758624e-01
[row +107]
-6.534236e-01 -6.063476e-01 -5.545997e-01 -4.981744e-01
-4.371888e-01 -3.718989e-01 -3.027097e-01 -2.301757e-01
-1.549907e-01 -7.796644e-02 +0.000000e+00 +7.796644e-02
+1.549907e-01 +2.301757e-01 +3.027097e-01 +3.718989e-01
+4.371888e-01 +4.981744e-01 +5.545997e-01 +6.063476e-01
+6.534236e-01
[row +108]
-7.193275e-01 -6.726816e-01 -6.199969e-01 -5.610574e-01
-4.958213e-01 -4.244644e-01 -3.474142e-01 -2.653687e-01
-1.792910e-01 -9.037771e-02 +0.000000e+00 +9.037771e-02
+1.792910e-01 +2.653687e-01 +3.474142e-01 +4.244644e-01
+4.958213e-01 +5.610574e-01 +6.199969e-01 +6.726816e-01
+7.193275e-01
[row +109]
-7.744092e-01 -7.297185e-01 -6.777821e-01 -6.180694e-01
-5.502571e-01 -4.743163e-01 -3.905933e-01 -2.998684e-01
-2.033744e-01 -1.027610e-01 +0.000000e+00 +1.027610e-01
+2.033744e-01 +2.998684e-01 +3.905933e-01 +4.743163e-01
+5.502571e-01 +6.180694e-01 +6.777821e-01 +7.297185e-01
+7.744092e-01
[row +110]
-8.198140e-01 -7.781348e-01 -7.282542e-01 -6.692453e-01
-6.003857e-01 -5.213013e-01 -4.321196e-01 -3.336012e-01
-2.272142e-01 -1.151125e-01 +0.000000e+00 +1.151125e-01
+2.272142e-01 +3.336012e-01 +4.321196e-01 +5.213013e-01
+6.003857e-01 +6.692453e-01 +7.282542e-01 +7.781348e-01
+8.198140e-01
[row +111]
-8.568176e-01 -8.187867e-01 -7.718952e-01 -7.147728e-01
-6.462020e-01 -5.653250e-01 -4.718908e-01 -3.665009e-01
-2.507847e-01 -1.274285e-01 +0.000000e+00 +1.274285e-01
+2.507847e-01 +3.665009e-01 +4.718908e-01 +5.653250e-01
+6.462020e-01 +7.147728e-01 +7.718952e-01 +8.187867e-01
+8.568176e-01
[row +112]
-8.866951e-01 -8.526075e-01 -8.093011e-01 -7.549536e-01
-6.877902e-01 -6.063476e-01 -5.098300e-01 -3.985088e-01
-2.740616e-01 -1.397053e-01 +0.000000e+00 +1.397053e-01
+2.740616e-01 +3.985088e-01 +5.098300e-01 +6.063476e-01
+6.877902e-01 +7.549536e-01 +8.093011e-01 +8.526075e-01
+8.866951e-01
[row +113]
-9.106383e-01 -8.805307e-01 -8.411229e-01 -7.901666e-01
-7.253055e-01 -6.443783e-01 -5.458845e-01 -4.295747e-01
-2.970217e-01 -1.519393e-01 +0.000000e+00 +1.519393e-01
+2.970217e-01 +4.295747e-01 +5.458845e-01 +6.443783e-01
+7.253055e-01 +7.901666e-01 +8.411229e-01 +8.805307e-01
+9.106383e-01
[row +114]
-9.297103e-01 -9.034397e-01 -8.680220e-01 -8.208361e-01
-7.589568e-01 -6.794679e-01 -5.800247e-01 -4.596560e-01
-3.196435e-01 -1.641270e-01 +0.000000e+00 +1.641270e-01
+3.196435e-01 +4.596560e-01 +5.800247e-01 +6.794679e-01
+7.589568e-01 +8.208361e-01 +8.680220e-01 +9.034397e-01
+9.297103e-01
[row +115]
-9.448294e-01 -9.221376e-01 -8.906374e-01 -8.474050e-01
-7.889898e-01 -7.117023e-01 -6.122421e-01 -4.887183e-01
-3.419067e-01 -1.762647e-01 +0.000000e+00 +1.762647e-01
+3.419067e-01 +4.887183e-01 +6.122421e-01 +7.117023e-01
+7.889898e-01 +8.474050e-01 +8.906374e-01 +9.221376e-01
+9.448294e-01
[row +116]
-9.567693e-01 -9.373341e-01 -9.095651e-01 -8.703145e-01
-8.156730e-01 -7.411945e-01 -6.425472e-01 -5.167350e-01
-3.637925e-01 -1.883491e-01 +0.000000e+00 +1.883491e-01
+3.637925e-01 +5.167350e-01 +6.425472e-01 +7.411945e-01
+8.156730e-01 +8.703145e-01 +9.095651e-01 +9.373341e-01
+9.567693e-01
[row +117]
-9.661702e-01 -9.496423e-01 -9.253462e-01 -8.899894e-01
-8.392851e-01 -7.680786e-01 -6.709671e-01 -5.436870e-01
-3.852840e-01 -2.003767e-01 +0.000000e+00 +2.003767e-01
+3.852840e-01 +5.436870e-01 +6.709671e-01 +7.680786e-01
+8.392851e-01 +8.899894e-01 +9.253462e-01 +9.496423e-01
+9.661702e-01
[row +118]
-9.735544e-01 -9.595835e-01 -9.384623e-01 -9.068281e-01
-8.601055e-01 -7.925027e-01 -6.975435e-01 -5.695625e-01
-4.063654e-01 -2.123442e-01 +0.000000e+00 +2.123442e-01
+4.063654e-01 +5.695625e-01 +6.975435e-01 +7.925027e-01
+8.601055e-01 +9.068281e-01 +9.384623e-01 +9.595835e-01
+9.735544e-01
[row +119]
-9.793437e-01 -9.675949e-01 -9.493346e-01 -9.211968e-01
-8.784070e-01 -8.146244e-01 -7.223300e-01 -5.943562e-01
-4.270229e-01 -2.242484e-01 +0.000000e+00 +2.242484e-01
+4.270229e-01 +5.943562e-01 +7.223300e-01 +8.146244e-01
+8.784070e-01 +9.211968e-01 +9.493346e-01 +9.675949e-01
+9.793437e-01
[row +120]
-9.838760e-01 -9.740392e-01 -9.583273e-01 -9.334270e-01
-8.944501e-01 -8.346053e-01 -7.453899e-01 -6.180694e-01
-4.472441e-01 -2.360860e-01 +0.000000e+00 +2.360860e-01
+4.472441e-01 +6.180694e-01 +7.453899e-01 +8.346053e-01
+8.944501e-01 +9.334270e-01 +9.583273e-01 +9.740392e-01
+9.838760e-01
[row +121]
+9.838760e-01 +9.740392e-01 +9.583273e-01 +9.334270e-01
+8.944501e-01 +8.346053e-01 +7.453899e-01 +6.180694e-01
+4.472441e-01 +2.360860e-01 -0.000000e+00 -2.360860e-01
-4.472441e-01 -6.180694e-01 -7.453899e-01 -8.346053e-01
-8.944501e-01 -9.334270e-01 -9.583273e-01 -9.740392e-01
-9.838760e-01
[row +122]
+9.793437e-01 +9.675949e-01 +9.493346e-01 +9.211968e-01
+8.784070e-01 +8.146244e-01 +7.223300e-01 +5.943562e-01
+4.270229e-01 +2.242484e-01 -0.000000e+00 -2.242484e-01
-4.270229e-01 -5.943562e-01 -7.223300e-01 -8.146244e-01
-8.784070e-01 -9.211968e-01 -9.493346e-01 -9.675949e-01
-9.793437e-01
[row +123]
+9.735544e-01 +9.595835e-01 +9.384623e-01 +9.068281e-01
+8.601055e-01 +7.925027e-01 +6.975435e-01 +5.695625e-01
+4.063654e-01 +2.123442e-01 -0.000000e+00 -2.123442e-01
-4.063654e-01 -5.695625e-01 -6.975435e-01 -7.925027e-01
-8.601055e-01 -9.068281e-01 -9.384623e-01 -9.595835e-01
-9.735544e-01
[row +124]
+9.661702e-01 +9.496423e-01 +9.253462e-01 +8.899894e-01
+8.392851e-01 +7.680786e-01 +6.709671e-01 +5.436870e-01
+3.852840e-01 +2.003767e-01 -0.000000e+00 -2.003767e-01
-3.852840e-01 -5.436870e-01 -6.709671e-01 -7.680786e-01
-8.392851e-01 -8.899894e-01 -9.253462e-01 -9.496423e-01
-9.661702e-01
[row +125]
+9.567693e-01 +9.373341e-01 +9.095651e-01 +8.703145e-01
+8.156730e-01 +7.411945e-01 +6.425472e-01 +5.167350e-01
+3.637925e-01 +1.883491e-01 -0.000000e+00 -1.883491e-01
-3.637925e-01 -5.167350e-01 -6.425472e-01 -7.411945e-01
-8.156730e-01 -8.703145e-01 -9.095651e-01 -9.373341e-01
-9.567693e-01
[row +126]
+9.448294e-01 +9.221376e-01 +8.906374e-01 +8.474050e-01
+7.889898e-01 +7.117023e-01 +6.122421e-01 +4.887183e-01
+3.419067e-01 +1.762647e-01 -0.000000e+00 -1.762647e-01
-3.419067e-01 -4.887183e-01 -6.122421e-01 -7.117023e-01
-7.889898e-01 -8.474050e-01 -8.906374e-01 -9.221376e-01
-9.448294e-01
[row +127]
+9.297103e-01 +9.034397e-01 +8.680220e-01 +8.208361e-01
+7.589568e-01 +6.794679e-01 +5.800247e-01 +4.596560e-01
+3.196435e-01 +1.641270e-01 -0.000000e+00 -1.641270e-01
-3.196435e-01 -4.596560e-01 -5.800247e-01 -6.794679e-01
-7.589568e-01 -8.208361e-01 -8.680220e-01 -9.034397e-01
-9.297103e-01
[row +128]
+9.106383e-01 +8.805307e-01 +8.411229e-01 +7.901666e-01
+7.253055e-01 +6.443783e-01 +5.458845e-01 +4.295747e-01
+2.970217e-01 +1.519393e-01 -0.000000e+00 -1.519393e-01
-2.970217e-01 -4.295747e-01 -5.458845e-01 -6.443783e-01
-7.253055e-01 -7.901666e-01 -8.411229e-01 -8.805307e-01
-9.106383e-01
[row +129]
+8.866951e-01 +8.526075e-01 +8.093011e-01 +7.549536e-01
+6.877902e-01 +6.063476e-01 +5.098300e-01 +3.985088e-01
+2.740616e-01 +1.397053e-01 -0.000000e+00 -1.397053e-01
-2.740616e-01 -3.985088e-01 -5.098300e-01 -6.063476e-01
-6.877902e-01 -7.549536e-01 -8.093011e-01 -8.526075e-01
-8.866951e-01
[row +130]
+8.568176e-01 +8.187867e-01 +7.718952e-01 +7.147728e-01
+6.462020e-01 +5.653250e-01 +4.718908e-01 +3.665009e-01
+2.507847e-01 +1.274285e-01 -0.000000e+00 -1.274285e-01
-2.507847e-01 -3.665009e-01 -4.718908e-01 -5.653250e-01
-6.462020e-01 -7.147728e-01 -7.718952e-01 -8.187867e-01
-8.568176e-01
[row +131]
+8.198140e-01 +7.781348e-01 +7.282542e-01 +6.692453e-01
+6.003857e-01 +5.213013e-01 +4.321196e-01 +3.336012e-01
+2.272142e-01 +1.151125e-01 -0.000000e+00 -1.151125e-01
-2.272142e-01 -3.336012e-01 -4.321196e-01 -5.213013e-01
-6.003857e-01 -6.692453e-01 -7.282542e-01 -7.781348e-01
-8.198140e-01
[row +132]
+7.744092e-01 +7.297185e-01 +6.777821e-01 +6.180694e-01
+5.502571e-01 +4.743163e-01 +3.905933e-01 +2.998684e-01
+2.033744e-01 +1.027610e-01 -0.000000e+00 -1.027610e-01
-2.033744e-01 -2.998684e-01 -3.905933e-01 -4.743163e-01
-5.502571e-01 -6.180694e-01 -6.777821e-01 -7.297185e-01
-7.744092e-01
[row +133]
+7.193275e-01 +6.726816e-01 +6.199969e-01 +5.610574e-01
+4.958213e-01 +4.244644e-01 +3.474142e-01 +2.653687e-01
+1.792910e-01 +9.037771e-02 -0.000000e+00 -9.037771e-02
-1.792910e-01 -2.653687e-01 -3.474142e-01 -4.244644e-01
-4.958213e-01 -5.610574e-01 -6.199969e-01 -6.726816e-01
-7.193275e-01
[row +134]
+6.534236e-01 +6.063476e-01 +5.545997e-01 +4.981744e-01
+4.371888e-01 +3.718989e-01 +3.027097e-01 +2.301757e-01
+1.549907e-01 +7.796644e-02 -0.000000e+00 -7.796644e-02
-1.549907e-01 -2.301757e-01 -3.027097e-01 -3.718989e-01
-4.371888e-01 -4.981744e-01 -5.545997e-01 -6.063476e-01
-6.534236e-01
[row +135]
+5.758624e-01 +5.303450e-01 +4.815498e-01 +4.295747e-01
+3.745886e-01 +3.168350e-01 +2.566324e-01 +1.943702e-01
+1.305015e-01 +6.553095e-02 -0.000000e+00 -6.553095e-02
-1.305015e-01 -1.943702e-01 -2.566324e-01 -3.168350e-01
-3.745886e-01 -4.295747e-01 -4.815498e-01 -5.303450e-01
-5.758624e-01
[row +136]
+4.863360e-01 +4.447407e-01 +4.011343e-01 +3.556307e-01
+3.083762e-01 +2.595492e-01 +2.093582e-01 +1.580392e-01
+1.058520e-01 +5.307508e-02 -0.000000e+00 -5.307508e-02
-1.058520e-01 -1.580392e-01 -2.093582e-01 -2.595492e-01
-3.083762e-01 -3.556307e-01 -4.011343e-01 -4.447407e-01
-4.863360e-01
[row +137]
+3.852840e-01 +3.501590e-01 +3.140209e-01 +2.769494e-01
+2.390346e-01 +2.003767e-01 +1.610846e-01 +1.212751e-01
+8.107168e-02 +4.060267e-02 -0.000000e+00 -4.060267e-02
-8.107168e-02 -1.212751e-01 -1.610846e-01 -2.003767e-01
-2.390346e-01 -2.769494e-01 -3.140209e-01 -3.501590e-01
-3.852840e-01
[row +138]
+2.740616e-01 +2.478540e-01 +2.212785e-01 +1.943702e-01
+1.671662e-01 +1.397053e-01 +1.120278e-01 +8.417534e-02
+5.619075e-02 +2.811759e-02 -0.000000e+00 -2.811759e-02
-5.619075e-02 -8.417534e-02 -1.120278e-01 -1.397053e-01
-1.671662e-01 -1.943702e-01 -2.212785e-01 -2.478540e-01
-2.740616e-01
[row +139]
+1.549907e-01 +1.397053e-01 +1.243530e-01 +1.089409e-01
+9.347630e-02 +7.796644e-02 +6.241875e-02 +4.684070e-02
+3.123983e-02 +1.562373e-02 -0.000000e+00 -1.562373e-02
-3.123983e-02 -4.684070e-02 -6.241875e-02 -7.796644e-02
-9.347630e-02 -1.089409e-01 -1.243530e-01 -1.397053e-01
-1.549907e-01
[row +140]
+3.123983e-02 +2.811759e-02 +2.499479e-02 +2.187151e-02
+1.874780e-02 +1.562373e-02 +1.249935e-02 +9.374725e-03
+6.249919e-03 +3.124990e-03 -0.000000e+00 -3.124990e-03
-6.249919e-03 -9.374725e-03 -1.249935e-02 -1.562373e-02
-1.874780e-02 -2.187151e-02 -2.499479e-02 -2.811759e-02
-3.123983e-02
[row +141]
-9.347630e-02 -8.417534e-02 -7.485969e-02 -6.553095e-02
-5.619075e-02 -4.684070e-02 -3.748243e-02 -2.811759e-02
-1.874780e-02 -9.374725e-03 +0.000000e+00 +9.374725e-03
+1.874780e-02 +2.811759e-02 +3.748243e-02 +4.684070e-02
+5.619075e-02 +6.553095e-02 +7.485969e-02 +8.417534e-02
+9.347630e-02
[row +142]
-2.153263e-01 -1.943702e-01 -1.732352e-01 -1.519393e-01
-1.305015e-01 -1.089409e-01 -8.727737e-02 -6.553095e-02
-4.372211e-02 -2.187151e-02 +0.000000e+00 +2.187151e-02
+4.372211e-02 +6.553095e-02 +8.727737e-02 +1.089409e-01
+1.305015e-01 +1.519393e-01 +1.732352e-01 +1.943702e-01
+2.153263e-01
[row +143]
-3.308211e-01 -2.998684e-01 -2.682712e-01 -2.360860e-01
-2.033744e-01 -1.702023e-01 -1.366400e-01 -1.027610e-01
-6.864189e-02 -3.436147e-02 +0.000000e+00 +3.436147e-02
+6.864189e-02 +1.027610e-01 +1.366400e-01 +1.702023e-01
+2.033744e-01 +2.360860e-01 +2.682712e-01 +2.998684e-01
+3.308211e-01
[row +144]
-4.371888e-01 -3.985088e-01 -3.583574e-01 -3.168350e-01
-2.740616e-01 -2.301757e-01 -1.853332e-01 -1.397053e-01
-9.347630e-02 -4.684070e-02 +0.000000e+00 +4.684070e-02
+9.347630e-02 +1.397053e-01 +1.853332e-01 +2.301757e-01
+2.740616e-01 +3.168350e-01 +3.583574e-01 +3.985088e-01
+4.371888e-01
[row +145]
-5.325873e-01 -4.887183e-01 -4.422304e-01 -3.932383e-01
-3.419067e-01 -2.884502e-01 -2.331330e-01 -1.762647e-01
-1.181949e-01 -5.930532e-02 +0.000000e+00 +5.930532e-02
+1.181949e-01 +1.762647e-01 +2.331330e-01 +2.884502e-01
+3.419067e-01 +3.932383e-01 +4.422304e-01 +4.887183e-01
+5.325873e-01
[row +146]
-6.161344e-01 -5.695625e-01 -5.190218e-01 -4.645713e-01
-4.063654e-01 -3.446634e-01 -2.798322e-01 -2.123442e-01
-1.427680e-01 -7.175149e-02 +0.000000e+00 +7.175149e-02
+1.427680e-01 +2.123442e-01 +2.798322e-01 +3.446634e-01
+4.063654e-01 +4.645713e-01 +5.190218e-01 +5.695625e-01
+6.161344e-01
[row +147]
-6.877902e-01 -6.407087e-01 -5.882593e-01 -5.303450e-01
-4.670182e-01 -3.985088e-01 -3.252437e-01 -2.478540e-01
-1.671662e-01 -8.417534e-02 +0.000000e+00 +8.417534e-02
+1.671662e-01 +2.478540e-01 +3.252437e-01 +3.985088e-01
+4.670182e-01 +5.303450e-01 +5.882593e-01 +6.407087e-01
+6.877902e-01
[row +148]
-7.481545e-01 -7.023255e-01 -6.498275e-01 -5.902991e-01
-5.235734e-01 -4.497406e-01 -3.692030e-01 -2.827100e-01
-1.913615e-01 -9.657308e-02 +0.000000e+00 +9.657308e-02
+1.913615e-01 +2.827100e-01 +3.692030e-01 +4.497406e-01
+5.235734e-01 +5.902991e-01 +6.498275e-01 +7.023255e-01
+7.481545e-01
[row +149]
-7.982428e-01 -7.549536e-01 -7.039056e-01 -6.443783e-01
-5.758624e-01 -4.981744e-01 -4.115701e-01 -3.168350e-01
-2.153263e-01 -1.089409e-01 +0.000000e+00 +1.089409e-01
+2.153263e-01 +3.168350e-01 +4.115701e-01 +4.981744e-01
+5.758624e-01 +6.443783e-01 +7.039056e-01 +7.549536e-01
+7.982428e-01
[row +150]
-8.392851e-01 -7.993737e-01 -7.508933e-01 -6.926985e-01
-6.238295e-01 -5.436870e-01 -4.522300e-01 -3.501590e-01
-2.390346e-01 -1.212751e-01 +0.000000e+00 +1.212751e-01
+2.390346e-01 +3.501590e-01 +4.522300e-01 +5.436870e-01
+6.238295e-01 +6.926985e-01 +7.508933e-01 +7.993737e-01
+8.392851e-01
[row +151]
-8.725700e-01 -8.364919e-01 -7.913376e-01 -7.355093e-01
-6.675164e-01 -5.862119e-01 -4.910932e-01 -3.826197e-01
-2.624613e-01 -1.335720e-01 +0.000000e+00 +1.335720e-01
+2.624613e-01 +3.826197e-01 +4.910932e-01 +5.862119e-01
+6.675164e-01 +7.355093e-01 +7.913376e-01 +8.364919e-01
+8.725700e-01
[row +152]
-8.993387e-01 -8.672495e-01 -8.258685e-01 -7.731552e-01
-7.070450e-01 -6.257346e-01 -5.280952e-01 -4.141624e-01
-2.855826e-01 -1.458279e-01 +0.000000e+00 +1.458279e-01
+2.855826e-01 +4.141624e-01 +5.280952e-01 +6.257346e-01
+7.070450e-01 +7.731552e-01 +8.258685e-01 +8.672495e-01
+8.993387e-01
[row +153]
-9.207223e-01 -8.925597e-01 -8.551470e-01 -8.060418e-01
-7.425995e-01 -6.622861e-01 -5.631949e-01 -4.447407e-01
-3.083762e-01 -1.580392e-01 +0.000000e+00 +1.580392e-01
+3.083762e-01 +4.447407e-01 +5.631949e-01 +6.622861e-01
+7.425995e-01 +8.060418e-01 +8.551470e-01 +8.925597e-01
+9.207223e-01
[row +154]
-9.377123e-01 -9.132684e-01 -8.798267e-01 -8.346053e-01
-7.744092e-01 -6.959355e-01 -5.963736e-01 -4.743163e-01
-3.308211e-01 -1.702023e-01 +0.000000e+00 +1.702023e-01
+3.308211e-01 +4.743163e-01 +5.963736e-01 +6.959355e-01
+7.744092e-01 +8.346053e-01 +8.798267e-01 +9.132684e-01
+9.377123e-01
[row +155]
-9.511538e-01 -9.301329e-01 -9.005270e-01 -8.592901e-01
-8.027328e-01 -7.267832e-01 -6.276323e-01 -5.028587e-01
-3.528979e-01 -1.823138e-01 +0.000000e+00 +1.823138e-01
+3.528979e-01 +5.028587e-01 +6.276323e-01 +7.267832e-01
+8.027328e-01 +8.592901e-01 +9.005270e-01 +9.301329e-01
+9.511538e-01
[row +156]
-9.617519e-01 -9.438146e-01 -9.178174e-01 -8.805307e-01
-8.278454e-01 -7.549536e-01 -6.569905e-01 -5.303450e-01
-3.745886e-01 -1.943702e-01 +0.000000e+00 +1.943702e-01
+3.745886e-01 +5.303450e-01 +6.569905e-01 +7.549536e-01
+8.278454e-01 +8.805307e-01 +9.178174e-01 +9.438146e-01
+9.617519e-01
[row +157]
-9.700858e-01 -9.548796e-01 -9.322097e-01 -8.987396e-01
-8.500270e-01 -7.805885e-01 -6.844826e-01 -5.567598e-01
-3.958769e-01 -2.063682e-01 +0.000000e+00 +2.063682e-01
+3.958769e-01 +5.567598e-01 +6.844826e-01 +7.805885e-01
+8.500270e-01 +8.987396e-01 +9.322097e-01 +9.548796e-01
+9.700858e-01
[row +158]
-9.766255e-01 -9.638061e-01 -9.441549e-01 -9.142996e-01
-8.695545e-01 -8.038414e-01 -7.101567e-01 -5.820946e-01
-4.167480e-01 -2.183044e-01 +0.000000e+00 +2.183044e-01
+4.167480e-01 +5.820946e-01 +7.101567e-01 +8.038414e-01
+8.695545e-01 +9.142996e-01 +9.441549e-01 +9.638061e-01
+9.766255e-01
[row +159]
-9.817487e-01 -9.709928e-01 -9.540453e-01 -9.275599e-01
-8.866951e-01 -8.248723e-01 -7.340715e-01 -6.063476e-01
-4.371888e-01 -2.301757e-01 +0.000000e+00 +2.301757e-01
+4.371888e-01 +6.063476e-01 +7.340715e-01 +8.248723e-01
+8.866951e-01 +9.275599e-01 +9.540453e-01 +9.709928e-01
+9.817487e-01
[row +160]
-9.857571e-01 -9.767694e-01 -9.622181e-01 -9.388340e-01
-9.017019e-01 -8.438437e-01 -7.562943e-01 -6.295226e-01
-4.571877e-01 -2.419789e-01 +0.000000e+00 +2.419789e-01
+4.571877e-01 +6.295226e-01 +7.562943e-01 +8.438437e-01
+9.017019e-01 +9.388340e-01 +9.622181e-01 +9.767694e-01
+9.857571e-01
