# mesh_time
0 0.05 0.1 0.15 0.2 0.25 0.3 0.35
0.4 0.45 0.5 0.55 0.6 0.65 0.7 0.75
0.8 0.85 0.9 0.95 1
# mesh_space
0 0.025 0.05 0.075 0.1 0.125 0.15 0.175
0.2 0.225 0.25 0.275 0.3 0.325 0.35 0.375
0.4 0.425 0.45 0.475 0.5 0.525 0.55 0.575
0.6 0.625 0.65 0.675 0.7 0.725 0.75 0.775
0.8 0.825 0.85 0.875 0.9 0.925 0.95 0.975
1 0.0125 0.0375 0.0625 0.0875 0.1125 0.1375 0.1625
0.1875 0.2125 0.2375 0.2625 0.2875 0.3125 0.3375 0.3625
0.3875 0.4125 0.4375 0.4625 0.4875 0.5125 0.5375 0.5625
0.5875 0.6125 0.6375 0.6625 0.6875 0.7125 0.7375 0.7625
0.7875 0.8125 0.8375 0.8625 0.8875 0.9125 0.9375 0.9625
0.9875 0.00625 0.03125 0.05625 0.08125 0.10625 0.13125 0.15625
0.18125 0.20625 0.23125 0.25625 0.28125 0.30625 0.33125 0.35625
0.38125 0.40625 0.43125 0.45625 0.48125 0.50625 0.53125 0.55625
0.58125 0.60625 0.63125 0.65625 0.68125 0.70625 0.73125 0.75625
0.78125 0.80625 0.83125 0.85625 0.88125 0.90625 0.93125 0.95625
0.98125 0.01875 0.04375 0.06875 0.09375 0.11875 0.14375 0.16875
0.19375 0.21875 0.24375 0.26875 0.29375 0.31875 0.34375 0.36875
0.39375 0.41875 0.44375 0.46875 0.49375 0.51875 0.54375 0.56875
0.59375 0.61875 0.64375 0.66875 0.69375 0.71875 0.74375 0.76875
0.79375 0.81875 0.84375 0.86875 0.89375 0.91875 0.94375 0.96875
0.99375
# data y
[row +0]
+9.897571e-01 +1.044673e+00 +1.028378e+00 +9.929960e-01
+9.443413e-01 +8.749507e-01 +7.791408e-01 +6.487731e-01
+4.798001e-01 +2.806005e-01 +5.480952e-02 -1.799651e-01
-4.000105e-01 -5.865128e-01 -7.326073e-01 -8.414457e-01
-9.208075e-01 -9.787040e-01 -1.019709e+00 -1.027854e+00
-9.481716e-01
[row +1]
+9.866446e-01 +1.044778e+00 +1.025097e+00 +9.856760e-01
+9.323135e-01 +8.579612e-01 +7.580805e-01 +6.263126e-01
+4.601704e-01 +2.701446e-01 +5.770953e-02 -1.642029e-01
-3.759607e-01 -5.600610e-01 -7.083796e-01 -8.219372e-01
-9.067930e-01 -9.699569e-01 -1.015594e+00 -1.025531e+00
-9.364689e-01
[row +2]
+9.830872e-01 +1.038215e+00 +1.013522e+00 +9.709608e-01
+9.138001e-01 +8.357073e-01 +7.329933e-01 +6.009506e-01
+4.374790e-01 +2.549732e-01 +5.452410e-02 -1.549555e-01
-3.573319e-01 -5.367522e-01 -6.845133e-01 -8.000806e-01
-8.880732e-01 -9.545951e-01 -1.003682e+00 -1.015832e+00
-9.177106e-01
[row +3]
+9.787182e-01 +1.024763e+00 +9.939600e-01 +9.491486e-01
+8.891486e-01 +8.086051e-01 +7.044545e-01 +5.734136e-01
+4.133273e-01 +2.371297e-01 +4.757437e-02 -1.499929e-01
-3.423209e-01 -5.153726e-01 -6.603626e-01 -7.756899e-01
-8.648002e-01 -9.329841e-01 -9.842990e-01 -9.986834e-01
-8.920953e-01
[row +4]
+9.729337e-01 +1.004000e+00 +9.667068e-01 +9.205149e-01
+8.586765e-01 +7.769995e-01 +6.728937e-01 +5.441423e-01
+3.887104e-01 +2.183098e-01 +3.869172e-02 -1.474591e-01
-3.293758e-01 -4.948228e-01 -6.353043e-01 -7.485454e-01
-8.370778e-01 -9.054370e-01 -9.577652e-01 -9.740599e-01
-8.599066e-01
[row +5]
+9.649142e-01 +9.754910e-01 +9.320916e-01 +8.853452e-01
+8.227044e-01 +7.412083e-01 +6.386372e-01 +5.134357e-01
+3.641189e-01 +1.998853e-01 +2.931301e-02 -1.458374e-01
-3.171915e-01 -4.741417e-01 -6.087690e-01 -7.184296e-01
-8.049735e-01 -8.722522e-01 -9.244176e-01 -9.420036e-01
-8.215095e-01
[row +6]
+9.536558e-01 +9.389123e-01 +8.905038e-01 +8.439661e-01
+7.815773e-01 +7.015543e-01 +6.019287e-01 +4.815771e-01
+3.395549e-01 +1.827339e-01 +2.062596e-02 -1.439289e-01
-3.046825e-01 -4.525130e-01 -5.802553e-01 -6.851446e-01
-7.685347e-01 -8.337065e-01 -8.846176e-01 -9.026524e-01
-7.773427e-01
[row +7]
+9.379970e-01 +8.941537e-01 +8.424066e-01 +7.967630e-01
+7.356838e-01 +6.583691e-01 +5.630002e-01 +4.487525e-01
+3.149895e-01 +1.669042e-01 +1.361130e-02 -1.408030e-01
-2.909604e-01 -4.292601e-01 -5.493379e-01 -6.485219e-01
-7.278074e-01 -7.900429e-01 -8.387230e-01 -8.562714e-01
-7.279028e-01
[row +8]
+9.166682e-01 +8.413762e-01 +7.883360e-01 +7.441904e-01
+6.854614e-01 +6.120007e-01 +5.220912e-01 +4.150716e-01
+2.904425e-01 +1.520718e-01 +8.411927e-03 -1.357333e-01
-2.753347e-01 -4.038257e-01 -5.156696e-01 -6.084253e-01
-6.828451e-01 -7.414750e-01 -7.870873e-01 -8.032646e-01
-6.737321e-01
[row +9]
+8.883606e-01 +7.810320e-01 +7.288905e-01 +6.867751e-01
+6.313922e-01 +5.628207e-01 +4.794418e-01 +3.806332e-01
+2.658811e-01 +1.379941e-01 +4.635312e-03 -1.288242e-01
-2.575343e-01 -3.758186e-01 -4.789684e-01 -5.647549e-01
-6.337121e-01 -6.881894e-01 -7.300724e-01 -7.441727e-01
-6.154071e-01
[row +10]
+8.518140e-01 +7.138520e-01 +6.647163e-01 +6.251108e-01
+5.739952e-01 +5.112215e-01 +4.352989e-01 +3.455283e-01
+2.412630e-01 +1.244442e-01 +1.929242e-03 -1.204692e-01
-2.379217e-01 -3.454586e-01 -4.391987e-01 -5.174361e-01
-5.804920e-01 -6.303446e-01 -6.680624e-01 -6.796611e-01
-5.535273e-01
[row +11]
+8.059195e-01 +6.408068e-01 +5.964924e-01 +5.598474e-01
+5.138155e-01 +4.576108e-01 +3.899144e-01 +3.098482e-01
+2.165461e-01 +1.112223e-01 -1.952909e-05 -1.110220e-01
-2.168802e-01 -3.131969e-01 -3.968760e-01 -4.667758e-01
-5.233296e-01 -5.681179e-01 -6.014762e-01 -6.105003e-01
-4.887042e-01
[row +12]
+7.498292e-01 +5.630465e-01 +5.249171e-01 +4.916757e-01
+4.514128e-01 +4.024047e-01 +3.435429e-01 +2.736872e-01
+1.916938e-01 +9.815831e-02 -1.479690e-03 -1.007909e-01
-1.947500e-01 -2.794436e-01 -3.525260e-01 -4.134433e-01
-4.628317e-01 -5.020204e-01 -5.308930e-01 -5.374982e-01
-4.215764e-01
[row +13]
+6.830632e-01 +4.818262e-01 +4.506977e-01 +4.213093e-01
+3.873490e-01 +3.460200e-01 +2.964380e-01 +2.371428e-01
+1.666792e-01 +8.511174e-02 -2.675177e-03 -9.003722e-02
-1.718264e-01 -2.445644e-01 -3.066307e-01 -3.580684e-01
-3.997645e-01 -4.328932e-01 -4.571187e-01 -4.614495e-01
-3.528162e-01
[row +14]
+6.056031e-01 +3.984266e-01 +3.745441e-01 +3.494654e-01
+3.221775e-01 +2.888661e-01 +2.488484e-01 +2.003150e-01
+1.414853e-01 +7.197019e-02 -3.787423e-03 -7.897690e-02
-1.483607e-01 -2.088816e-01 -2.596279e-01 -3.012343e-01
-3.348551e-01 -3.615772e-01 -3.810014e-01 -3.831718e-01
-2.830859e-01
[row +15]
+5.179569e-01 +3.140767e-01 +2.971636e-01 +2.768451e-01
+2.564334e-01 +2.313378e-01 +2.010142e-01 +1.633051e-01
+1.161059e-01 +5.864718e-02 -4.958925e-03 -6.778352e-02
-1.245631e-01 -1.726763e-01 -2.119117e-01 -2.434767e-01
-2.687840e-01 -2.888736e-01 -3.033847e-01 -3.034924e-01
-2.130241e-01
[row +16]
+4.211843e-01 +2.298881e-01 +2.192566e-01 +2.041158e-01
+1.906251e-01 +1.738086e-01 +1.531635e-01 +1.262133e-01
+9.054420e-02 +4.507952e-02 -6.297333e-03 -5.659258e-02
-1.006061e-01 -1.361915e-01 -1.638343e-01 -1.852831e-01
-2.021803e-01 -2.155345e-01 -2.250854e-01 -2.232267e-01
-1.432365e-01
[row +17]
+3.168717e-01 +1.468066e-01 +1.415108e-01 +1.318965e-01
+1.252280e-01 +1.166256e-01 +1.055098e-01 +8.913784e-02
+6.481224e-02 +3.122477e-02 -7.879637e-03 -4.550586e-02
-7.662845e-02 -9.963504e-02 -1.157074e-01 -1.270930e-01
-1.356178e-01 -1.422543e-01 -1.468747e-01 -1.431586e-01
-7.428798e-02
[row +18]
+2.070520e-01 +6.558724e-02 +6.459357e-02 +6.074592e-02
+6.067871e-02 +6.010527e-02 +5.824991e-02 +5.217263e-02
+3.892932e-02 +1.705865e-02 -9.756178e-03 -3.459579e-02
-5.273933e-02 -6.318284e-02 -6.780473e-02 -6.929791e-02
-6.961292e-02 -6.966347e-02 -6.946407e-02 -6.402231e-02
-6.694424e-03
[row +19]
+9.407313e-02 -1.320754e-02 -1.086026e-02 -8.844066e-03
-2.629155e-03 +4.530526e-03 +1.156206e-02 +1.540663e-02
+1.292094e-02 +2.572713e-03 -1.195437e-02 -2.390958e-02
-2.902205e-02 -2.698220e-02 -2.036413e-02 -1.224280e-02
-4.623161e-03 +1.675733e-03 +6.504849e-03 +1.351172e-02
+5.908379e-02
[row +20]
-1.957180e-02 -8.918770e-02 -8.426238e-02 -7.645171e-02
-6.434810e-02 -4.985072e-02 -3.439485e-02 -2.107732e-02
-1.318238e-02 -1.222780e-02 -1.448205e-02 -1.347298e-02
-5.537620e-03 +8.845281e-03 +2.641025e-02 +4.377294e-02
+5.895282e-02 +7.127172e-02 +8.046756e-02 +8.884866e-02
+1.226470e-01
[row +21]
-1.314300e-01 -1.621006e-01 -1.550865e-01 -1.417247e-01
-1.241790e-01 -1.028260e-01 -7.948187e-02 -5.720313e-02
-3.934616e-02 -2.732591e-02 -1.733053e-02 -3.293675e-03
+1.767203e-02 +4.420091e-02 +7.234555e-02 +9.849349e-02
+1.207743e-01 +1.387043e-01 +1.519403e-01 +1.614767e-01
+1.836599e-01
[row +22]
-2.392650e-01 -2.317893e-01 -2.228825e-01 -2.043771e-01
-1.818719e-01 -1.542180e-01 -1.235801e-01 -9.290182e-02
-6.553286e-02 -4.269458e-02 -2.047724e-02 +6.635678e-03
+4.058112e-02 +7.900627e-02 +1.172978e-01 +1.517045e-01
+1.805568e-01 +2.036238e-01 +2.205209e-01 +2.309709e-01
+2.418525e-01
[row +23]
-3.411972e-01 -2.981525e-01 -2.872868e-01 -2.641844e-01
-2.372263e-01 -2.038830e-01 -1.665905e-01 -1.281118e-01
-9.170271e-02 -5.829829e-02 -2.388808e-02 +1.633478e-02
+6.317747e-02 +1.132008e-01 +1.611497e-01 +2.032305e-01
+2.380691e-01 +2.657486e-01 +2.858873e-01 +2.969936e-01
+2.970195e-01
[row +24]
-4.357937e-01 -3.611137e-01 -3.480279e-01 -3.209786e-01
-2.900893e-01 -2.517096e-01 -2.084328e-01 -1.627786e-01
-1.178143e-01 -7.409441e-02 -2.751951e-02 +2.583336e-02
+8.546018e-02 +1.467398e-01 +2.038082e-01 +2.529324e-01
+2.931303e-01 +3.248611e-01 +3.477942e-01 +3.592920e-01
+3.490176e-01
[row +25]
-5.221004e-01 -4.206016e-01 -4.049255e-01 -3.746424e-01
-3.403534e-01 -2.976164e-01 -2.490452e-01 -1.968550e-01
-1.438254e-01 -9.003435e-02 -3.132035e-02 +3.516913e-02
+1.074376e-01 +1.795920e-01 +2.452022e-01 +3.007043e-01
+3.456060e-01 +3.808037e-01 +4.060672e-01 +4.176924e-01
+3.977604e-01
[row +26]
-5.996233e-01 -4.765430e-01 -4.578849e-01 -4.251050e-01
-3.879529e-01 -3.415496e-01 -2.883826e-01 -2.303008e-01
-1.696929e-01 -1.060647e-01 -3.523339e-02 +4.438597e-02
+1.291256e-01 +2.117381e-01 +2.852805e-01 +3.464708e-01
+3.954038e-01 +4.334731e-01 +4.605971e-01 +4.720936e-01
+4.432131e-01
[row +27]
-6.682715e-01 -5.288640e-01 -5.068869e-01 -4.723367e-01
-4.328601e-01 -3.834810e-01 -3.264156e-01 -2.630821e-01
-1.953737e-01 -1.221281e-01 -3.919680e-02 +5.353247e-02
+1.505461e-01 +2.431692e-01 +3.240093e-01 +3.901835e-01
+4.424694e-01 +4.828146e-01 +5.113322e-01 +5.224584e-01
+4.853850e-01
[row +28]
-7.282788e-01 -5.774978e-01 -5.519766e-01 -5.163452e-01
-4.750804e-01 -4.234051e-01 -3.631290e-01 -2.951713e-01
-2.208248e-01 -1.381643e-01 -4.314533e-02 +6.266048e-02
+1.717254e-01 +2.738849e-01 +3.613707e-01 +4.318186e-01
+4.867822e-01 +5.288161e-01 +5.582715e-01 +5.688047e-01
+5.243233e-01
[row +29]
-7.801167e-01 -6.223931e-01 -5.932498e-01 -5.571711e-01
-5.146484e-01 -4.613367e-01 -3.985202e-01 -3.265463e-01
-2.460034e-01 -1.541105e-01 -4.701141e-02 +7.182404e-02
+1.926934e-01 +3.038920e-01 +3.973602e-01 +4.713732e-01
+5.283506e-01 +5.715020e-01 +6.014564e-01 +6.111967e-01
+5.601057e-01
[row +30]
-8.244134e-01 -6.635232e-01 -6.308421e-01 -5.948836e-01
-5.516229e-01 -4.973082e-01 -4.325975e-01 -3.571904e-01
-2.708674e-01 -1.699026e-01 -5.072610e-02 +8.107835e-02
+2.134822e-01 +3.332036e-01 +4.319851e-01 +5.088630e-01
+5.672079e-01 +6.109280e-01 +6.409642e-01 +6.497357e-01
+5.928338e-01
[row +31]
-8.618827e-01 -7.008915e-01 -6.649173e-01 -6.295762e-01
-5.860830e-01 -5.313672e-01 -4.653793e-01 -3.870913e-01
-2.953754e-01 -1.854753e-01 -5.421994e-02 +9.047888e-02
+2.341257e-01 +3.618376e-01 +4.652628e-01 +5.443192e-01
+6.034085e-01 +6.471750e-01 +6.769011e-01 +6.845529e-01
+6.226275e-01
[row +32]
-8.932668e-01 -7.345350e-01 -6.956590e-01 -6.613630e-01
-6.181240e-01 -5.635741e-01 -4.968920e-01 -4.162411e-01
-3.194866e-01 -2.007631e-01 -5.742363e-02 +1.000807e-01
+2.546582e-01 +3.898160e-01 +4.972192e-01 +5.777862e-01
+6.370242e-01 +6.803446e-01 +7.093957e-01 +7.158013e-01
+6.496195e-01
[row +33]
-9.192947e-01 -7.645249e-01 -7.232626e-01 -6.903740e-01
-6.478543e-01 -5.939995e-01 -5.271688e-01 -4.446355e-01
-3.431612e-01 -2.157004e-01 -6.026872e-02 +1.099377e-01
+2.751143e-01 +4.171636e-01 +5.278869e-01 +6.093191e-01
+6.681403e-01 +7.105540e-01 +7.385942e-01 +7.436501e-01
+6.739515e-01
[row +34]
-9.406529e-01 -7.909645e-01 -7.479299e-01 -7.167521e-01
-6.753915e-01 -6.227227e-01 -5.562487e-01 -4.722731e-01
-3.663605e-01 -2.302221e-01 -6.268815e-02 +1.201024e-01
+2.955280e-01 +4.439076e-01 +5.573043e-01 +6.389818e-01
+6.968533e-01 +7.379329e-01 +7.646548e-01 +7.682789e-01
+6.957698e-01
[row +35]
-9.579667e-01 -8.139870e-01 -7.698646e-01 -7.406488e-01
-7.008605e-01 -6.498289e-01 -5.841752e-01 -4.991557e-01
-3.890468e-01 -2.442641e-01 -6.461673e-02 +1.306250e-01
+3.159322e-01 +4.700767e-01 +5.855141e-01 +6.668445e-01
+7.232673e-01 +7.626191e-01 +7.877443e-01 +7.898735e-01
+7.152228e-01
[row +36]
-9.717904e-01 -8.337514e-01 -7.892688e-01 -7.622218e-01
-7.243904e-01 -6.754082e-01 -6.109952e-01 -5.252868e-01
-4.111834e-01 -2.577636e-01 -6.599157e-02 +1.415534e-01
+3.363588e-01 +4.957006e-01 +6.125624e-01 +6.929828e-01
+7.474924e-01 +7.847561e-01 +8.080343e-01 +8.086219e-01
+7.324586e-01
[row +37]
-9.826032e-01 -8.504388e-01 -8.063407e-01 -7.816311e-01
-7.461129e-01 -6.995537e-01 -6.367580e-01 -5.506723e-01
-4.327349e-01 -2.706594e-01 -6.675247e-02 +1.529328e-01
+3.568377e-01 +5.208092e-01 +6.384974e-01 +7.174754e-01
+7.696421e-01 +8.044903e-01 +8.256981e-01 +8.247120e-01
+7.476234e-01
[row +38]
-9.908120e-01 -8.642452e-01 -8.212718e-01 -7.990388e-01
-7.661601e-01 -7.223595e-01 -6.615143e-01 -5.753190e-01
-4.536649e-01 -2.828908e-01 -6.684260e-02 +1.648053e-01
+3.773966e-01 +5.454323e-01 +6.633687e-01 +7.404031e-01
+7.898317e-01 +8.219688e-01 +8.409086e-01 +8.383288e-01
+7.608594e-01
[row +39]
-9.967520e-01 -8.753813e-01 -8.342468e-01 -8.146050e-01
-7.846632e-01 -7.439204e-01 -6.853151e-01 -5.992363e-01
-4.738813e-01 -2.943665e-01 -6.621922e-02 +1.772135e-01
+3.980599e-01 +5.695992e-01 +6.872263e-01 +7.618477e-01
+8.081766e-01 +8.373380e-01 +8.538364e-01 +8.496532e-01
+7.723048e-01
[row +40]
-1.000658e+00 -8.840550e-01 -8.454411e-01 -8.284889e-01
-8.017517e-01 -7.643266e-01 -7.082196e-01 -6.223906e-01
-4.931901e-01 -3.049538e-01 -6.483370e-02 +1.901932e-01
+4.188501e-01 +5.933379e-01 +7.101197e-01 +7.818905e-01
+8.247906e-01 +8.507426e-01 +8.646516e-01 +8.588593e-01
+7.820929e-01
[row +41]
+9.882458e-01 +1.045556e+00 +1.027794e+00 +9.902812e-01
+9.391616e-01 +8.671435e-01 +7.691571e-01 +6.379654e-01
+4.704856e-01 +2.761085e-01 +5.718557e-02 -1.711142e-01
-3.871856e-01 -5.728144e-01 -7.204079e-01 -8.319754e-01
-9.143998e-01 -9.751833e-01 -1.018646e+00 -1.027609e+00
-9.432109e-01
[row +42]
+9.849379e-01 +1.042338e+00 +1.020326e+00 +9.792232e-01
+9.238447e-01 +8.474643e-01 +7.460002e-01 +6.139409e-01
+4.490958e-01 +2.630102e-01 +5.672044e-02 -1.589135e-01
-3.660872e-01 -5.480920e-01 -6.964417e-01 -8.113128e-01
-8.980105e-01 -9.630781e-01 -1.010592e+00 -1.021609e+00
-9.279614e-01
[row +43]
+9.810365e-01 +1.032374e+00 +1.004721e+00 +9.609245e-01
+9.022216e-01 +8.227397e-01 +7.191259e-01 +5.874212e-01
+4.255101e-01 +2.462726e-01 +5.139470e-02 -1.520629e-01
-3.494772e-01 -5.258931e-01 -6.725135e-01 -7.882156e-01
-8.769985e-01 -9.445507e-01 -9.949046e-01 -1.008192e+00
-9.057443e-01
[row +44]
+9.760499e-01 +1.015323e+00 +9.812754e-01 +9.356675e-01
+8.746204e-01 +7.933452e-01 +6.890289e-01 +5.589754e-01
+4.010325e-01 +2.277482e-01 +4.327680e-02 -1.485247e-01
-3.356772e-01 -5.050574e-01 -6.479839e-01 -7.624758e-01
-8.514902e-01 -9.199335e-01 -9.719055e-01 -9.873053e-01
-8.768016e-01
[row +45]
+9.692619e-01 +9.907379e-01 +9.502967e-01 +9.037279e-01
+8.413573e-01 +7.596071e-01 +6.560862e-01 +5.289492e-01
+3.764062e-01 +2.089752e-01 +3.398735e-02 -1.466168e-01
-3.232610e-01 -4.845531e-01 -6.222543e-01 -7.338719e-01
-8.215702e-01 -8.895312e-01 -9.419207e-01 -9.589550e-01
-8.414582e-01
[row +46]
+9.597592e-01 +9.582232e-01 +9.121421e-01 +8.654093e-01
+8.027621e-01 +7.218437e-01 +6.205753e-01 +4.976358e-01
+3.518387e-01 +1.911283e-01 +2.481251e-02 -1.449813e-01
-3.110380e-01 -4.634911e-01 -5.947879e-01 -7.021945e-01
-7.872931e-01 -8.536335e-01 -9.053016e-01 -9.232266e-01
-8.001175e-01
[row +47]
+9.464539e-01 +9.175522e-01 +8.672370e-01 +8.210658e-01
+7.592001e-01 +6.803820e-01 +5.827269e-01 +4.652783e-01
+3.272694e-01 +1.746767e-01 +1.687331e-02 -1.425728e-01
-2.980197e-01 -4.411273e-01 -5.651205e-01 -6.672598e-01
-7.487040e-01 -8.125004e-01 -8.624101e-01 -8.803187e-01
-7.532490e-01
[row +48]
+9.281232e-01 +8.687459e-01 +8.160819e-01 +7.711166e-01
+7.110846e-01 +6.355601e-01 +5.427784e-01 +4.320126e-01
+3.027155e-01 +1.593785e-01 +1.081083e-02 -1.385248e-01
-2.834247e-01 -4.168450e-01 -5.328667e-01 -6.289149e-01
-7.058519e-01 -7.663597e-01 -8.136005e-01 -8.305655e-01
-7.013735e-01
[row +49]
+9.034678e-01 +8.121105e-01 +7.592457e-01 +7.160525e-01
+6.588760e-01 +5.877381e-01 +5.009688e-01 +3.979414e-01
+2.781661e-01 +1.449534e-01 +6.368631e-03 -1.324833e-01
-2.666860e-01 -3.901474e-01 -4.977155e-01 -5.870410e-01
-6.587956e-01 -7.154112e-01 -7.592290e-01 -7.744404e-01
-6.450518e-01
[row +50]
+8.711912e-01 +7.482408e-01 +6.973527e-01 +6.564346e-01
+6.030761e-01 +5.372983e-01 +4.575414e-01 +3.631584e-01
+2.535818e-01 +1.311664e-01 +3.169050e-03 -1.248043e-01
-2.479297e-01 -3.609034e-01 -4.594379e-01 -5.415524e-01
-6.076072e-01 -6.598280e-01 -6.996666e-01 -7.125484e-01
-5.848735e-01
[row +51]
+8.300956e-01 +6.779940e-01 +6.310673e-01 +5.928866e-01
+5.442184e-01 +4.846417e-01 +4.127460e-01 +3.277544e-01
+2.289194e-01 +1.178036e-01 +8.780534e-04 -1.158618e-01
-2.275573e-01 -3.295388e-01 -4.183227e-01 -4.924811e-01
-5.523767e-01 -5.997608e-01 -6.353124e-01 -6.456107e-01
-5.214451e-01
[row +52]
+7.791886e-01 +6.024391e-01 +5.610796e-01 +5.260808e-01
+4.828568e-01 +4.301811e-01 +3.668361e-01 +2.918218e-01
+2.041388e-01 +1.046800e-01 -7.956538e-04 -1.059870e-01
-2.059317e-01 -2.964828e-01 -3.749233e-01 -4.404031e-01
-4.934489e-01 -5.355017e-01 -5.666359e-01 -5.744303e-01
-4.553864e-01
[row +53]
+7.177936e-01 +5.227884e-01 +4.880935e-01 +4.567218e-01
+4.195536e-01 +3.743339e-01 +3.200664e-01 +2.554567e-01
+1.792081e-01 +9.164051e-02 -2.098215e-03 -9.546483e-02
-1.833706e-01 -2.621236e-01 -3.297431e-01 -3.859736e-01
-4.315728e-01 -4.677822e-01 -4.943520e-01 -4.998040e-01
-3.873585e-01
[row +54]
+6.456511e-01 +4.403199e-01 +4.128184e-01 +3.855276e-01
+3.548678e-01 +3.175141e-01 +2.726885e-01 +2.187580e-01
+1.541053e-01 +7.855883e-02 -3.231928e-03 -8.453359e-02
-1.601472e-01 -2.268049e-01 -2.832421e-01 -3.297992e-01
-3.674964e-01 -3.974577e-01 -4.192998e-01 -4.225375e-01
-3.180317e-01
[row +55]
+5.629999e-01 +3.562975e-01 +3.359633e-01 +3.132096e-01
+2.893445e-01 +2.601248e-01 +2.249473e-01 +1.818265e-01
+1.288188e-01 +6.533584e-02 -4.358267e-03 -7.338752e-02
-1.364918e-01 -1.908282e-01 -2.358360e-01 -2.724393e-01
-3.019242e-01 -3.253506e-01 -3.423286e-01 -3.434558e-01
-2.480577e-01
[row +56]
+4.706239e-01 +2.718988e-01 +2.582326e-01 +2.404541e-01
+2.235067e-01 +2.025509e-01 +1.770771e-01 +1.447632e-01
+1.033472e-01 +5.189704e-02 -5.601779e-03 -6.218064e-02
-1.125951e-01 -1.544551e-01 -1.878977e-01 -2.144058e-01
-2.355116e-01 -2.522387e-01 -2.642710e-01 -2.633829e-01
-1.780596e-01
[row +57]
+3.698526e-01 +1.881572e-01 +1.803212e-01 +1.679060e-01
+1.578469e-01 +1.451533e-01 +1.292993e-01 +1.076676e-01
+7.769846e-02 +3.818996e-02 -7.054268e-03 -5.103102e-02
-8.861238e-02 -1.179105e-01 -1.397590e-01 -1.561620e-01
-1.688603e-01 -1.788461e-01 -1.859230e-01 -1.831207e-01
-1.086239e-01
[row +58]
+2.625091e-01 +1.059246e-01 +1.029080e-01 +9.615524e-02
+9.282174e-02 +8.826411e-02 +8.181905e-02 +7.063576e-02
+5.188819e-02 +2.418151e-02 -8.778914e-03 -4.002524e-02
-6.466705e-02 -8.138606e-02 -9.171235e-02 -9.812342e-02
-1.025157e-01 -1.058360e-01 -1.080275e-01 -1.034304e-01
-4.029169e-02
[row +59]
+1.508029e-01 +2.585869e-02 +2.664569e-02 +2.572783e-02
+2.884677e-02 +3.218337e-02 +3.482408e-02 +3.375940e-02
+2.593901e-02 +9.855635e-03 -1.081415e-02 -2.922263e-02
-4.085492e-02 -4.504291e-02 -4.401316e-02 -4.065811e-02
-3.696487e-02 -3.380502e-02 -3.126227e-02 -2.501596e-02
+2.644805e-02
[row +60]
+3.717751e-02 -5.156800e-02 -4.785231e-02 -4.291931e-02
-3.370709e-02 -2.282340e-02 -1.151691e-02 -2.875521e-03
-1.209215e-04 -4.789025e-03 -1.317720e-02 -1.865921e-02
-1.724770e-02 -9.015144e-03 +3.117844e-03 +1.591197e-02
+2.736418e-02 +3.671955e-02 +4.376912e-02 +5.148883e-02
+9.116478e-02
[row +61]
-7.587096e-02 -1.260391e-01 -1.200268e-01 -1.093994e-01
-9.451631e-02 -7.652603e-02 -5.705499e-02 -3.918947e-02
-2.625899e-02 -1.974112e-02 -1.586730e-02 -8.351299e-03
+6.103512e-03 +2.658742e-02 +4.949243e-02 +7.130945e-02
+9.010195e-02 +1.052819e-01 +1.165422e-01 +1.255299e-01
+1.534907e-01
[row +62]
-1.859776e-01 -1.973552e-01 -1.893878e-01 -1.733939e-01
-1.533064e-01 -1.287297e-01 -1.016612e-01 -7.510989e-02
-5.243908e-02 -3.497845e-02 -1.886849e-02 +1.701281e-03
+2.916520e-02 +6.167655e-02 +9.495249e-02 +1.252995e-01
+1.509361e-01 +1.714974e-01 +1.866140e-01 +1.966386e-01
+2.131231e-01
[row +63]
-2.910696e-01 -2.653917e-01 -2.555277e-01 -2.346482e-01
-2.098521e-01 -1.792741e-01 -1.452267e-01 -1.105715e-01
-7.862244e-02 -5.046956e-02 -2.215216e-02 +1.151237e-02
+5.191869e-02 +9.618304e-02 +1.393677e-01 +1.776876e-01
+2.096091e-01 +2.350506e-01 +2.536229e-01 +2.644339e-01
+2.698246e-01
[row +64]
-3.894833e-01 -3.300628e-01 -3.181286e-01 -2.929666e-01
-2.639770e-01 -2.280319e-01 -1.876619e-01 -1.455162e-01
-1.047684e-01 -6.617521e-02 -2.567926e-02 +2.110695e-02
+7.435770e-02 +1.300545e-01 +1.826331e-01 +2.283168e-01
+2.659155e-01 +2.956925e-01 +3.172857e-01 +3.286210e-01
+3.234214e-01
[row +65]
-4.800244e-01 -3.912963e-01 -3.769650e-01 -3.482073e-01
-3.155513e-01 -2.749069e-01 -2.288959e-01 -1.798932e-01
-1.308351e-01 -8.204964e-02 -2.940220e-02 +3.051898e-02
+9.648622e-02 +1.632532e-01 +2.246669e-01 +2.770650e-01
+3.196980e-01 +3.532363e-01 +3.773932e-01 +3.889874e-01
+3.737992e-01
[row +66]
-5.619740e-01 -4.490203e-01 -4.319003e-01 -4.002767e-01
-3.644888e-01 -3.198320e-01 -2.688754e-01 -2.136590e-01
-1.567798e-01 -9.804172e-02 -3.326661e-02 +3.978948e-02
+1.183166e-01 +1.957541e-01 +2.654083e-01 +3.238418e-01
+3.708438e-01 +4.075521e-01 +4.338045e-01 +4.453966e-01
+4.208984e-01
[row +67]
-6.350487e-01 -5.031605e-01 -4.828791e-01 -4.491251e-01
-4.107434e-01 -3.627664e-01 -3.075634e-01 -2.467764e-01
-1.825593e-01 -1.140960e-01 -3.721281e-02 +4.896484e-02
+1.398678e-01 +2.275433e-01 +3.048150e-01 +3.685859e-01
+4.192801e-01 +4.585616e-01 +4.864402e-01 +4.977806e-01
+4.647070e-01
[row +68]
-6.993304e-01 -5.536455e-01 -5.299159e-01 -4.947421e-01
-4.543046e-01 -4.036935e-01 -3.449377e-01 -2.792147e-01
-2.081306e-01 -1.301535e-01 -4.117710e-02 +5.809545e-02
+1.611641e-01 +2.586162e-01 +3.428615e-01 +4.112614e-01
+4.649700e-01 +5.062321e-01 +5.352747e-01 +5.461309e-01
+5.052541e-01
[row +69]
-7.551824e-01 -6.004151e-01 -5.730826e-01 -5.371523e-01
-4.951928e-01 -4.426184e-01 -3.809896e-01 -3.109492e-01
-2.334508e-01 -1.461526e-01 -4.509295e-02 +6.723439e-02
+1.822338e-01 +2.889763e-01 +3.795367e-01 +4.518554e-01
+5.079079e-01 +5.505707e-01 +5.803292e-01 +5.904895e-01
+5.426031e-01
[row +70]
-8.031644e-01 -6.434294e-01 -6.124964e-01 -5.764112e-01
-5.334553e-01 -4.795648e-01 -4.157221e-01 -3.419606e-01
-2.584774e-01 -1.620299e-01 -4.889201e-02 +7.643639e-02
+2.031081e-01 +3.186337e-01 +4.148423e-01 +4.903746e-01
+5.481151e-01 +5.916180e-01 +6.216639e-01 +6.309402e-01
+5.768444e-01
[row +71]
-8.439552e-01 -6.826761e-01 -6.483083e-01 -6.126007e-01
-5.691616e-01 -5.145733e-01 -4.491489e-01 -3.722343e-01
-2.831685e-01 -1.777205e-01 -5.250497e-02 +8.575688e-02
+2.238200e-01 +3.476040e-01 +4.487909e-01 +5.268428e-01
+5.856361e-01 +6.294430e-01 +6.593714e-01 +6.676004e-01
+6.080894e-01
[row +72]
-8.782891e-01 -7.181752e-01 -6.806929e-01 -6.458251e-01
-6.023994e-01 -5.476980e-01 -4.812923e-01 -4.017605e-01
-3.074831e-01 -1.931590e-01 -5.586235e-02 +9.525121e-02
+2.444037e-01 +3.759072e-01 +4.814043e-01 +5.612981e-01
+6.205344e-01 +6.641375e-01 +6.935699e-01 +7.006129e-01
+6.364650e-01
[row +73]
-9.069061e-01 -7.499809e-01 -7.098405e-01 -6.762068e-01
-6.332708e-01 -5.790047e-01 -5.121825e-01 -4.305329e-01
-3.313809e-01 -2.082797e-01 -5.889522e-02 +1.049740e-01
+2.648937e-01 +4.035669e-01 +5.127118e-01 +5.937906e-01
+6.528889e-01 +6.958114e-01 +7.243973e-01 +7.301396e-01
+6.621090e-01
[row +74]
-9.305168e-01 -7.781808e-01 -7.359505e-01 -7.038829e-01
-6.618893e-01 -6.085687e-01 -5.418557e-01 -4.585489e-01
-3.548227e-01 -2.230172e-01 -6.153576e-02 +1.149784e-01
+2.853244e-01 +4.306093e-01 +5.427493e-01 +6.243800e-01
+6.827908e-01 +7.245888e-01 +7.520064e-01 +7.563555e-01
+6.851656e-01
[row +75]
-9.497790e-01 -8.028935e-01 -7.592261e-01 -7.290009e-01
-6.883765e-01 -6.364724e-01 -5.703533e-01 -4.858086e-01
-3.777701e-01 -2.373070e-01 -6.371778e-02 +1.253159e-01
+3.057293e-01 +4.570622e-01 +5.715573e-01 +6.531335e-01
+7.103409e-01 +7.506037e-01 +7.765603e-01 +7.794437e-01
+7.057827e-01
[row +76]
-9.652831e-01 -8.242656e-01 -7.798705e-01 -7.517158e-01
-7.128596e-01 -6.628037e-01 -5.977205e-01 -5.123148e-01
-4.001860e-01 -2.510855e-01 -6.537719e-02 +1.360355e-01
+3.261408e-01 +4.829549e-01 +5.991804e-01 +6.801243e-01
+7.356464e-01 +7.739971e-01 +7.982284e-01 +7.995917e-01
+7.241087e-01
[row +77]
-9.775462e-01 -8.424675e-01 -7.980841e-01 -7.721869e-01
-7.354693e-01 -6.876543e-01 -6.240056e-01 -5.380724e-01
-4.220344e-01 -2.642907e-01 -6.645241e-02 +1.471840e-01
+3.465899e-01 +5.083175e-01 +6.256660e-01 +7.054298e-01
+7.588195e-01 +7.949144e-01 +8.171836e-01 +8.169876e-01
+7.402909e-01
[row +78]
-9.870105e-01 -8.576892e-01 -8.140622e-01 -7.905751e-01
-7.563378e-01 -7.111182e-01 -6.492588e-01 -5.630875e-01
-4.432804e-01 -2.768624e-01 -6.688466e-02 +1.588048e-01
+3.671056e-01 +5.331797e-01 +6.510630e-01 +7.291298e-01
+7.799747e-01 +8.135024e-01 +8.335993e-01 +8.318181e-01
+7.544737e-01
[row +79]
-9.940472e-01 -8.701338e-01 -8.279927e-01 -8.070420e-01
-7.755966e-01 -7.332898e-01 -6.735311e-01 -5.873680e-01
-4.638734e-01 -2.887307e-01 -6.662199e-02 +1.709397e-01
+3.877139e-01 +5.575710e-01 +6.754212e-01 +7.513057e-01
+7.992276e-01 +8.299081e-01 +8.476473e-01 +8.442665e-01
+7.667975e-01
[row +80]
-9.989508e-01 -8.800144e-01 -8.400556e-01 -8.217477e-01
-7.933760e-01 -7.542624e-01 -6.968746e-01 -6.109169e-01
-4.836604e-01 -2.997819e-01 -6.562782e-02 +1.836308e-01
+4.084374e-01 +5.815205e-01 +6.987903e-01 +7.720391e-01
+8.166929e-01 +8.442765e-01 +8.594965e-01 +8.545108e-01
+7.773976e-01
[row +81]
+9.890124e-01 +1.045323e+00 +1.028353e+00 +9.918776e-01
+9.419633e-01 +8.712231e-01 +7.742918e-01 +6.434839e-01
+4.752842e-01 +2.785587e-01 +5.625165e-02 -1.752764e-01
-3.933820e-01 -5.795354e-01 -7.264813e-01 -8.367807e-01
-9.177553e-01 -9.771607e-01 -1.019429e+00 -1.027960e+00
-9.459148e-01
[row +82]
+9.858065e-01 +1.043766e+00 +1.022968e+00 +9.826779e-01
+9.282786e-01 +8.528733e-01 +7.521605e-01 +6.202097e-01
+4.547138e-01 +2.667061e-01 +5.738423e-02 -1.613742e-01
-3.708698e-01 -5.539881e-01 -7.024043e-01 -8.166994e-01
-9.025472e-01 -9.667208e-01 -1.013334e+00 -1.023801e+00
-9.324346e-01
[row +83]
+9.820903e-01 +1.035513e+00 +1.009369e+00 +9.661619e-01
+9.082001e-01 +8.293720e-01 +7.261634e-01 +5.942491e-01
+4.315284e-01 +2.506917e-01 +5.306015e-02 -1.533917e-01
-3.533050e-01 -5.312716e-01 -6.785273e-01 -7.942289e-01
-8.826771e-01 -9.497656e-01 -9.995244e-01 -1.012245e+00
-9.119400e-01
[row +84]
+9.774335e-01 +1.020275e+00 +9.878558e-01 +9.426189e-01
+8.820640e-01 +8.011133e-01 +6.968331e-01 +5.662459e-01
+4.071883e-01 +2.324569e-01 +4.547286e-02 -1.491965e-01
-3.389460e-01 -5.101974e-01 -6.542064e-01 -7.691707e-01
-8.582836e-01 -9.266420e-01 -9.783234e-01 -9.932280e-01
-8.846515e-01
[row +85]
+9.711745e-01 +9.976143e-01 +9.587292e-01 +9.123232e-01
+8.501863e-01 +7.684316e-01 +6.645720e-01 +5.365881e-01
+3.825558e-01 +2.136202e-01 +3.634473e-02 -1.470205e-01
-3.263043e-01 -4.896993e-01 -6.288298e-01 -7.413032e-01
-8.294605e-01 -8.976580e-01 -9.500533e-01 -9.667392e-01
-8.508734e-01
[row +86]
+9.624464e-01 +9.671113e-01 +9.223315e-01 +8.755685e-01
+8.128916e-01 +7.316441e-01 +6.296811e-01 +5.055697e-01
+3.579787e-01 +1.954625e-01 +2.703194e-02 -1.454268e-01
-3.141329e-01 -4.688520e-01 -6.018440e-01 -7.104126e-01
-7.962684e-01 -8.631084e-01 -9.150585e-01 -9.328417e-01
-8.109902e-01
[row +87]
+9.502019e-01 +9.284880e-01 +8.790700e-01 +8.326947e-01
+7.705345e-01 +6.910759e-01 +5.923954e-01 +4.734569e-01
+3.334118e-01 +1.786665e-01 +1.868955e-02 -1.432954e-01
-3.013955e-01 -4.468759e-01 -5.727662e-01 -6.763078e-01
-7.587530e-01 -8.232616e-01 -8.737016e-01 -8.917028e-01
-7.654566e-01
[row +88]
+9.332475e-01 +8.816983e-01 +8.294265e-01 +7.841038e-01
+7.235159e-01 +6.470613e-01 +5.529494e-01 +4.404084e-01
+3.088521e-01 +1.631121e-01 +1.215749e-02 -1.397302e-01
-2.872576e-01 -4.231246e-01 -5.411908e-01 -6.388279e-01
-7.169616e-01 -7.783530e-01 -8.263385e-01 -8.436220e-01
-7.147817e-01
[row +89]
+9.102964e-01 +8.269755e-01 +7.739539e-01 +7.302685e-01
+6.722851e-01 +5.999543e-01 +5.115825e-01 +4.065294e-01
+2.843051e-01 +1.484909e-01 +7.348699e-03 -1.341624e-01
-2.710769e-01 -3.970705e-01 -5.067895e-01 -5.978455e-01
-6.709502e-01 -7.285891e-01 -7.733235e-01 -7.890381e-01
-6.595172e-01
[row +90]
+8.800431e-01 +7.648436e-01 +7.132642e-01 +6.717328e-01
+6.173340e-01 +5.501320e-01 +4.685364e-01 +3.719159e-01
+2.597336e-01 +1.345655e-01 +3.871384e-03 -1.268564e-01
-2.527856e-01 -3.684305e-01 -4.692969e-01 -5.532694e-01
-6.207864e-01 -6.741501e-01 -7.150225e-01 -7.285244e-01
-6.002466e-01
[row +91]
+8.412552e-01 +6.960982e-01 +6.480130e-01 +6.091059e-01
+5.591894e-01 +4.979912e-01 +4.240593e-01 +3.366586e-01
+2.350946e-01 +1.211151e-01 +1.382314e-03 -1.181970e-01
-2.327813e-01 -3.375547e-01 -4.288361e-01 -5.050577e-01
-5.665567e-01 -6.151885e-01 -6.518271e-01 -6.627749e-01
-5.375734e-01
[row +92]
+7.928786e-01 +6.217609e-01 +5.788852e-01 +5.430494e-01
+4.984012e-01 +4.439425e-01 +3.784041e-01 +3.008493e-01
+2.103469e-01 +1.079475e-01 -4.208833e-04 -1.085267e-01
-2.114374e-01 -3.048834e-01 -3.859590e-01 -4.536678e-01
-5.084873e-01 -5.519247e-01 -5.841753e-01 -5.925792e-01
-4.721121e-01
[row +93]
+7.341478e-01 +5.430156e-01 +5.065823e-01 +4.742617e-01
+4.355307e-01 +3.884029e-01 +3.318256e-01 +2.645832e-01
+1.854562e-01 +9.489988e-02 -1.795594e-03 -9.814227e-02
-1.890829e-01 -2.708161e-01 -3.411791e-01 -3.997675e-01
-4.472766e-01 -4.849892e-01 -5.127156e-01 -5.187401e-01
-4.045132e-01
[row +94]
+6.646903e-01 +4.611312e-01 +4.318129e-01 +4.034591e-01
+3.711387e-01 +3.317879e-01 +2.845765e-01 +2.279584e-01
+1.603979e-01 +8.183905e-02 -2.954850e-03 -8.729343e-02
-1.660019e-01 -2.357074e-01 -2.949676e-01 -3.439749e-01
-3.836824e-01 -4.152373e-01 -4.382758e-01 -4.420567e-01
-3.354491e-01
[row +95]
+5.846145e-01 +3.773824e-01 +3.552865e-01 +3.313563e-01
+3.057748e-01 +2.745041e-01 +2.369036e-01 +1.910756e-01
+1.351578e-01 +6.865929e-02 -4.069984e-03 -7.618513e-02
-1.424351e-01 -1.998691e-01 -2.477512e-01 -2.868616e-01
-3.184207e-01 -3.435010e-01 -3.617052e-01 -3.633512e-01
-2.655772e-01
[row +96]
+4.945659e-01 +2.929744e-01 +2.777091e-01 +2.586479e-01
+2.399681e-01 +2.169415e-01 +1.890444e-01 +1.540359e-01
+1.097322e-01 +5.528018e-02 -5.274389e-03 -6.498106e-02
-1.185829e-01 -1.635726e-01 -1.999134e-01 -2.289512e-01
-2.521596e-01 -2.705702e-01 -2.838428e-01 -2.834497e-01
-1.955286e-01
[row +97]
+3.957404e-01 +2.089811e-01 +1.997785e-01 +1.859903e-01
+1.742195e-01 +1.594675e-01 +1.412236e-01 +1.169392e-01
+8.412653e-02 +4.164398e-02 -6.667661e-03 -5.380785e-02
-9.460889e-02 -1.270517e-01 -1.517958e-01 -1.707191e-01
-1.855146e-01 -1.971832e-01 -2.054955e-01 -2.031615e-01
-1.258997e-01
[row +98]
+2.898455e-01 +1.263021e-01 +1.221784e-01 +1.139883e-01
+1.089951e-01 +1.024218e-01 +9.365063e-02 +7.988262e-02
+5.835476e-02 +2.771301e-02 -8.319761e-03 -4.275955e-02
-7.064421e-02 -9.050599e-02 -1.037008e-01 -1.125929e-01
-1.190454e-01 -1.240188e-01 -1.274207e-01 -1.232598e-01
-5.724358e-02
[row +99]
+1.790071e-01 +4.564332e-02 +4.556902e-02 +4.318446e-02
+4.472098e-02 +4.611265e-02 +4.651777e-02 +4.295910e-02
+3.243787e-02 +1.346715e-02 -1.027496e-02 -3.190192e-02
-4.679117e-02 -5.410393e-02 -5.589272e-02 -5.495229e-02
-5.325372e-02 -5.169089e-02 -5.031325e-02 -4.446401e-02
+9.937005e-03
[row +100]
+6.562639e-02 -3.247833e-02 -2.942487e-02 -2.594674e-02
-1.822037e-02 -9.185575e-03 -1.464002e-06 +6.256105e-03
+6.402718e-03 -1.098411e-03 -1.255548e-02 -2.127646e-02
-2.312718e-02 -1.798612e-02 -8.600801e-03 +1.869309e-03
+1.141768e-02 +1.925580e-02 +2.520393e-02 +3.257337e-02
+7.519648e-02
[row +101]
-4.779618e-02 -1.077109e-01 -1.022291e-01 -9.300109e-02
-7.949342e-02 -6.323388e-02 -4.575314e-02 -3.014517e-02
-1.971908e-02 -1.597534e-02 -1.516477e-02 -1.090410e-02
+2.918117e-04 +1.773182e-02 +3.797885e-02 +5.758358e-02
+7.458475e-02 +8.834755e-02 +9.858630e-02 +1.072777e-01
+1.381510e-01
[row +102]
-1.588464e-01 -1.798297e-01 -1.723351e-01 -1.576433e-01
-1.388113e-01 -1.158286e-01 -9.060334e-02 -6.617038e-02
-4.589221e-02 -3.114397e-02 -1.809041e-02 -7.884910e-04
+2.342817e-02 +5.295649e-02 +8.368081e-02 +1.119453e-01
+1.359210e-01 +1.551820e-01 +1.693705e-01 +1.791587e-01
+1.984816e-01
[row +103]
-2.653655e-01 -2.486950e-01 -2.393137e-01 -2.196031e-01
-1.959365e-01 -1.668011e-01 -1.344382e-01 -1.017524e-01
-7.207850e-02 -4.657503e-02 -2.130675e-02 +9.081024e-03
+4.625974e-02 +8.761417e-02 +1.283680e-01 +1.647500e-01
+1.951556e-01 +2.194266e-01 +2.371747e-01 +2.478133e-01
+2.559345e-01
[row +104]
-3.655796e-01 -3.142145e-01 -3.028241e-01 -2.786708e-01
-2.506806e-01 -2.160157e-01 -1.771633e-01 -1.368313e-01
-9.823772e-02 -6.223110e-02 -2.477715e-02 +1.872687e-02
+6.877737e-02 +1.216485e-01 +1.719294e-01 +2.158317e-01
+2.520702e-01 +2.808162e-01 +3.016964e-01 +3.129255e-01
+3.103204e-01
[row +105]
-4.581744e-01 -3.763141e-01 -3.626177e-01 -3.346915e-01
-3.029023e-01 -2.633688e-01 -2.187032e-01 -1.713547e-01
-1.243282e-01 -7.806793e-02 -2.845599e-02 +2.818094e-02
+9.098265e-02 +1.550181e-01 +2.142776e-01 +2.650598e-01
+3.064959e-01 +3.391488e-01 +3.627085e-01 +3.742627e-01
+3.615107e-01
[row +106]
-5.423145e-01 -4.349224e-01 -4.185365e-01 -3.875600e-01
-3.525048e-01 -3.087862e-01 -2.590005e-01 -2.052770e-01
-1.503074e-01 -9.403565e-02 -3.229044e-02 +3.748265e-02
+1.128860e-01 +1.876952e-01 +2.553467e-01 +3.123363e-01
+3.583092e-01 +3.942809e-01 +4.200536e-01 +4.316701e-01
+4.094324e-01
[row +107]
-6.176131e-01 -4.899654e-01 -4.705056e-01 -4.372161e-01
-3.994324e-01 -3.522207e-01 -2.980140e-01 -2.385596e-01
-1.761323e-01 -1.100798e-01 -3.622203e-02 +4.667721e-02
+1.345049e-01 +2.196631e-01 +2.950901e-01 +3.575928e-01
+4.074277e-01 +4.461217e-01 +4.736375e-01 +4.850634e-01
+4.540624e-01
[row +108]
-6.840684e-01 -5.413705e-01 -5.185232e-01 -4.836399e-01
-4.436662e-01 -3.936500e-01 -3.357180e-01 -2.711702e-01
-2.017597e-01 -1.261421e-01 -4.018794e-02 +5.581412e-02
+1.558624e-01 +2.509151e-01 +3.334783e-01 +4.007875e-01
+4.538059e-01 +4.946278e-01 +5.234220e-01 +5.344199e-01
+4.954202e-01
[row +109]
-7.419817e-01 -5.890736e-01 -5.626480e-01 -5.268478e-01
-4.852191e-01 -4.330738e-01 -3.721006e-01 -3.030827e-01
-2.271466e-01 -1.421617e-01 -4.412226e-02 +6.494589e-02
+1.769860e-01 +2.814527e-01 +3.704966e-01 +4.419020e-01
+4.974307e-01 +5.397967e-01 +5.694172e-01 +5.797701e-01
+5.335612e-01
[row +110]
-7.918710e-01 -6.330291e-01 -6.029870e-01 -5.668878e-01
-5.241324e-01 -4.705117e-01 -4.071621e-01 -3.342764e-01
-2.522506e-01 -1.580755e-01 -4.795699e-02 +7.412694e-02
+1.979061e-01 +3.112845e-01 +4.061438e-01 +4.809383e-01
+5.383172e-01 +5.816614e-01 +6.116744e-01 +6.211880e-01
+5.685696e-01
[row +111]
-8.343920e-01 -6.732171e-01 -6.396837e-01 -6.038357e-01
-5.604702e-01 -5.060001e-01 -4.409135e-01 -3.647357e-01
-2.770294e-01 -1.738189e-01 -5.162299e-02 +8.341261e-02
+2.186554e-01 +3.404248e-01 +4.404300e-01 +5.179161e-01
+5.765045e-01 +6.202842e-01 +6.502785e-01 +6.587833e-01
+6.005523e-01
[row +112]
-8.702702e-01 -7.096494e-01 -6.729078e-01 -6.377905e-01
-5.943160e-01 -5.395899e-01 -4.733753e-01 -3.944494e-01
-3.014420e-01 -1.893266e-01 -5.505076e-02 +9.285832e-02
+2.392679e-01 +3.688927e-01 +4.733746e-01 +5.528704e-01
+6.120516e-01 +6.557516e-01 +6.853420e-01 +6.926932e-01
+6.296327e-01
[row +113]
-9.002482e-01 -7.423715e-01 -7.028462e-01 -6.688706e-01
-6.257688e-01 -5.713445e-01 -5.045756e-01 -4.234107e-01
-3.254477e-01 -2.045329e-01 -5.817117e-02 +1.025189e-01
+2.597781e-01 +3.967110e-01 +5.050055e-01 +5.858484e-01
+6.450339e-01 +6.881696e-01 +7.169983e-01 +7.230753e-01
+6.559463e-01
[row +114]
-9.250465e-01 -7.714629e-01 -7.296967e-01 -6.972096e-01
-6.549394e-01 -6.013367e-01 -5.345493e-01 -4.516158e-01
-3.490071e-01 -2.193723e-01 -6.091607e-02 +1.124480e-01
+2.802204e-01 +4.239051e-01 +5.353568e-01 +6.169075e-01
+6.755399e-01 +7.176589e-01 +7.453971e-01 +7.501020e-01
+6.796360e-01
[row +115]
-9.453376e-01 -7.970347e-01 -7.536618e-01 -7.229528e-01
-6.819476e-01 -6.296474e-01 -5.633367e-01 -4.790645e-01
-3.720817e-01 -2.337800e-01 -6.321881e-02 +1.226976e-01
+3.006287e-01 +4.505026e-01 +5.644682e-01 +6.461133e-01
+7.036681e-01 +7.443514e-01 +7.706991e-01 +7.739547e-01
+7.008490e-01
[row +116]
-9.617298e-01 -8.192269e-01 -7.749451e-01 -7.462537e-01
-7.069196e-01 -6.563633e-01 -5.909820e-01 -5.057587e-01
-3.946339e-01 -2.476922e-01 -6.501476e-02 +1.333172e-01
+3.210356e-01 +4.765326e-01 +5.923832e-01 +6.735377e-01
+7.295244e-01 +7.683867e-01 +7.930725e-01 +7.948200e-01
+7.197339e-01
[row +117]
-9.747587e-01 -8.382043e-01 -7.937478e-01 -7.672706e-01
-7.299853e-01 -6.815754e-01 -6.175330e-01 -5.317029e-01
-4.166275e-01 -2.610465e-01 -6.624165e-02 +1.443542e-01
+3.414725e-01 +5.020249e-01 +6.191486e-01 +6.992571e-01
+7.532199e-01 +7.899092e-01 +8.126896e-01 +8.128864e-01
+7.364383e-01
[row +118]
-9.848852e-01 -8.541525e-01 -8.102668e-01 -7.861644e-01
-7.512767e-01 -7.053771e-01 -6.430395e-01 -5.569029e-01
-4.380272e-01 -2.737821e-01 -6.683999e-02 +1.558531e-01
+3.619689e-01 +5.270094e-01 +6.448130e-01 +7.233509e-01
+7.748688e-01 +8.090657e-01 +8.297240e-01 +8.283409e-01
+7.511077e-01
[row +119]
-9.924979e-01 -8.672715e-01 -8.246920e-01 -8.030966e-01
-7.709256e-01 -7.278628e-01 -6.675522e-01 -5.813661e-01
-4.587924e-01 -2.858354e-01 -6.675484e-02 +1.678554e-01
+3.825518e-01 +5.515157e-01 +6.694262e-01 +7.459001e-01
+7.945864e-01 +8.260032e-01 +8.443480e-01 +8.413679e-01
+7.638834e-01
[row +120]
-9.979138e-01 -8.777730e-01 -8.372054e-01 -8.182277e-01
-7.890628e-01 -7.491268e-01 -6.911223e-01 -6.051011e-01
-4.788009e-01 -2.971029e-01 -6.594789e-02 +1.804041e-01
+4.032445e-01 +5.755730e-01 +6.930380e-01 +7.669866e-01
+8.124879e-01 +8.408675e-01 +8.567312e-01 +8.521468e-01
+7.749020e-01
[row +121]
+9.874571e-01 +1.045374e+00 +1.026707e+00 +9.882120e-01
+9.359429e-01 +8.627202e-01 +7.637494e-01 +6.322361e-01
+4.654374e-01 +2.732908e-01 +5.765706e-02 -1.674365e-01
-3.813890e-01 -5.663297e-01 -7.143773e-01 -8.270282e-01
-9.107447e-01 -9.727798e-01 -1.017366e+00 -1.026800e+00
-9.400617e-01
[row +122]
+9.840335e-01 +1.040489e+00 +1.017176e+00 +9.753157e-01
+9.190167e-01 +8.417401e-01 +7.396082e-01 +6.075177e-01
+4.433425e-01 +2.590890e-01 +5.575530e-02 -1.567853e-01
-3.615838e-01 -5.423529e-01 -6.904814e-01 -8.057742e-01
-8.931851e-01 -9.590345e-01 -1.007373e+00 -1.018952e+00
-9.230524e-01
[row +123]
+9.799158e-01 +1.028793e+00 +9.995834e-01 +9.552517e-01
+8.958694e-01 +8.158156e-01 +7.118874e-01 +5.804738e-01
+4.194386e-01 +2.417431e-01 +4.955694e-02 -1.509394e-01
-3.458237e-01 -5.205990e-01 -6.664618e-01 -7.820371e-01
-8.710390e-01 -9.389553e-01 -9.898279e-01 -1.003671e+00
-8.991279e-01
[row +124]
+9.745541e-01 +1.009901e+00 +9.742240e-01 +9.282977e-01
+8.668229e-01 +7.853057e-01 +6.810475e-01 +5.516063e-01
+3.948704e-01 +2.230256e-01 +4.100921e-02 -1.479532e-01
-3.324938e-01 -4.999375e-01 -6.416862e-01 -7.556019e-01
-8.444213e-01 -9.128638e-01 -9.650512e-01 -9.809156e-01
-8.685514e-01
[row +125]
+9.671805e-01 +9.833652e-01 +9.414155e-01 +8.947333e-01
+8.321949e-01 +7.505309e-01 +6.474401e-01 +5.212302e-01
+3.702610e-01 +2.043920e-01 +3.163765e-02 -1.462286e-01
-3.202289e-01 -4.793715e-01 -6.155700e-01 -7.262484e-01
-8.134077e-01 -8.810613e-01 -9.333737e-01 -9.507089e-01
-8.316679e-01
[row +126]
+9.568353e-01 +9.488238e-01 +9.015304e-01 +8.548730e-01
+7.923220e-01 +7.118120e-01 +6.113233e-01 +4.896374e-01
+3.456976e-01 +1.868858e-01 +2.267184e-02 -1.444865e-01
-3.078924e-01 -4.580482e-01 -5.875938e-01 -6.937727e-01
-7.780483e-01 -8.438317e-01 -8.951529e-01 -9.131620e-01
-7.888990e-01
[row +127]
+9.423925e-01 +9.061062e-01 +8.550130e-01 +8.090861e-01
+7.475809e-01 +6.694778e-01 +5.729273e-01 +4.570430e-01
+3.211285e-01 +1.707579e-01 +1.518080e-02 -1.417467e-01
-2.945445e-01 -4.352583e-01 -5.573128e-01 -6.579986e-01
-7.383885e-01 -8.014265e-01 -8.507488e-01 -8.685060e-01
-7.407282e-01
[row +128]
+9.226037e-01 +8.553025e-01 +8.023818e-01 +7.578093e-01
+6.983972e-01 +6.238713e-01 +5.324911e-01 +4.235665e-01
+2.965791e-01 +1.556997e-01 +9.564146e-03 -1.371900e-01
-2.794516e-01 -4.104147e-01 -5.243609e-01 -6.187812e-01
-6.944794e-01 -7.540661e-01 -8.005150e-01 -8.171101e-01
-6.876873e-01
[row +129]
+8.961624e-01 +7.967919e-01 +7.442211e-01 +7.015515e-01
+6.452423e-01 +5.753581e-01 +4.902539e-01 +3.893088e-01
+2.720250e-01 +1.414556e-01 +5.465968e-03 -1.307019e-01
-2.621698e-01 -3.830605e-01 -4.884425e-01 -5.760112e-01
-6.463825e-01 -7.019438e-01 -7.448100e-01 -7.594817e-01
-6.303453e-01
[row +130]
+8.617873e-01 +7.312383e-01 +6.811665e-01 +6.408905e-01
+5.886269e-01 +5.243260e-01 +4.464610e-01 +3.543620e-01
+2.474252e-01 +1.277936e-01 +2.523264e-03 -1.226735e-01
-2.429731e-01 -3.532438e-01 -4.494020e-01 -5.296050e-01
-5.941758e-01 -6.452253e-01 -6.840111e-01 -6.962565e-01
-5.692972e-01
[row +131]
+8.183214e-01 +6.595575e-01 +6.138901e-01 +5.764634e-01
+5.290908e-01 +4.711794e-01 +4.013631e-01 +3.188171e-01
+2.227367e-01 +1.145068e-01 +4.121275e-04 -1.134686e-01
-2.222552e-01 -3.214174e-01 -4.076666e-01 -4.797169e-01
-5.379635e-01 -5.840676e-01 -6.185258e-01 -6.281815e-01
-5.051520e-01
[row +132]
+7.648411e-01 +5.828610e-01 +5.430865e-01 +5.089524e-01
+4.671911e-01 +4.163330e-01 +3.552144e-01 +2.827673e-01
+1.979212e-01 +1.014177e-01 -1.147469e-03 -1.034071e-01
-2.003677e-01 -2.880010e-01 -3.637764e-01 -4.269917e-01
-4.782263e-01 -5.188624e-01 -5.488708e-01 -5.560658e-01
-4.385376e-01
[row +133]
+7.007652e-01 +5.023853e-01 +4.694616e-01 +4.390673e-01
+4.034902e-01 +3.602041e-01 +3.082693e-01 +2.463094e-01
+1.729491e-01 +8.837835e-02 -2.390509e-03 -9.276207e-02
-1.776172e-01 -2.533714e-01 -3.182247e-01 -3.720709e-01
-4.157316e-01 -4.504125e-01 -4.758152e-01 -4.807029e-01
-3.701227e-01
[row +134]
+6.259523e-01 +4.194121e-01 +3.937251e-01 +3.675261e-01
+3.385446e-01 +3.032048e-01 +2.607779e-01 +2.095430e-01
+1.478011e-01 +7.526962e-02 -3.508753e-03 -8.176056e-02
-1.542658e-01 -2.178616e-01 -2.714601e-01 -3.155495e-01
-3.512171e-01 -3.795668e-01 -4.002039e-01 -4.029049e-01
-3.005740e-01
[row +135]
+5.407748e-01 +3.351900e-01 +3.165853e-01 +2.950357e-01
+2.728948e-01 +2.457341e-01 +2.129829e-01 +1.725691e-01
+1.224681e-01 +6.199876e-02 -4.654060e-03 -7.058633e-02
-1.305336e-01 -1.817627e-01 -2.238877e-01 -2.579752e-01
-2.853754e-01 -3.071375e-01 -3.228841e-01 -3.234987e-01
-2.305368e-01
[row +136]
+4.461547e-01 +2.508653e-01 +2.387448e-01 +2.222736e-01
+2.070566e-01 +1.881715e-01 +1.651157e-01 +1.354885e-01
+9.695117e-02 +4.849701e-02 -5.942397e-03 -5.938400e-02
-1.066022e-01 -1.453270e-01 -1.758698e-01 -1.998475e-01
-2.188488e-01 -2.338898e-01 -2.446811e-01 -2.433046e-01
-1.606260e-01
[row +137]
+3.435521e-01 +1.674286e-01 +1.608952e-01 +1.498719e-01
+1.415142e-01 +1.308710e-01 +1.173937e-01 +9.839997e-02
+7.126025e-02 +3.471698e-02 -7.458032e-03 -4.826336e-02
-8.261836e-02 -1.087707e-01 -1.277281e-01 -1.416179e-01
-1.522253e-01 -1.605332e-01 -1.663790e-01 -1.631159e-01
-9.141733e-02
[row +138]
+2.348987e-01 +8.568362e-02 +8.370980e-02 +7.840529e-02
+7.671426e-02 +7.415717e-02 +7.001789e-02 +6.139863e-02
+4.541290e-02 +2.063008e-02 -9.257609e-03 -3.730378e-02
-5.869835e-02 -7.227760e-02 -7.974576e-02 -8.368998e-02
-8.603583e-02 -8.771459e-02 -8.870532e-02 -8.368114e-02
-2.343960e-02
[row +139]
+1.224784e-01 +6.239892e-03 +7.832889e-03 +8.382873e-03
+1.306161e-02 +1.832140e-02 +2.317136e-02 +2.457481e-02
+1.943320e-02 +6.224099e-03 -1.137394e-02 -2.655842e-02
-3.493158e-02 -3.600172e-02 -3.216924e-02 -2.642006e-02
-2.075262e-02 -1.601360e-02 -1.231996e-02 -5.687685e-03
+4.283236e-02
[row +140]
+8.765292e-03 -7.047228e-02 -6.613418e-02 -5.975606e-02
-4.908452e-02 -3.637952e-02 -2.298209e-02 -1.198706e-02
-6.649483e-03 -8.498938e-03 -1.381947e-02 -1.605804e-02
-1.138431e-02 -7.084169e-05 +1.478909e-02 +2.988117e-02
+4.321099e-02 +5.406036e-02 +6.219285e-02 +7.024985e-02
+1.069833e-01
[row +141]
-1.037605e-01 -1.441697e-01 -1.376482e-01 -1.256421e-01
-1.094128e-01 -8.972431e-02 -6.829851e-02 -4.820915e-02
-3.280156e-02 -2.352481e-02 -1.658937e-02 -5.814561e-03
+1.189703e-02 +3.541085e-02 +6.094874e-02 +8.494720e-02
+1.054999e-01 +1.220693e-01 +1.343289e-01 +1.435984e-01
+1.686617e-01
[row +142]
-2.127934e-01 -2.146755e-01 -2.062388e-01 -1.889729e-01
-1.676609e-01 -1.415269e-01 -1.126540e-01 -8.402069e-02
-5.898618e-02 -3.882886e-02 -1.966430e-02 +4.175874e-03
+3.488290e-02 +7.036011e-02 +1.061588e-01 +1.385535e-01
+1.658159e-01 +1.876461e-01 +2.036658e-01 +2.139111e-01
+2.275811e-01
[row +143]
-3.163541e-01 -2.818778e-01 -2.715201e-01 -2.495094e-01
-2.236161e-01 -1.916353e-01 -1.559446e-01 -1.193582e-01
-8.516407e-02 -5.437756e-02 -2.301286e-02 +1.393011e-02
+5.755792e-02 +1.047122e-01 +1.502954e-01 +1.905152e-01
+2.239146e-01 +2.504924e-01 +2.698618e-01 +2.808286e-01
+2.835203e-01
[row +144]
-4.128927e-01 -3.456962e-01 -3.331974e-01 -3.070697e-01
-2.771138e-01 -2.399303e-01 -1.980854e-01 -1.541655e-01
-1.112942e-01 -7.012992e-02 -2.659366e-02 +2.347556e-02
+7.991858e-02 +1.384184e-01 +1.932597e-01 +2.406843e-01
+2.796029e-01 +3.103749e-01 +3.326525e-01 +3.440774e-01
+3.363208e-01
[row +145]
-5.013353e-01 -4.060592e-01 -3.910680e-01 -3.615245e-01
-3.280353e-01 -2.863230e-01 -2.390101e-01 -1.883936e-01
-1.373344e-01 -8.603874e-02 -3.035730e-02 +3.284813e-02
+1.019711e-01 +1.714445e-01 +2.349754e-01 +2.889469e-01
+3.327352e-01 +3.671218e-01 +3.918467e-01 +4.034644e-01
+3.858826e-01
[row +146]
-5.810772e-01 -4.628942e-01 -4.450165e-01 -4.127917e-01
-3.763050e-01 -3.307532e-01 -2.786696e-01 -2.220004e-01
-1.632418e-01 -1.020517e-01 -3.424794e-02 +4.209031e-02
+1.237297e-01 +2.037684e-01 +2.753864e-01 +3.352202e-01
+3.832090e-01 +4.206164e-01 +4.473193e-01 +4.588713e-01
+4.321585e-01
[row +147]
-6.519334e-01 -5.161270e-01 -4.950059e-01 -4.608318e-01
-4.218859e-01 -3.731865e-01 -3.170307e-01 -2.549507e-01
-1.889734e-01 -1.181124e-01 -3.820475e-02 +5.124964e-02
+1.452147e-01 +2.353787e-01 +3.144548e-01 +3.794496e-01
+4.309608e-01 +4.707926e-01 +4.990051e-01 +5.102455e-01
+4.751476e-01
[row +148]
-7.140645e-01 -5.656882e-01 -5.410665e-01 -5.056436e-01
-4.647758e-01 -4.136118e-01 -3.540747e-01 -2.872152e-01
-2.144859e-01 -1.341612e-01 -4.216326e-02 +6.037728e-02
+1.664516e-01 +2.662728e-01 +3.521590e-01 +4.216051e-01
+4.759621e-01 +5.176281e-01 +5.468909e-01 +5.575921e-01
+5.148881e-01
[row +149]
-7.678907e-01 -6.115217e-01 -5.832825e-01 -5.472597e-01
-5.050022e-01 -4.520391e-01 -3.897961e-01 -3.187705e-01
-2.397366e-01 -1.501359e-01 -4.605638e-02 +6.952681e-02
+1.874694e-01 +2.964560e-01 +3.884912e-01 +4.616790e-01
+5.182143e-01 +5.611388e-01 +5.910085e-01 +6.009644e-01
+5.514508e-01
[row +150]
-8.140081e-01 -6.535941e-01 -6.217806e-01 -5.857426e-01
-5.426184e-01 -4.884967e-01 -4.242005e-01 -3.495986e-01
-2.646832e-01 -1.659726e-01 -4.981543e-02 +7.875322e-02
+2.083000e-01 +3.259400e-01 +4.234560e-01 +4.996826e-01
+5.577450e-01 +6.013731e-01 +6.314266e-01 +6.404554e-01
+5.849318e-01
[row +151]
-8.531149e-01 -6.919007e-01 -6.567185e-01 -6.211802e-01
-5.776987e-01 -5.230286e-01 -4.573040e-01 -3.796863e-01
-2.892840e-01 -1.816063e-01 -5.337099e-02 +8.811201e-02
+2.289766e-01 +3.547415e-01 +4.570684e-01 +5.356436e-01
+5.946038e-01 +6.384061e-01 +6.682449e-01 +6.761895e-01
+6.154470e-01
[row +152]
-8.859508e-01 -7.264700e-01 -6.882755e-01 -6.536818e-01
-6.103348e-01 -5.556923e-01 -4.891311e-01 -4.090244e-01
-3.134982e-01 -1.969715e-01 -5.665368e-02 +9.765838e-02
+2.495336e-01 +3.828815e-01 +4.893523e-01 +5.696031e-01
+6.288581e-01 +6.723345e-01 +7.015870e-01 +7.083147e-01
+6.431265e-01
[row +153]
-9.132514e-01 -7.573648e-01 -7.166449e-01 -6.833738e-01
-6.406320e-01 -5.865560e-01 -5.197134e-01 -4.376078e-01
-3.372856e-01 -2.120025e-01 -5.959477e-02 +1.074466e-01
+2.700056e-01 +4.103843e-01 +5.203387e-01 +6.016139e-01
+6.605905e-01 +7.032723e-01 +7.315951e-01 +7.369969e-01
+6.681100e-01
[row +154]
-9.357158e-01 -7.846806e-01 -7.420272e-01 -7.103962e-01
-6.687061e-01 -6.156969e-01 -5.490886e-01 -4.654346e-01
-3.606074e-01 -2.266341e-01 -6.212680e-02 +1.175296e-01
+2.904267e-01 +4.372766e-01 +5.500649e-01 +6.317377e-01
+6.898948e-01 +7.313461e-01 +7.584248e-01 +7.624135e-01
+6.905428e-01
[row +155]
-9.539858e-01 -8.085435e-01 -7.646260e-01 -7.348987e-01
-6.946801e-01 -6.431991e-01 -5.772992e-01 -4.925057e-01
-3.834254e-01 -2.408020e-01 -6.418409e-02 +1.279581e-01
+3.108303e-01 +4.635867e-01 +5.785724e-01 +6.600435e-01
+7.168734e-01 +7.566922e-01 +7.822412e-01 +7.847490e-01
+7.105732e-01
[row +156]
-9.686341e-01 -8.291062e-01 -7.846441e-01 -7.570376e-01
-7.186825e-01 -6.691515e-01 -6.043913e-01 -5.188242e-01
-4.057027e-01 -2.544430e-01 -6.570312e-02 +1.387807e-01
+3.312484e-01 +4.893441e-01 +6.059066e-01 +6.866056e-01
+7.416351e-01 +7.794529e-01 +8.032148e-01 +8.041913e-01
+7.283495e-01
[row +157]
-9.801588e-01 -8.465449e-01 -8.022808e-01 -7.769727e-01
-7.408445e-01 -6.936466e-01 -6.304137e-01 -5.443955e-01
-4.274038e-01 -2.674954e-01 -6.662299e-02 +1.500433e-01
+3.517115e-01 +5.145788e-01 +6.321153e-01 +7.115021e-01
+7.642929e-01 +7.997740e-01 +8.215188e-01 +8.209285e-01
+7.440185e-01
[row +158]
-9.889842e-01 -8.610527e-01 -8.177295e-01 -7.948656e-01
-7.612982e-01 -7.167785e-01 -6.554168e-01 -5.692261e-01
-4.484935e-01 -2.798992e-01 -6.688573e-02 +1.617887e-01
+3.722480e-01 +5.393204e-01 +6.572479e-01 +7.348135e-01
+7.849617e-01 +8.178027e-01 +8.373266e-01 +8.351465e-01
+7.577236e-01
[row +159]
-9.954639e-01 -8.728361e-01 -8.311767e-01 -8.108773e-01
-7.801750e-01 -7.386417e-01 -6.794516e-01 -5.933248e-01
-4.689042e-01 -2.915750e-01 -6.644362e-02 +1.740588e-01
+3.928831e-01 +5.635986e-01 +6.813542e-01 +7.566211e-01
+8.037570e-01 +8.336855e-01 +8.508092e-01 +8.470273e-01
+7.696040e-01
[row +160]
-9.998649e-01 -8.821079e-01 -8.428001e-01 -8.251672e-01
-7.976050e-01 -7.593285e-01 -7.025733e-01 -6.166809e-01
-4.884576e-01 -3.024000e-01 -6.525707e-02 +1.868938e-01
+4.136391e-01 +5.874419e-01 +7.044840e-01 +7.770066e-01
+8.207933e-01 +8.475672e-01 +8.621354e-01 +8.567476e-01
+7.797939e-01
