# mesh_time
0 0.05 0.1 0.15 0.2 0.25 0.3 0.35
0.4 0.45 0.5 0.55 0.6 0.65 0.7 0.75
0.8 0.85 0.9 0.95 1
# mesh_space
0 0.025 0.05 0.075 0.1 0.125 0.15 0.175
0.2 0.225 0.25 0.275 0.3 0.325 0.35 0.375
0.4 0.425 0.45 0.475 0.5 0.525 0.55 0.575
0.6 0.625 0.65 0.675 0.7 0.725 0.75 0.775
0.8 0.825 0.85 0.875 0.9 0.925 0.95 0.975
1 0.0125 0.0375 0.0625 0.0875 0.1125 0.1375 0.1625
0.1875 0.2125 0.2375 0.2625 0.2875 0.3125 0.3375 0.3625
0.3875 0.4125 0.4375 0.4625 0.4875 0.5125 0.5375 0.5625
0.5875 0.6125 0.6375 0.6625 0.6875 0.7125 0.7375 0.7625
0.7875 0.8125 0.8375 0.8625 0.8875 0.9125 0.9375 0.9625
0.9875 0.00625 0.03125 0.05625 0.08125 0.10625 0.13125 0.15625
0.18125 0.20625 0.23125 0.25625 0.28125 0.30625 0.33125 0.35625
0.38125 0.40625 0.43125 0.45625 0.48125 0.50625 0.53125 0.55625
0.58125 0.60625 0.63125 0.65625 0.68125 0.70625 0.73125 0.75625
0.78125 0.80625 0.83125 0.85625 0.88125 0.90625 0.93125 0.95625
0.98125 0.01875 0.04375 0.06875 0.09375 0.11875 0.14375 0.16875
0.19375 0.21875 0.24375 0.26875 0.29375 0.31875 0.34375 0.36875
0.39375 0.41875 0.44375 0.46875 0.49375 0.51875 0.54375 0.56875
0.59375 0.61875 0.64375 0.66875 0.69375 0.71875 0.74375 0.76875
0.79375 0.81875 0.84375 0.86875 0.89375 0.91875 0.94375 0.96875
0.99375
# data y_d
[row +0]
+1.000000e+00 +1.000000e+00 +1.000000e+00 +9.999999e-01
+9.999994e-01 +9.999925e-01 +9.999092e-01 +9.988944e-01
+9.866143e-01 +8.482836e-01 -0.000000e+00 -8.482836e-01
-9.866143e-01 -9.988944e-01 -9.999092e-01 -9.999925e-01
-9.999994e-01 -9.999999e-01 -1.000000e+00 -1.000000e+00
-1.000000e+00
[row +1]
+1.000000e+00 +1.000000e+00 +1.000000e+00 +9.999999e-01
+9.999987e-01 +9.999861e-01 +9.998503e-01 +9.983918e-01
+9.828450e-01 +8.298019e-01 -0.000000e+00 -8.298019e-01
-9.828450e-01 -9.983918e-01 -9.998503e-01 -9.999861e-01
-9.999987e-01 -9.999999e-01 -1.000000e+00 -1.000000e+00
-1.000000e+00
[row +2]
+1.000000e+00 +1.000000e+00 +1.000000e+00 +9.999997e-01
+9.999973e-01 +9.999740e-01 +9.997532e-01 +9.976610e-01
+9.780261e-01 +8.093011e-01 -0.000000e+00 -8.093011e-01
-9.780261e-01 -9.976610e-01 -9.997532e-01 -9.999740e-01
-9.999973e-01 -9.999997e-01 -1.000000e+00 -1.000000e+00
-1.000000e+00
[row +3]
+1.000000e+00 +1.000000e+00 +9.999999e-01 +9.999993e-01
+9.999942e-01 +9.999514e-01 +9.995931e-01 +9.965986e-01
+9.718727e-01 +7.866188e-01 -0.000000e+00 -7.866188e-01
-9.718727e-01 -9.965986e-01 -9.995931e-01 -9.999514e-01
-9.999942e-01 -9.999993e-01 -9.999999e-01 -1.000000e+00
-1.000000e+00
[row +4]
+1.000000e+00 +1.000000e+00 +9.999998e-01 +9.999983e-01
+9.999877e-01 +9.999092e-01 +9.993293e-01 +9.950548e-01
+9.640276e-01 +7.615942e-01 -0.000000e+00 -7.615942e-01
-9.640276e-01 -9.950548e-01 -9.993293e-01 -9.999092e-01
-9.999877e-01 -9.999983e-01 -9.999998e-01 -1.000000e+00
-1.000000e+00
[row +5]
+1.000000e+00 +9.999999e-01 +9.999994e-01 +9.999960e-01
+9.999740e-01 +9.998304e-01 +9.988944e-01 +9.928128e-01
+9.540453e-01 +7.340715e-01 -0.000000e+00 -7.340715e-01
-9.540453e-01 -9.928128e-01 -9.988944e-01 -9.998304e-01
-9.999740e-01 -9.999960e-01 -9.999994e-01 -9.999999e-01
-1.000000e+00
[row +6]
+9.999999e-01 +9.999997e-01 +9.999983e-01 +9.999904e-01
+9.999449e-01 +9.996831e-01 +9.981779e-01 +9.895597e-01
+9.413755e-01 +7.039056e-01 -0.000000e+00 -7.039056e-01
-9.413755e-01 -9.895597e-01 -9.981779e-01 -9.996831e-01
-9.999449e-01 -9.999904e-01 -9.999983e-01 -9.999997e-01
-9.999999e-01
[row +7]
+9.999998e-01 +9.999991e-01 +9.999955e-01 +9.999770e-01
+9.998834e-01 +9.994081e-01 +9.969976e-01 +9.848455e-01
+9.253462e-01 +6.709671e-01 -0.000000e+00 -6.709671e-01
-9.253462e-01 -9.848455e-01 -9.969976e-01 -9.994081e-01
-9.998834e-01 -9.999770e-01 -9.999955e-01 -9.999991e-01
-9.999998e-01
[row +8]
+9.999994e-01 +9.999973e-01 +9.999877e-01 +9.999449e-01
+9.997532e-01 +9.988944e-01 +9.950548e-01 +9.780261e-01
+9.051483e-01 +6.351490e-01 -0.000000e+00 -6.351490e-01
-9.051483e-01 -9.780261e-01 -9.950548e-01 -9.988944e-01
-9.997532e-01 -9.999449e-01 -9.999877e-01 -9.999973e-01
-9.999994e-01
[row +9]
+9.999979e-01 +9.999916e-01 +9.999666e-01 +9.998679e-01
+9.994776e-01 +9.979355e-01 +9.918597e-01 +9.681872e-01
+8.798267e-01 +5.963736e-01 -0.000000e+00 -5.963736e-01
-8.798267e-01 -9.681872e-01 -9.918597e-01 -9.979355e-01
-9.994776e-01 -9.998679e-01 -9.999666e-01 -9.999916e-01
-9.999979e-01
[row +10]
+9.999925e-01 +9.999740e-01 +9.999092e-01 +9.996831e-01
+9.988944e-01 +9.961465e-01 +9.866143e-01 +9.540453e-01
+8.482836e-01 +5.545997e-01 -0.000000e+00 -5.545997e-01
-8.482836e-01 -9.540453e-01 -9.866143e-01 -9.961465e-01
-9.988944e-01 -9.996831e-01 -9.999092e-01 -9.999740e-01
-9.999925e-01
[row +11]
+9.999740e-01 +9.999199e-01 +9.997532e-01 +9.992400e-01
+9.976610e-01 +9.928128e-01 +9.780261e-01 +9.338280e-01
+8.093011e-01 +5.098300e-01 -0.000000e+00 -5.098300e-01
-8.093011e-01 -9.338280e-01 -9.780261e-01 -9.928128e-01
-9.976610e-01 -9.992400e-01 -9.997532e-01 -9.999199e-01
-9.999740e-01
[row +12]
+9.999092e-01 +9.997532e-01 +9.993293e-01 +9.981779e-01
+9.950548e-01 +9.866143e-01 +9.640276e-01 +9.051483e-01
+7.615942e-01 +4.621172e-01 -0.000000e+00 -4.621172e-01
-7.615942e-01 -9.051483e-01 -9.640276e-01 -9.866143e-01
-9.950548e-01 -9.981779e-01 -9.993293e-01 -9.997532e-01
-9.999092e-01
[row +13]
+9.996831e-01 +9.992400e-01 +9.981779e-01 +9.956346e-01
+9.895597e-01 +9.751367e-01 +9.413755e-01 +8.649066e-01
+7.039056e-01 +4.115701e-01 -0.000000e+00 -4.115701e-01
-7.039056e-01 -8.649066e-01 -9.413755e-01 -9.751367e-01
-9.895597e-01 -9.956346e-01 -9.981779e-01 -9.992400e-01
-9.996831e-01
[row +14]
+9.988944e-01 +9.976610e-01 +9.950548e-01 +9.895597e-01
+9.780261e-01 +9.540453e-01 +9.051483e-01 +8.093011e-01
+6.351490e-01 +3.583574e-01 -0.000000e+00 -3.583574e-01
-6.351490e-01 -8.093011e-01 -9.051483e-01 -9.540453e-01
-9.780261e-01 -9.895597e-01 -9.950548e-01 -9.976610e-01
-9.988944e-01
[row +15]
+9.961465e-01 +9.928128e-01 +9.866143e-01 +9.751367e-01
+9.540453e-01 +9.158245e-01 +8.482836e-01 +7.340715e-01
+5.545997e-01 +3.027097e-01 -0.000000e+00 -3.027097e-01
-5.545997e-01 -7.340715e-01 -8.482836e-01 -9.158245e-01
-9.540453e-01 -9.751367e-01 -9.866143e-01 -9.928128e-01
-9.961465e-01
[row +16]
+9.866143e-01 +9.780261e-01 +9.640276e-01 +9.413755e-01
+9.051483e-01 +8.482836e-01 +7.615942e-01 +6.351490e-01
+4.621172e-01 +2.449187e-01 -0.000000e+00 -2.449187e-01
-4.621172e-01 -6.351490e-01 -7.615942e-01 -8.482836e-01
-9.051483e-01 -9.413755e-01 -9.640276e-01 -9.780261e-01
-9.866143e-01
[row +17]
+9.540453e-01 +9.338280e-01 +9.051483e-01 +8.649066e-01
+8.093011e-01 +7.340715e-01 +6.351490e-01 +5.098300e-01
+3.583574e-01 +1.853332e-01 -0.000000e+00 -1.853332e-01
-3.583574e-01 -5.098300e-01 -6.351490e-01 -7.340715e-01
-8.093011e-01 -8.649066e-01 -9.051483e-01 -9.338280e-01
-9.540453e-01
[row +18]
+8.482836e-01 +8.093011e-01 +7.615942e-01 +7.039056e-01
+6.351490e-01 +5.545997e-01 +4.621172e-01 +3.583574e-01
+2.449187e-01 +1.243530e-01 -0.000000e+00 -1.243530e-01
-2.449187e-01 -3.583574e-01 -4.621172e-01 -5.545997e-01
-6.351490e-01 -7.039056e-01 -7.615942e-01 -8.093011e-01
-8.482836e-01
[row +19]
+5.545997e-01 +5.098300e-01 +4.621172e-01 +4.115701e-01
+3.583574e-01 +3.027097e-01 +2.449187e-01 +1.853332e-01
+1.243530e-01 +6.241875e-02 -0.000000e+00 -6.241875e-02
-1.243530e-01 -1.853332e-01 -2.449187e-01 -3.027097e-01
-3.583574e-01 -4.115701e-01 -4.621172e-01 -5.098300e-01
-5.545997e-01
[row +20]
-0.000000e+00 -0.000000e+00 -0.000000e+00 -0.000000e+00
-0.000000e+00 -0.000000e+00 -0.000000e+00 -0.000000e+00
-0.000000e+00 -0.000000e+00 +0.000000e+00 +0.000000e+00
+0.000000e+00 +0.000000e+00 +0.000000e+00 +0.000000e+00
+0.000000e+00 +0.000000e+00 +0.000000e+00 +0.000000e+00
+0.000000e+00
[row +21]
-5.545997e-01 -5.098300e-01 -4.621172e-01 -4.115701e-01
-3.583574e-01 -3.027097e-01 -2.449187e-01 -1.853332e-01
-1.243530e-01 -6.241875e-02 +0.000000e+00 +6.241875e-02
+1.243530e-01 +1.853332e-01 +2.449187e-01 +3.027097e-01
+3.583574e-01 +4.115701e-01 +4.621172e-01 +5.098300e-01
+5.545997e-01
[row +22]
-8.482836e-01 -8.093011e-01 -7.615942e-01 -7.039056e-01
-6.351490e-01 -5.545997e-01 -4.621172e-01 -3.583574e-01
-2.449187e-01 -1.243530e-01 +0.000000e+00 +1.243530e-01
+2.449187e-01 +3.583574e-01 +4.621172e-01 +5.545997e-01
+6.351490e-01 +7.039056e-01 +7.615942e-01 +8.093011e-01
+8.482836e-01
[row +23]
-9.540453e-01 -9.338280e-01 -9.051483e-01 -8.649066e-01
-8.093011e-01 -7.340715e-01 -6.351490e-01 -5.098300e-01
-3.583574e-01 -1.853332e-01 +0.000000e+00 +1.853332e-01
+3.583574e-01 +5.098300e-01 +6.351490e-01 +7.340715e-01
+8.093011e-01 +8.649066e-01 +9.051483e-01 +9.338280e-01
+9.540453e-01
[row +24]
-9.866143e-01 -9.780261e-01 -9.640276e-01 -9.413755e-01
-9.051483e-01 -8.482836e-01 -7.615942e-01 -6.351490e-01
-4.621172e-01 -2.449187e-01 +0.000000e+00 +2.449187e-01
+4.621172e-01 +6.351490e-01 +7.615942e-01 +8.482836e-01
+9.051483e-01 +9.413755e-01 +9.640276e-01 +9.780261e-01
+9.866143e-01
[row +25]
-9.961465e-01 -9.928128e-01 -9.866143e-01 -9.751367e-01
-9.540453e-01 -9.158245e-01 -8.482836e-01 -7.340715e-01
-5.545997e-01 -3.027097e-01 +0.000000e+00 +3.027097e-01
+5.545997e-01 +7.340715e-01 +8.482836e-01 +9.158245e-01
+9.540453e-01 +9.751367e-01 +9.866143e-01 +9.928128e-01
+9.961465e-01
[row +26]
-9.988944e-01 -9.976610e-01 -9.950548e-01 -9.895597e-01
-9.780261e-01 -9.540453e-01 -9.051483e-01 -8.093011e-01
-6.351490e-01 -3.583574e-01 +0.000000e+00 +3.583574e-01
+6.351490e-01 +8.093011e-01 +9.051483e-01 +9.540453e-01
+9.780261e-01 +9.895597e-01 +9.950548e-01 +9.976610e-01
+9.988944e-01
[row +27]
-9.996831e-01 -9.992400e-01 -9.981779e-01 -9.956346e-01
-9.895597e-01 -9.751367e-01 -9.413755e-01 -8.649066e-01
-7.039056e-01 -4.115701e-01 +0.000000e+00 +4.115701e-01
+7.039056e-01 +8.649066e-01 +9.413755e-01 +9.751367e-01
+9.895597e-01 +9.956346e-01 +9.981779e-01 +9.992400e-01
+9.996831e-01
[row +28]
-9.999092e-01 -9.997532e-01 -9.993293e-01 -9.981779e-01
-9.950548e-01 -9.866143e-01 -9.640276e-01 -9.051483e-01
-7.615942e-01 -4.621172e-01 +0.000000e+00 +4.621172e-01
+7.615942e-01 +9.051483e-01 +9.640276e-01 +9.866143e-01
+9.950548e-01 +9.981779e-01 +9.993293e-01 +9.997532e-01
+9.999092e-01
[row +29]
-9.999740e-01 -9.999199e-01 -9.997532e-01 -9.992400e-01
-9.976610e-01 -9.928128e-01 -9.780261e-01 -9.338280e-01
-8.093011e-01 -5.098300e-01 +0.000000e+00 +5.098300e-01
+8.093011e-01 +9.338280e-01 +9.780261e-01 +9.928128e-01
+9.976610e-01 +9.992400e-01 +9.997532e-01 +9.999199e-01
+9.999740e-01
[row +30]
-9.999925e-01 -9.999740e-01 -9.999092e-01 -9.996831e-01
-9.988944e-01 -9.961465e-01 -9.866143e-01 -9.540453e-01
-8.482836e-01 -5.545997e-01 +0.000000e+00 +5.545997e-01
+8.482836e-01 +9.540453e-01 +9.866143e-01 +9.961465e-01
+9.988944e-01 +9.996831e-01 +9.999092e-01 +9.999740e-01
+9.999925e-01
[row +31]
-9.999979e-01 -9.999916e-01 -9.999666e-01 -9.998679e-01
-9.994776e-01 -9.979355e-01 -9.918597e-01 -9.681872e-01
-8.798267e-01 -5.963736e-01 +0.000000e+00 +5.963736e-01
+8.798267e-01 +9.681872e-01 +9.918597e-01 +9.979355e-01
+9.994776e-01 +9.998679e-01 +9.999666e-01 +9.999916e-01
+9.999979e-01
[row +32]
-9.999994e-01 -9.999973e-01 -9.999877e-01 -9.999449e-01
-9.997532e-01 -9.988944e-01 -9.950548e-01 -9.780261e-01
-9.051483e-01 -6.351490e-01 +0.000000e+00 +6.351490e-01
+9.051483e-01 +9.780261e-01 +9.950548e-01 +9.988944e-01
+9.997532e-01 +9.999449e-01 +9.999877e-01 +9.999973e-01
+9.999994e-01
[row +33]
-9.999998e-01 -9.999991e-01 -9.999955e-01 -9.999770e-01
-9.998834e-01 -9.994081e-01 -9.969976e-01 -9.848455e-01
-9.253462e-01 -6.709671e-01 +0.000000e+00 +6.709671e-01
+9.253462e-01 +9.848455e-01 +9.969976e-01 +9.994081e-01
+9.998834e-01 +9.999770e-01 +9.999955e-01 +9.999991e-01
+9.999998e-01
[row +34]
-9.999999e-01 -9.999997e-01 -9.999983e-01 -9.999904e-01
-9.999449e-01 -9.996831e-01 -9.981779e-01 -9.895597e-01
-9.413755e-01 -7.039056e-01 +0.000000e+00 +7.039056e-01
+9.413755e-01 +9.895597e-01 +9.981779e-01 +9.996831e-01
+9.999449e-01 +9.999904e-01 +9.999983e-01 +9.999997e-01
+9.999999e-01
[row +35]
-1.000000e+00 -9.999999e-01 -9.999994e-01 -9.999960e-01
-9.999740e-01 -9.998304e-01 -9.988944e-01 -9.928128e-01
-9.540453e-01 -7.340715e-01 +0.000000e+00 +7.340715e-01
+9.540453e-01 +9.928128e-01 +9.988944e-01 +9.998304e-01
+9.999740e-01 +9.999960e-01 +9.999994e-01 +9.999999e-01
+1.000000e+00
[row +36]
-1.000000e+00 -1.000000e+00 -9.999998e-01 -9.999983e-01
-9.999877e-01 -9.999092e-01 -9.993293e-01 -9.950548e-01
-9.640276e-01 -7.615942e-01 +0.000000e+00 +7.615942e-01
+9.640276e-01 +9.950548e-01 +9.993293e-01 +9.999092e-01
+9.999877e-01 +9.999983e-01 +9.999998e-01 +1.000000e+00
+1.000000e+00
[row +37]
-1.000000e+00 -1.000000e+00 -9.999999e-01 -9.999993e-01
-9.999942e-01 -9.999514e-01 -9.995931e-01 -9.965986e-01
-9.718727e-01 -7.866188e-01 +0.000000e+00 +7.866188e-01
+9.718727e-01 +9.965986e-01 +9.995931e-01 +9.999514e-01
+9.999942e-01 +9.999993e-01 +9.999999e-01 +1.000000e+00
+1.000000e+00
[row +38]
-1.000000e+00 -1.000000e+00 -1.000000e+00 -9.999997e-01
-9.999973e-01 -9.999740e-01 -9.997532e-01 -9.976610e-01
-9.780261e-01 -8.093011e-01 +0.000000e+00 +8.093011e-01
+9.780261e-01 +9.976610e-01 +9.997532e-01 +9.999740e-01
+9.999973e-01 +9.999997e-01 +1.000000e+00 +1.000000e+00
+1.000000e+00
[row +39]
-1.000000e+00 -1.000000e+00 -1.000000e+00 -9.999999e-01
-9.999987e-01 -9.999861e-01 -9.998503e-01 -9.983918e-01
-9.828450e-01 -8.298019e-01 +0.000000e+00 +8.298019e-01
+9.828450e-01 +9.983918e-01 +9.998503e-01 +9.999861e-01
+9.999987e-01 +9.999999e-01 +1.000000e+00 +1.000000e+00
+1.000000e+00
[row +40]
-1.000000e+00 -1.000000e+00 -1.000000e+00 -9.999999e-01
-9.999994e-01 -9.999925e-01 -9.999092e-01 -9.988944e-01
-9.866143e-01 -8.482836e-01 +0.000000e+00 +8.482836e-01
+9.866143e-01 +9.988944e-01 +9.999092e-01 +9.999925e-01
+9.999994e-01 +9.999999e-01 +1.000000e+00 +1.000000e+00
+1.000000e+00
[row +41]
+1.000000e+00 +1.000000e+00 +1.000000e+00 +9.999999e-01
+9.999991e-01 +9.999898e-01 +9.998834e-01 +9.986666e-01
+9.848455e-01 +8.392851e-01 -0.000000e+00 -8.392851e-01
-9.848455e-01 -9.986666e-01 -9.998834e-01 -9.999898e-01
-9.999991e-01 -9.999999e-01 -1.000000e+00 -1.000000e+00
-1.000000e+00
[row +42]
+1.000000e+00 +1.000000e+00 +1.000000e+00 +9.999998e-01
+9.999981e-01 +9.999810e-01 +9.998078e-01 +9.980605e-01
+9.805830e-01 +8.198140e-01 -0.000000e+00 -8.198140e-01
-9.805830e-01 -9.980605e-01 -9.998078e-01 -9.999810e-01
-9.999981e-01 -9.999998e-01 -1.000000e+00 -1.000000e+00
-1.000000e+00
[row +43]
+1.000000e+00 +1.000000e+00 +9.999999e-01 +9.999996e-01
+9.999960e-01 +9.999644e-01 +9.996831e-01 +9.971793e-01
+9.751367e-01 +7.982428e-01 -0.000000e+00 -7.982428e-01
-9.751367e-01 -9.971793e-01 -9.996831e-01 -9.999644e-01
-9.999960e-01 -9.999996e-01 -9.999999e-01 -1.000000e+00
-1.000000e+00
[row +44]
+1.000000e+00 +1.000000e+00 +9.999999e-01 +9.999989e-01
+9.999916e-01 +9.999336e-01 +9.994776e-01 +9.958985e-01
+9.681872e-01 +7.744092e-01 -0.000000e+00 -7.744092e-01
-9.681872e-01 -9.958985e-01 -9.994776e-01 -9.999336e-01
-9.999916e-01 -9.999989e-01 -9.999999e-01 -1.000000e+00
-1.000000e+00
[row +45]
+1.000000e+00 +9.999999e-01 +9.999996e-01 +9.999974e-01
+9.999821e-01 +9.998759e-01 +9.991389e-01 +9.940379e-01
+9.593353e-01 +7.481545e-01 -0.000000e+00 -7.481545e-01
-9.593353e-01 -9.940379e-01 -9.991389e-01 -9.998759e-01
-9.999821e-01 -9.999974e-01 -9.999996e-01 -9.999999e-01
-1.000000e+00
[row +46]
+1.000000e+00 +9.999998e-01 +9.999990e-01 +9.999938e-01
+9.999621e-01 +9.997682e-01 +9.985807e-01 +9.913370e-01
+9.480853e-01 +7.193275e-01 -0.000000e+00 -7.193275e-01
-9.480853e-01 -9.913370e-01 -9.985807e-01 -9.997682e-01
-9.999621e-01 -9.999938e-01 -9.999990e-01 -9.999998e-01
-1.000000e+00
[row +47]
+9.999999e-01 +9.999995e-01 +9.999973e-01 +9.999852e-01
+9.999199e-01 +9.995669e-01 +9.976610e-01 +9.874202e-01
+9.338280e-01 +6.877902e-01 -0.000000e+00 -6.877902e-01
-9.338280e-01 -9.874202e-01 -9.976610e-01 -9.995669e-01
-9.999199e-01 -9.999852e-01 -9.999973e-01 -9.999995e-01
-9.999999e-01
[row +48]
+9.999997e-01 +9.999984e-01 +9.999925e-01 +9.999644e-01
+9.998304e-01 +9.991910e-01 +9.961465e-01 +9.817487e-01
+9.158245e-01 +6.534236e-01 -0.000000e+00 -6.534236e-01
-9.158245e-01 -9.817487e-01 -9.961465e-01 -9.991910e-01
-9.998304e-01 -9.999644e-01 -9.999925e-01 -9.999984e-01
-9.999997e-01
[row +49]
+9.999989e-01 +9.999952e-01 +9.999797e-01 +9.999147e-01
+9.996409e-01 +9.984892e-01 +9.936546e-01 +9.735544e-01
+8.931933e-01 +6.161344e-01 -0.000000e+00 -6.161344e-01
-8.931933e-01 -9.735544e-01 -9.936546e-01 -9.984892e-01
-9.996409e-01 -9.999147e-01 -9.999797e-01 -9.999952e-01
-9.999989e-01
[row +50]
+9.999960e-01 +9.999852e-01 +9.999449e-01 +9.997954e-01
+9.992400e-01 +9.971793e-01 +9.895597e-01 +9.617519e-01
+8.649066e-01 +5.758624e-01 -0.000000e+00 -5.758624e-01
-8.649066e-01 -9.617519e-01 -9.895597e-01 -9.971793e-01
-9.992400e-01 -9.997954e-01 -9.999449e-01 -9.999852e-01
-9.999960e-01
[row +51]
+9.999861e-01 +9.999543e-01 +9.998503e-01 +9.995093e-01
+9.983918e-01 +9.947367e-01 +9.828450e-01 +9.448294e-01
+8.298019e-01 +5.325873e-01 -0.000000e+00 -5.325873e-01
-8.298019e-01 -9.448294e-01 -9.828450e-01 -9.947367e-01
-9.983918e-01 -9.995093e-01 -9.998503e-01 -9.999543e-01
-9.999861e-01
[row +52]
+9.999514e-01 +9.998594e-01 +9.995931e-01 +9.988232e-01
+9.965986e-01 +9.901892e-01 +9.718727e-01 +9.207223e-01
+7.866188e-01 +4.863360e-01 -0.000000e+00 -4.863360e-01
-7.866188e-01 -9.207223e-01 -9.718727e-01 -9.901892e-01
-9.965986e-01 -9.988232e-01 -9.995931e-01 -9.998594e-01
-9.999514e-01
[row +53]
+9.998304e-01 +9.995669e-01 +9.988944e-01 +9.971793e-01
+9.928128e-01 +9.817487e-01 +9.540453e-01 +8.866951e-01
+7.340715e-01 +4.371888e-01 -0.000000e+00 -4.371888e-01
-7.340715e-01 -8.866951e-01 -9.540453e-01 -9.817487e-01
-9.928128e-01 -9.971793e-01 -9.988944e-01 -9.995669e-01
-9.998304e-01
[row +54]
+9.994081e-01 +9.986666e-01 +9.969976e-01 +9.932468e-01
+9.848455e-01 +9.661702e-01 +9.253462e-01 +8.392851e-01
+6.709671e-01 +3.852840e-01 -0.000000e+00 -3.852840e-01
-6.709671e-01 -8.392851e-01 -9.253462e-01 -9.661702e-01
-9.848455e-01 -9.932468e-01 -9.969976e-01 -9.986666e-01
-9.994081e-01
[row +55]
+9.979355e-01 +9.958985e-01 +9.918597e-01 +9.838760e-01
+9.681872e-01 +9.377123e-01 +8.798267e-01 +7.744092e-01
+5.963736e-01 +3.308211e-01 -0.000000e+00 -3.308211e-01
-5.963736e-01 -7.744092e-01 -8.798267e-01 -9.377123e-01
-9.681872e-01 -9.838760e-01 -9.918597e-01 -9.958985e-01
-9.979355e-01
[row +56]
+9.928128e-01 +9.874202e-01 +9.780261e-01 +9.617519e-01
+9.338280e-01 +8.866951e-01 +8.093011e-01 +6.877902e-01
+5.098300e-01 +2.740616e-01 -0.000000e+00 -2.740616e-01
-5.098300e-01 -6.877902e-01 -8.093011e-01 -8.866951e-01
-9.338280e-01 -9.617519e-01 -9.780261e-01 -9.874202e-01
-9.928128e-01
[row +57]
+9.751367e-01 +9.617519e-01 +9.413755e-01 +9.106383e-01
+8.649066e-01 +7.982428e-01 +7.039056e-01 +5.758624e-01
+4.115701e-01 +2.153263e-01 -0.000000e+00 -2.153263e-01
-4.115701e-01 -5.758624e-01 -7.039056e-01 -7.982428e-01
-8.649066e-01 -9.106383e-01 -9.413755e-01 -9.617519e-01
-9.751367e-01
[row +58]
+9.158245e-01 +8.866951e-01 +8.482836e-01 +7.982428e-01
+7.340715e-01 +6.534236e-01 +5.545997e-01 +4.371888e-01
+3.027097e-01 +1.549907e-01 -0.000000e+00 -1.549907e-01
-3.027097e-01 -4.371888e-01 -5.545997e-01 -6.534236e-01
-7.340715e-01 -7.982428e-01 -8.482836e-01 -8.866951e-01
-9.158245e-01
[row +59]
+7.340715e-01 +6.877902e-01 +6.351490e-01 +5.758624e-01
+5.098300e-01 +4.371888e-01 +3.583574e-01 +2.740616e-01
+1.853332e-01 +9.347630e-02 -0.000000e+00 -9.347630e-02
-1.853332e-01 -2.740616e-01 -3.583574e-01 -4.371888e-01
-5.098300e-01 -5.758624e-01 -6.351490e-01 -6.877902e-01
-7.340715e-01
[row +60]
+3.027097e-01 +2.740616e-01 +2.449187e-01 +2.153263e-01
+1.853332e-01 +1.549907e-01 +1.243530e-01 +9.347630e-02
+6.241875e-02 +3.123983e-02 -0.000000e+00 -3.123983e-02
-6.241875e-02 -9.347630e-02 -1.243530e-01 -1.549907e-01
-1.853332e-01 -2.153263e-01 -2.449187e-01 -2.740616e-01
-3.027097e-01
[row +61]
-3.027097e-01 -2.740616e-01 -2.449187e-01 -2.153263e-01
-1.853332e-01 -1.549907e-01 -1.243530e-01 -9.347630e-02
-6.241875e-02 -3.123983e-02 +0.000000e+00 +3.123983e-02
+6.241875e-02 +9.347630e-02 +1.243530e-01 +1.549907e-01
+1.853332e-01 +2.153263e-01 +2.449187e-01 +2.740616e-01
+3.027097e-01
[row +62]
-7.340715e-01 -6.877902e-01 -6.351490e-01 -5.758624e-01
-5.098300e-01 -4.371888e-01 -3.583574e-01 -2.740616e-01
-1.853332e-01 -9.347630e-02 +0.000000e+00 +9.347630e-02
+1.853332e-01 +2.740616e-01 +3.583574e-01 +4.371888e-01
+5.098300e-01 +5.758624e-01 +6.351490e-01 +6.877902e-01
+7.340715e-01
[row +63]
-9.158245e-01 -8.866951e-01 -8.482836e-01 -7.982428e-01
-7.340715e-01 -6.534236e-01 -5.545997e-01 -4.371888e-01
-3.027097e-01 -1.549907e-01 +0.000000e+00 +1.549907e-01
+3.027097e-01 +4.371888e-01 +5.545997e-01 +6.534236e-01
+7.340715e-01 +7.982428e-01 +8.482836e-01 +8.866951e-01
+9.158245e-01
[row +64]
-9.751367e-01 -9.617519e-01 -9.413755e-01 -9.106383e-01
-8.649066e-01 -7.982428e-01 -7.039056e-01 -5.758624e-01
-4.115701e-01 -2.153263e-01 +0.000000e+00 +2.153263e-01
+4.115701e-01 +5.758624e-01 +7.039056e-01 +7.982428e-01
+8.649066e-01 +9.106383e-01 +9.413755e-01 +9.617519e-01
+9.751367e-01
[row +65]
-9.928128e-01 -9.874202e-01 -9.780261e-01 -9.617519e-01
-9.338280e-01 -8.866951e-01 -8.093011e-01 -6.877902e-01
-5.098300e-01 -2.740616e-01 +0.000000e+00 +2.740616e-01
+5.098300e-01 +6.877902e-01 +8.093011e-01 +8.866951e-01
+9.338280e-01 +9.617519e-01 +9.780261e-01 +9.874202e-01
+9.928128e-01
[row +66]
-9.979355e-01 -9.958985e-01 -9.918597e-01 -9.838760e-01
-9.681872e-01 -9.377123e-01 -8.798267e-01 -7.744092e-01
-5.963736e-01 -3.308211e-01 +0.000000e+00 +3.308211e-01
+5.963736e-01 +7.744092e-01 +8.798267e-01 +9.377123e-01
+9.681872e-01 +9.838760e-01 +9.918597e-01 +9.958985e-01
+9.979355e-01
[row +67]
-9.994081e-01 -9.986666e-01 -9.969976e-01 -9.932468e-01
-9.848455e-01 -9.661702e-01 -9.253462e-01 -8.392851e-01
-6.709671e-01 -3.852840e-01 +0.000000e+00 +3.852840e-01
+6.709671e-01 +8.392851e-01 +9.253462e-01 +9.661702e-01
+9.848455e-01 +9.932468e-01 +9.969976e-01 +9.986666e-01
+9.994081e-01
[row +68]
-9.998304e-01 -9.995669e-01 -9.988944e-01 -9.971793e-01
-9.928128e-01 -9.817487e-01 -9.540453e-01 -8.866951e-01
-7.340715e-01 -4.371888e-01 +0.000000e+00 +4.371888e-01
+7.340715e-01 +8.866951e-01 +9.540453e-01 +9.817487e-01
+9.928128e-01 +9.971793e-01 +9.988944e-01 +9.995669e-01
+9.998304e-01
[row +69]
-9.999514e-01 -9.998594e-01 -9.995931e-01 -9.988232e-01
-9.965986e-01 -9.901892e-01 -9.718727e-01 -9.207223e-01
-7.866188e-01 -4.863360e-01 +0.000000e+00 +4.863360e-01
+7.866188e-01 +9.207223e-01 +9.718727e-01 +9.901892e-01
+9.965986e-01 +9.988232e-01 +9.995931e-01 +9.998594e-01
+9.999514e-01
[row +70]
-9.999861e-01 -9.999543e-01 -9.998503e-01 -9.995093e-01
-9.983918e-01 -9.947367e-01 -9.828450e-01 -9.448294e-01
-8.298019e-01 -5.325873e-01 +0.000000e+00 +5.325873e-01
+8.298019e-01 +9.448294e-01 +9.828450e-01 +9.947367e-01
+9.983918e-01 +9.995093e-01 +9.998503e-01 +9.999543e-01
+9.999861e-01
[row +71]
-9.999960e-01 -9.999852e-01 -9.999449e-01 -9.997954e-01
-9.992400e-01 -9.971793e-01 -9.895597e-01 -9.617519e-01
-8.649066e-01 -5.758624e-01 +0.000000e+00 +5.758624e-01
+8.649066e-01 +9.617519e-01 +9.895597e-01 +9.971793e-01
+9.992400e-01 +9.997954e-01 +9.999449e-01 +9.999852e-01
+9.999960e-01
[row +72]
-9.999989e-01 -9.999952e-01 -9.999797e-01 -9.999147e-01
-9.996409e-01 -9.984892e-01 -9.936546e-01 -9.735544e-01
-8.931933e-01 -6.161344e-01 +0.000000e+00 +6.161344e-01
+8.931933e-01 +9.735544e-01 +9.936546e-01 +9.984892e-01
+9.996409e-01 +9.999147e-01 +9.999797e-01 +9.999952e-01
+9.999989e-01
[row +73]
-9.999997e-01 -9.999984e-01 -9.999925e-01 -9.999644e-01
-9.998304e-01 -9.991910e-01 -9.961465e-01 -9.817487e-01
-9.158245e-01 -6.534236e-01 +0.000000e+00 +6.534236e-01
+9.158245e-01 +9.817487e-01 +9.961465e-01 +9.991910e-01
+9.998304e-01 +9.999644e-01 +9.999925e-01 +9.999984e-01
+9.999997e-01
[row +74]
-9.999999e-01 -9.999995e-01 -9.999973e-01 -9.999852e-01
-9.999199e-01 -9.995669e-01 -9.976610e-01 -9.874202e-01
-9.338280e-01 -6.877902e-01 +0.000000e+00 +6.877902e-01
+9.338280e-01 +9.874202e-01 +9.976610e-01 +9.995669e-01
+9.999199e-01 +9.999852e-01 +9.999973e-01 +9.999995e-01
+9.999999e-01
[row +75]
-1.000000e+00 -9.999998e-01 -9.999990e-01 -9.999938e-01
-9.999621e-01 -9.997682e-01 -9.985807e-01 -9.913370e-01
-9.480853e-01 -7.193275e-01 +0.000000e+00 +7.193275e-01
+9.480853e-01 +9.913370e-01 +9.985807e-01 +9.997682e-01
+9.999621e-01 +9.999938e-01 +9.999990e-01 +9.999998e-01
+1.000000e+00
[row +76]
-1.000000e+00 -9.999999e-01 -9.999996e-01 -9.999974e-01
-9.999821e-01 -9.998759e-01 -9.991389e-01 -9.940379e-01
-9.593353e-01 -7.481545e-01 +0.000000e+00 +7.481545e-01
+9.593353e-01 +9.940379e-01 +9.991389e-01 +9.998759e-01
+9.999821e-01 +9.999974e-01 +9.999996e-01 +9.999999e-01
+1.000000e+00
[row +77]
-1.000000e+00 -1.000000e+00 -9.999999e-01 -9.999989e-01
-9.999916e-01 -9.999336e-01 -9.994776e-01 -9.958985e-01
-9.681872e-01 -7.744092e-01 +0.000000e+00 +7.744092e-01
+9.681872e-01 +9.958985e-01 +9.994776e-01 +9.999336e-01
+9.999916e-01 +9.999989e-01 +9.999999e-01 +1.000000e+00
+1.000000e+00
[row +78]
-1.000000e+00 -1.000000e+00 -9.999999e-01 -9.999996e-01
-9.999960e-01 -9.999644e-01 -9.996831e-01 -9.971793e-01
-9.751367e-01 -7.982428e-01 +0.000000e+00 +7.982428e-01
+9.751367e-01 +9.971793e-01 +9.996831e-01 +9.999644e-01
+9.999960e-01 +9.999996e-01 +9.999999e-01 +1.000000e+00
+1.000000e+00
[row +79]
-1.000000e+00 -1.000000e+00 -1.000000e+00 -9.999998e-01
-9.999981e-01 -9.999810e-01 -9.998078e-01 -9.980605e-01
-9.805830e-01 -8.198140e-01 +0.000000e+00 +8.198140e-01
+9.805830e-01 +9.980605e-01 +9.998078e-01 +9.999810e-01
+9.999981e-01 +9.999998e-01 +1.000000e+00 +1.000000e+00
+1.000000e+00
[row +80]
-1.000000e+00 -1.000000e+00 -1.000000e+00 -9.999999e-01
-9.999991e-01 -9.999898e-01 -9.998834e-01 -9.986666e-01
-9.848455e-01 -8.392851e-01 +0.000000e+00 +8.392851e-01
+9.848455e-01 +9.986666e-01 +9.998834e-01 +9.999898e-01
+9.999991e-01 +9.999999e-01 +1.000000e+00 +1.000000e+00
+1.000000e+00
[row +81]
+1.000000e+00 +1.000000e+00 +1.000000e+00 +9.999999e-01
+9.999993e-01 +9.999913e-01 +9.998971e-01 +9.987858e-01
+9.857571e-01 +8.438437e-01 -0.000000e+00 -8.438437e-01
-9.857571e-01 -9.987858e-01 -9.998971e-01 -9.999913e-01
-9.999993e-01 -9.999999e-01 -1.000000e+00 -1.000000e+00
-1.000000e+00
[row +82]
+1.000000e+00 +1.000000e+00 +1.000000e+00 +9.999999e-01
+9.999984e-01 +9.999837e-01 +9.998304e-01 +9.982339e-01
+9.817487e-01 +8.248723e-01 -0.000000e+00 -8.248723e-01
-9.817487e-01 -9.982339e-01 -9.998304e-01 -9.999837e-01
-9.999984e-01 -9.999999e-01 -1.000000e+00 -1.000000e+00
-1.000000e+00
[row +83]
+1.000000e+00 +1.000000e+00 +1.000000e+00 +9.999996e-01
+9.999967e-01 +9.999696e-01 +9.997204e-01 +9.974314e-01
+9.766255e-01 +8.038414e-01 -0.000000e+00 -8.038414e-01
-9.766255e-01 -9.974314e-01 -9.997204e-01 -9.999696e-01
-9.999967e-01 -9.999996e-01 -1.000000e+00 -1.000000e+00
-1.000000e+00
[row +84]
+1.000000e+00 +1.000000e+00 +9.999999e-01 +9.999991e-01
+9.999930e-01 +9.999432e-01 +9.995390e-01 +9.962649e-01
+9.700858e-01 +7.805885e-01 -0.000000e+00 -7.805885e-01
-9.700858e-01 -9.962649e-01 -9.995390e-01 -9.999432e-01
-9.999930e-01 -9.999991e-01 -9.999999e-01 -1.000000e+00
-1.000000e+00
[row +85]
+1.000000e+00 +1.000000e+00 +9.999997e-01 +9.999979e-01
+9.999852e-01 +9.998938e-01 +9.992400e-01 +9.945700e-01
+9.617519e-01 +7.549536e-01 -0.000000e+00 -7.549536e-01
-9.617519e-01 -9.945700e-01 -9.992400e-01 -9.998938e-01
-9.999852e-01 -9.999979e-01 -9.999997e-01 -1.000000e+00
-1.000000e+00
[row +86]
+1.000000e+00 +9.999999e-01 +9.999992e-01 +9.999950e-01
+9.999686e-01 +9.998017e-01 +9.987473e-01 +9.921092e-01
+9.511538e-01 +7.267832e-01 -0.000000e+00 -7.267832e-01
-9.511538e-01 -9.921092e-01 -9.987473e-01 -9.998017e-01
-9.999686e-01 -9.999950e-01 -9.999992e-01 -9.999999e-01
-1.000000e+00
[row +87]
+9.999999e-01 +9.999996e-01 +9.999979e-01 +9.999881e-01
+9.999336e-01 +9.996295e-01 +9.979355e-01 +9.885395e-01
+9.377123e-01 +6.959355e-01 -0.000000e+00 -6.959355e-01
-9.377123e-01 -9.885395e-01 -9.979355e-01 -9.996295e-01
-9.999336e-01 -9.999881e-01 -9.999979e-01 -9.999996e-01
-9.999999e-01
[row +88]
+9.999998e-01 +9.999988e-01 +9.999942e-01 +9.999714e-01
+9.998594e-01 +9.993080e-01 +9.965986e-01 +9.833684e-01
+9.207223e-01 +6.622861e-01 -0.000000e+00 -6.622861e-01
-9.207223e-01 -9.833684e-01 -9.965986e-01 -9.993080e-01
-9.998594e-01 -9.999714e-01 -9.999942e-01 -9.999988e-01
-9.999998e-01
[row +89]
+9.999992e-01 +9.999964e-01 +9.999842e-01 +9.999315e-01
+9.997023e-01 +9.987076e-01 +9.943981e-01 +9.758924e-01
+8.993387e-01 +6.257346e-01 -0.000000e+00 -6.257346e-01
-8.993387e-01 -9.758924e-01 -9.943981e-01 -9.987076e-01
-9.997023e-01 -9.999315e-01 -9.999842e-01 -9.999964e-01
-9.999992e-01
[row +90]
+9.999971e-01 +9.999888e-01 +9.999571e-01 +9.998356e-01
+9.993699e-01 +9.975868e-01 +9.907809e-01 +9.651150e-01
+8.725700e-01 +5.862119e-01 -0.000000e+00 -5.862119e-01
-8.725700e-01 -9.651150e-01 -9.907809e-01 -9.975868e-01
-9.993699e-01 -9.998356e-01 -9.999571e-01 -9.999888e-01
-9.999971e-01
[row +91]
+9.999898e-01 +9.999655e-01 +9.998834e-01 +9.996057e-01
+9.986666e-01 +9.954963e-01 +9.848455e-01 +9.496423e-01
+8.392851e-01 +5.436870e-01 -0.000000e+00 -5.436870e-01
-8.392851e-01 -9.496423e-01 -9.848455e-01 -9.954963e-01
-9.986666e-01 -9.996057e-01 -9.998834e-01 -9.999655e-01
-9.999898e-01
[row +92]
+9.999644e-01 +9.998938e-01 +9.996831e-01 +9.990543e-01
+9.971793e-01 +9.916024e-01 +9.751367e-01 +9.275599e-01
+7.982428e-01 +4.981744e-01 -0.000000e+00 -4.981744e-01
-7.982428e-01 -9.275599e-01 -9.751367e-01 -9.916024e-01
-9.971793e-01 -9.990543e-01 -9.996831e-01 -9.998938e-01
-9.999644e-01
[row +93]
+9.998759e-01 +9.996731e-01 +9.991389e-01 +9.977329e-01
+9.940379e-01 +9.843682e-01 +9.593353e-01 +8.963091e-01
+7.481545e-01 +4.497406e-01 -0.000000e+00 -4.497406e-01
-7.481545e-01 -8.963091e-01 -9.593353e-01 -9.843682e-01
-9.940379e-01 -9.977329e-01 -9.991389e-01 -9.996731e-01
-9.998759e-01
[row +94]
+9.995669e-01 +9.989933e-01 +9.976610e-01 +9.945700e-01
+9.874202e-01 +9.709928e-01 +9.338280e-01 +8.526075e-01
+6.877902e-01 +3.985088e-01 -0.000000e+00 -3.985088e-01
-6.877902e-01 -8.526075e-01 -9.338280e-01 -9.709928e-01
-9.874202e-01 -9.945700e-01 -9.976610e-01 -9.989933e-01
-9.995669e-01
[row +95]
+9.984892e-01 +9.969025e-01 +9.936546e-01 +9.870235e-01
+9.735544e-01 +9.464814e-01 +8.931933e-01 +7.925027e-01
+6.161344e-01 +3.446634e-01 -0.000000e+00 -3.446634e-01
-6.161344e-01 -7.925027e-01 -8.931933e-01 -9.464814e-01
-9.735544e-01 -9.870235e-01 -9.936546e-01 -9.969025e-01
-9.984892e-01
[row +96]
+9.947367e-01 +9.904896e-01 +9.828450e-01 +9.691509e-01
+9.448294e-01 +9.022844e-01 +8.298019e-01 +7.117023e-01
+5.325873e-01 +2.884502e-01 -0.000000e+00 -2.884502e-01
-5.325873e-01 -7.117023e-01 -8.298019e-01 -9.022844e-01
-9.448294e-01 -9.691509e-01 -9.828450e-01 -9.904896e-01
-9.947367e-01
[row +97]
+9.817487e-01 +9.709928e-01 +9.540453e-01 +9.275599e-01
+8.866951e-01 +8.248723e-01 +7.340715e-01 +6.063476e-01
+4.371888e-01 +2.301757e-01 -0.000000e+00 -2.301757e-01
-4.371888e-01 -6.063476e-01 -7.340715e-01 -8.248723e-01
-8.866951e-01 -9.275599e-01 -9.540453e-01 -9.709928e-01
-9.817487e-01
[row +98]
+9.377123e-01 +9.132684e-01 +8.798267e-01 +8.346053e-01
+7.744092e-01 +6.959355e-01 +5.963736e-01 +4.743163e-01
+3.308211e-01 +1.702023e-01 -0.000000e+00 -1.702023e-01
-3.308211e-01 -4.743163e-01 -5.963736e-01 -6.959355e-01
-7.744092e-01 -8.346053e-01 -8.798267e-01 -9.132684e-01
-9.377123e-01
[row +99]
+7.982428e-01 +7.549536e-01 +7.039056e-01 +6.443783e-01
+5.758624e-01 +4.981744e-01 +4.115701e-01 +3.168350e-01
+2.153263e-01 +1.089409e-01 -0.000000e+00 -1.089409e-01
-2.153263e-01 -3.168350e-01 -4.115701e-01 -4.981744e-01
-5.758624e-01 -6.443783e-01 -7.039056e-01 -7.549536e-01
-7.982428e-01
[row +100]
+4.371888e-01 +3.985088e-01 +3.583574e-01 +3.168350e-01
+2.740616e-01 +2.301757e-01 +1.853332e-01 +1.397053e-01
+9.347630e-02 +4.684070e-02 -0.000000e+00 -4.684070e-02
-9.347630e-02 -1.397053e-01 -1.853332e-01 -2.301757e-01
-2.740616e-01 -3.168350e-01 -3.583574e-01 -3.985088e-01
-4.371888e-01
[row +101]
-1.549907e-01 -1.397053e-01 -1.243530e-01 -1.089409e-01
-9.347630e-02 -7.796644e-02 -6.241875e-02 -4.684070e-02
-3.123983e-02 -1.562373e-02 +0.000000e+00 +1.562373e-02
+3.123983e-02 +4.684070e-02 +6.241875e-02 +7.796644e-02
+9.347630e-02 +1.089409e-01 +1.243530e-01 +1.397053e-01
+1.549907e-01
[row +102]
-6.534236e-01 -6.063476e-01 -5.545997e-01 -4.981744e-01
-4.371888e-01 -3.718989e-01 -3.027097e-01 -2.301757e-01
-1.549907e-01 -7.796644e-02 +0.000000e+00 +7.796644e-02
+1.549907e-01 +2.301757e-01 +3.027097e-01 +3.718989e-01
+4.371888e-01 +4.981744e-01 +5.545997e-01 +6.063476e-01
+6.534236e-01
[row +103]
-8.866951e-01 -8.526075e-01 -8.093011e-01 -7.549536e-01
-6.877902e-01 -6.063476e-01 -5.098300e-01 -3.985088e-01
-2.740616e-01 -1.397053e-01 +0.000000e+00 +1.397053e-01
+2.740616e-01 +3.985088e-01 +5.098300e-01 +6.063476e-01
+6.877902e-01 +7.549536e-01 +8.093011e-01 +8.526075e-01
+8.866951e-01
[row +104]
-9.661702e-01 -9.496423e-01 -9.253462e-01 -8.899894e-01
-8.392851e-01 -7.680786e-01 -6.709671e-01 -5.436870e-01
-3.852840e-01 -2.003767e-01 +0.000000e+00 +2.003767e-01
+3.852840e-01 +5.436870e-01 +6.709671e-01 +7.680786e-01
+8.392851e-01 +8.899894e-01 +9.253462e-01 +9.496423e-01
+9.661702e-01
[row +105]
-9.901892e-01 -9.833684e-01 -9.718727e-01 -9.526211e-01
-9.207223e-01 -8.687903e-01 -7.866188e-01 -6.622861e-01
-4.863360e-01 -2.595492e-01 +0.000000e+00 +2.595492e-01
+4.863360e-01 +6.622861e-01 +7.866188e-01 +8.687903e-01
+9.207223e-01 +9.526211e-01 +9.718727e-01 +9.833684e-01
+9.901892e-01
[row +106]
-9.971793e-01 -9.945700e-01 -9.895597e-01 -9.799729e-01
-9.617519e-01 -9.275599e-01 -8.649066e-01 -7.549536e-01
-5.758624e-01 -3.168350e-01 +0.000000e+00 +3.168350e-01
+5.758624e-01 +7.549536e-01 +8.649066e-01 +9.275599e-01
+9.617519e-01 +9.799729e-01 +9.895597e-01 +9.945700e-01
+9.971793e-01
[row +107]
-9.991910e-01 -9.982339e-01 -9.961465e-01 -9.916024e-01
-9.817487e-01 -9.605617e-01 -9.158245e-01 -8.248723e-01
-6.534236e-01 -3.718989e-01 +0.000000e+00 +3.718989e-01
+6.534236e-01 +8.248723e-01 +9.158245e-01 +9.605617e-01
+9.817487e-01 +9.916024e-01 +9.961465e-01 +9.982339e-01
+9.991910e-01
[row +108]
-9.997682e-01 -9.994263e-01 -9.985807e-01 -9.964908e-01
-9.913370e-01 -9.786950e-01 -9.480853e-01 -8.762480e-01
-7.193275e-01 -4.244644e-01 +0.000000e+00 +4.244644e-01
+7.193275e-01 +8.762480e-01 +9.480853e-01 +9.786950e-01
+9.913370e-01 +9.964908e-01 +9.985807e-01 +9.994263e-01
+9.997682e-01
[row +109]
-9.999336e-01 -9.998137e-01 -9.994776e-01 -9.985356e-01
-9.958985e-01 -9.885395e-01 -9.681872e-01 -9.132684e-01
-7.744092e-01 -4.743163e-01 +0.000000e+00 +4.743163e-01
+7.744092e-01 +9.132684e-01 +9.681872e-01 +9.885395e-01
+9.958985e-01 +9.985356e-01 +9.994776e-01 +9.998137e-01
+9.999336e-01
[row +110]
-9.999810e-01 -9.999395e-01 -9.998078e-01 -9.993893e-01
-9.980605e-01 -9.938493e-01 -9.805830e-01 -9.395708e-01
-8.198140e-01 -5.213013e-01 +0.000000e+00 +5.213013e-01
+8.198140e-01 +9.395708e-01 +9.805830e-01 +9.938493e-01
+9.980605e-01 +9.993893e-01 +9.998078e-01 +9.999395e-01
+9.999810e-01
[row +111]
-9.999945e-01 -9.999804e-01 -9.999293e-01 -9.997454e-01
-9.990834e-01 -9.967030e-01 -9.881779e-01 -9.580715e-01
-8.568176e-01 -5.653250e-01 +0.000000e+00 +5.653250e-01
+8.568176e-01 +9.580715e-01 +9.881779e-01 +9.967030e-01
+9.990834e-01 +9.997454e-01 +9.999293e-01 +9.999804e-01
+9.999945e-01
[row +112]
-9.999984e-01 -9.999936e-01 -9.999740e-01 -9.998938e-01
-9.995669e-01 -9.982339e-01 -9.928128e-01 -9.709928e-01
-8.866951e-01 -6.063476e-01 +0.000000e+00 +6.063476e-01
+8.866951e-01 +9.709928e-01 +9.928128e-01 +9.982339e-01
+9.995669e-01 +9.998938e-01 +9.999740e-01 +9.999936e-01
+9.999984e-01
[row +113]
-9.999996e-01 -9.999979e-01 -9.999904e-01 -9.999557e-01
-9.997954e-01 -9.990543e-01 -9.956346e-01 -9.799729e-01
-9.106383e-01 -6.443783e-01 +0.000000e+00 +6.443783e-01
+9.106383e-01 +9.799729e-01 +9.956346e-01 +9.990543e-01
+9.997954e-01 +9.999557e-01 +9.999904e-01 +9.999979e-01
+9.999996e-01
[row +114]
-9.999999e-01 -9.999993e-01 -9.999965e-01 -9.999816e-01
-9.999033e-01 -9.994937e-01 -9.973500e-01 -9.861923e-01
-9.297103e-01 -6.794679e-01 +0.000000e+00 +6.794679e-01
+9.297103e-01 +9.861923e-01 +9.973500e-01 +9.994937e-01
+9.999033e-01 +9.999816e-01 +9.999965e-01 +9.999993e-01
+9.999999e-01
[row +115]
-1.000000e+00 -9.999998e-01 -9.999987e-01 -9.999923e-01
-9.999543e-01 -9.997290e-01 -9.983918e-01 -9.904896e-01
-9.448294e-01 -7.117023e-01 +0.000000e+00 +7.117023e-01
+9.448294e-01 +9.904896e-01 +9.983918e-01 +9.997290e-01
+9.999543e-01 +9.999923e-01 +9.999987e-01 +9.999998e-01
+1.000000e+00
[row +116]
-1.000000e+00 -9.999999e-01 -9.999995e-01 -9.999968e-01
-9.999784e-01 -9.998549e-01 -9.990243e-01 -9.934539e-01
-9.567693e-01 -7.411945e-01 +0.000000e+00 +7.411945e-01
+9.567693e-01 +9.934539e-01 +9.990243e-01 +9.998549e-01
+9.999784e-01 +9.999968e-01 +9.999995e-01 +9.999999e-01
+1.000000e+00
[row +117]
-1.000000e+00 -1.000000e+00 -9.999998e-01 -9.999987e-01
-9.999898e-01 -9.999223e-01 -9.994081e-01 -9.954963e-01
-9.661702e-01 -7.680786e-01 +0.000000e+00 +7.680786e-01
+9.661702e-01 +9.954963e-01 +9.994081e-01 +9.999223e-01
+9.999898e-01 +9.999987e-01 +9.999998e-01 +1.000000e+00
+1.000000e+00
[row +118]
-1.000000e+00 -1.000000e+00 -9.999999e-01 -9.999994e-01
-9.999952e-01 -9.999584e-01 -9.996409e-01 -9.969025e-01
-9.735544e-01 -7.925027e-01 +0.000000e+00 +7.925027e-01
+9.735544e-01 +9.969025e-01 +9.996409e-01 +9.999584e-01
+9.999952e-01 +9.999994e-01 +9.999999e-01 +1.000000e+00
+1.000000e+00
[row +119]
-1.000000e+00 -1.000000e+00 -1.000000e+00 -9.999998e-01
-9.999977e-01 -9.999777e-01 -9.997822e-01 -9.978701e-01
-9.793437e-01 -8.146244e-01 +0.000000e+00 +8.146244e-01
+9.793437e-01 +9.978701e-01 +9.997822e-01 +9.999777e-01
+9.999977e-01 +9.999998e-01 +1.000000e+00 +1.000000e+00
+1.000000e+00
[row +120]
-1.000000e+00 -1.000000e+00 -1.000000e+00 -9.999999e-01
-9.999989e-01 -9.999881e-01 -9.998679e-01 -9.985356e-01
-9.838760e-01 -8.346053e-01 +0.000000e+00 +8.346053e-01
+9.838760e-01 +9.985356e-01 +9.998679e-01 +9.999881e-01
+9.999989e-01 +9.999999e-01 +1.000000e+00 +1.000000e+00
+1.000000e+00
[row +121]
+1.000000e+00 +1.000000e+00 +1.000000e+00 +9.999999e-01
+9.999989e-01 +9.999881e-01 +9.998679e-01 +9.985356e-01
+9.838760e-01 +8.346053e-01 -0.000000e+00 -8.346053e-01
-9.838760e-01 -9.985356e-01 -9.998679e-01 -9.999881e-01
-9.999989e-01 -9.999999e-01 -1.000000e+00 -1.000000e+00
-1.000000e+00
[row +122]
+1.000000e+00 +1.000000e+00 +1.000000e+00 +9.999998e-01
+9.999977e-01 +9.999777e-01 +9.997822e-01 +9.978701e-01
+9.793437e-01 +8.146244e-01 -0.000000e+00 -8.146244e-01
-9.793437e-01 -9.978701e-01 -9.997822e-01 -9.999777e-01
-9.999977e-01 -9.999998e-01 -1.000000e+00 -1.000000e+00
-1.000000e+00
[row +123]
+1.000000e+00 +1.000000e+00 +9.999999e-01 +9.999994e-01
+9.999952e-01 +9.999584e-01 +9.996409e-01 +9.969025e-01
+9.735544e-01 +7.925027e-01 -0.000000e+00 -7.925027e-01
-9.735544e-01 -9.969025e-01 -9.996409e-01 -9.999584e-01
-9.999952e-01 -9.999994e-01 -9.999999e-01 -1.000000e+00
-1.000000e+00
[row +124]
+1.000000e+00 +1.000000e+00 +9.999998e-01 +9.999987e-01
+9.999898e-01 +9.999223e-01 +9.994081e-01 +9.954963e-01
+9.661702e-01 +7.680786e-01 -0.000000e+00 -7.680786e-01
-9.661702e-01 -9.954963e-01 -9.994081e-01 -9.999223e-01
-9.999898e-01 -9.999987e-01 -9.999998e-01 -1.000000e+00
-1.000000e+00
[row +125]
+1.000000e+00 +9.999999e-01 +9.999995e-01 +9.999968e-01
+9.999784e-01 +9.998549e-01 +9.990243e-01 +9.934539e-01
+9.567693e-01 +7.411945e-01 -0.000000e+00 -7.411945e-01
-9.567693e-01 -9.934539e-01 -9.990243e-01 -9.998549e-01
-9.999784e-01 -9.999968e-01 -9.999995e-01 -9.999999e-01
-1.000000e+00
[row +126]
+1.000000e+00 +9.999998e-01 +9.999987e-01 +9.999923e-01
+9.999543e-01 +9.997290e-01 +9.983918e-01 +9.904896e-01
+9.448294e-01 +7.117023e-01 -0.000000e+00 -7.117023e-01
-9.448294e-01 -9.904896e-01 -9.983918e-01 -9.997290e-01
-9.999543e-01 -9.999923e-01 -9.999987e-01 -9.999998e-01
-1.000000e+00
[row +127]
+9.999999e-01 +9.999993e-01 +9.999965e-01 +9.999816e-01
+9.999033e-01 +9.994937e-01 +9.973500e-01 +9.861923e-01
+9.297103e-01 +6.794679e-01 -0.000000e+00 -6.794679e-01
-9.297103e-01 -9.861923e-01 -9.973500e-01 -9.994937e-01
-9.999033e-01 -9.999816e-01 -9.999965e-01 -9.999993e-01
-9.999999e-01
[row +128]
+9.999996e-01 +9.999979e-01 +9.999904e-01 +9.999557e-01
+9.997954e-01 +9.990543e-01 +9.956346e-01 +9.799729e-01
+9.106383e-01 +6.443783e-01 -0.000000e+00 -6.443783e-01
-9.106383e-01 -9.799729e-01 -9.956346e-01 -9.990543e-01
-9.997954e-01 -9.999557e-01 -9.999904e-01 -9.999979e-01
-9.999996e-01
[row +129]
+9.999984e-01 +9.999936e-01 +9.999740e-01 +9.998938e-01
+9.995669e-01 +9.982339e-01 +9.928128e-01 +9.709928e-01
+8.866951e-01 +6.063476e-01 -0.000000e+00 -6.063476e-01
-8.866951e-01 -9.709928e-01 -9.928128e-01 -9.982339e-01
-9.995669e-01 -9.998938e-01 -9.999740e-01 -9.999936e-01
-9.999984e-01
[row +130]
+9.999945e-01 +9.999804e-01 +9.999293e-01 +9.997454e-01
+9.990834e-01 +9.967030e-01 +9.881779e-01 +9.580715e-01
+8.568176e-01 +5.653250e-01 -0.000000e+00 -5.653250e-01
-8.568176e-01 -9.580715e-01 -9.881779e-01 -9.967030e-01
-9.990834e-01 -9.997454e-01 -9.999293e-01 -9.999804e-01
-9.999945e-01
[row +131]
+9.999810e-01 +9.999395e-01 +9.998078e-01 +9.993893e-01
+9.980605e-01 +9.938493e-01 +9.805830e-01 +9.395708e-01
+8.198140e-01 +5.213013e-01 -0.000000e+00 -5.213013e-01
-8.198140e-01 -9.395708e-01 -9.805830e-01 -9.938493e-01
-9.980605e-01 -9.993893e-01 -9.998078e-01 -9.999395e-01
-9.999810e-01
[row +132]
+9.999336e-01 +9.998137e-01 +9.994776e-01 +9.985356e-01
+9.958985e-01 +9.885395e-01 +9.681872e-01 +9.132684e-01
+7.744092e-01 +4.743163e-01 -0.000000e+00 -4.743163e-01
-7.744092e-01 -9.132684e-01 -9.681872e-01 -9.885395e-01
-9.958985e-01 -9.985356e-01 -9.994776e-01 -9.998137e-01
-9.999336e-01
[row +133]
+9.997682e-01 +9.994263e-01 +9.985807e-01 +9.964908e-01
+9.913370e-01 +9.786950e-01 +9.480853e-01 +8.762480e-01
+7.193275e-01 +4.244644e-01 -0.000000e+00 -4.244644e-01
-7.193275e-01 -8.762480e-01 -9.480853e-01 -9.786950e-01
-9.913370e-01 -9.964908e-01 -9.985807e-01 -9.994263e-01
-9.997682e-01
[row +134]
+9.991910e-01 +9.982339e-01 +9.961465e-01 +9.916024e-01
+9.817487e-01 +9.605617e-01 +9.158245e-01 +8.248723e-01
+6.534236e-01 +3.718989e-01 -0.000000e+00 -3.718989e-01
-6.534236e-01 -8.248723e-01 -9.158245e-01 -9.605617e-01
-9.817487e-01 -9.916024e-01 -9.961465e-01 -9.982339e-01
-9.991910e-01
[row +135]
+9.971793e-01 +9.945700e-01 +9.895597e-01 +9.799729e-01
+9.617519e-01 +9.275599e-01 +8.649066e-01 +7.549536e-01
+5.758624e-01 +3.168350e-01 -0.000000e+00 -3.168350e-01
-5.758624e-01 -7.549536e-01 -8.649066e-01 -9.275599e-01
-9.617519e-01 -9.799729e-01 -9.895597e-01 -9.945700e-01
-9.971793e-01
[row +136]
+9.901892e-01 +9.833684e-01 +9.718727e-01 +9.526211e-01
+9.207223e-01 +8.687903e-01 +7.866188e-01 +6.622861e-01
+4.863360e-01 +2.595492e-01 -0.000000e+00 -2.595492e-01
-4.863360e-01 -6.622861e-01 -7.866188e-01 -8.687903e-01
-9.207223e-01 -9.526211e-01 -9.718727e-01 -9.833684e-01
-9.901892e-01
[row +137]
+9.661702e-01 +9.496423e-01 +9.253462e-01 +8.899894e-01
+8.392851e-01 +7.680786e-01 +6.709671e-01 +5.436870e-01
+3.852840e-01 +2.003767e-01 -0.000000e+00 -2.003767e-01
-3.852840e-01 -5.436870e-01 -6.709671e-01 -7.680786e-01
-8.392851e-01 -8.899894e-01 -9.253462e-01 -9.496423e-01
-9.661702e-01
[row +138]
+8.866951e-01 +8.526075e-01 +8.093011e-01 +7.549536e-01
+6.877902e-01 +6.063476e-01 +5.098300e-01 +3.985088e-01
+2.740616e-01 +1.397053e-01 -0.000000e+00 -1.397053e-01
-2.740616e-01 -3.985088e-01 -5.098300e-01 -6.063476e-01
-6.877902e-01 -7.549536e-01 -8.093011e-01 -8.526075e-01
-8.866951e-01
[row +139]
+6.534236e-01 +6.063476e-01 +5.545997e-01 +4.981744e-01
+4.371888e-01 +3.718989e-01 +3.027097e-01 +2.301757e-01
+1.549907e-01 +7.796644e-02 -0.000000e+00 -7.796644e-02
-1.549907e-01 -2.301757e-01 -3.027097e-01 -3.718989e-01
-4.371888e-01 -4.981744e-01 -5.545997e-01 -6.063476e-01
-6.534236e-01
[row +140]
+1.549907e-01 +1.397053e-01 +1.243530e-01 +1.089409e-01
+9.347630e-02 +7.796644e-02 +6.241875e-02 +4.684070e-02
+3.123983e-02 +1.562373e-02 -0.000000e+00 -1.562373e-02
-3.123983e-02 -4.684070e-02 -6.241875e-02 -7.796644e-02
-9.347630e-02 -1.089409e-01 -1.243530e-01 -1.397053e-01
-1.549907e-01
[row +141]
-4.371888e-01 -3.985088e-01 -3.583574e-01 -3.168350e-01
-2.740616e-01 -2.301757e-01 -1.853332e-01 -1.397053e-01
-9.347630e-02 -4.684070e-02 +0.000000e+00 +4.684070e-02
+9.347630e-02 +1.397053e-01 +1.853332e-01 +2.301757e-01
+2.740616e-01 +3.168350e-01 +3.583574e-01 +3.985088e-01
+4.371888e-01
[row +142]
-7.982428e-01 -7.549536e-01 -7.039056e-01 -6.443783e-01
-5.758624e-01 -4.981744e-01 -4.115701e-01 -3.168350e-01
-2.153263e-01 -1.089409e-01 +0.000000e+00 +1.089409e-01
+2.153263e-01 +3.168350e-01 +4.115701e-01 +4.981744e-01
+5.758624e-01 +6.443783e-01 +7.039056e-01 +7.549536e-01
+7.982428e-01
[row +143]
-9.377123e-01 -9.132684e-01 -8.798267e-01 -8.346053e-01
-7.744092e-01 -6.959355e-01 -5.963736e-01 -4.743163e-01
-3.308211e-01 -1.702023e-01 +0.000000e+00 +1.702023e-01
+3.308211e-01 +4.743163e-01 +5.963736e-01 +6.959355e-01
+7.744092e-01 +8.346053e-01 +8.798267e-01 +9.132684e-01
+9.377123e-01
[row +144]
-9.817487e-01 -9.709928e-01 -9.540453e-01 -9.275599e-01
-8.866951e-01 -8.248723e-01 -7.340715e-01 -6.063476e-01
-4.371888e-01 -2.301757e-01 +0.000000e+00 +2.301757e-01
+4.371888e-01 +6.063476e-01 +7.340715e-01 +8.248723e-01
+8.866951e-01 +9.275599e-01 +9.540453e-01 +9.709928e-01
+9.817487e-01
[row +145]
-9.947367e-01 -9.904896e-01 -9.828450e-01 -9.691509e-01
-9.448294e-01 -9.022844e-01 -8.298019e-01 -7.117023e-01
-5.325873e-01 -2.884502e-01 +0.000000e+00 +2.884502e-01
+5.325873e-01 +7.117023e-01 +8.298019e-01 +9.022844e-01
+9.448294e-01 +9.691509e-01 +9.828450e-01 +9.904896e-01
+9.947367e-01
[row +146]
-9.984892e-01 -9.969025e-01 -9.936546e-01 -9.870235e-01
-9.735544e-01 -9.464814e-01 -8.931933e-01 -7.925027e-01
-6.161344e-01 -3.446634e-01 +0.000000e+00 +3.446634e-01
+6.161344e-01 +7.925027e-01 +8.931933e-01 +9.464814e-01
+9.735544e-01 +9.870235e-01 +9.936546e-01 +9.969025e-01
+9.984892e-01
[row +147]
-9.995669e-01 -9.989933e-01 -9.976610e-01 -9.945700e-01
-9.874202e-01 -9.709928e-01 -9.338280e-01 -8.526075e-01
-6.877902e-01 -3.985088e-01 +0.000000e+00 +3.985088e-01
+6.877902e-01 +8.526075e-01 +9.338280e-01 +9.709928e-01
+9.874202e-01 +9.945700e-01 +9.976610e-01 +9.989933e-01
+9.995669e-01
[row +148]
-9.998759e-01 -9.996731e-01 -9.991389e-01 -9.977329e-01
-9.940379e-01 -9.843682e-01 -9.593353e-01 -8.963091e-01
-7.481545e-01 -4.497406e-01 +0.000000e+00 +4.497406e-01
+7.481545e-01 +8.963091e-01 +9.593353e-01 +9.843682e-01
+9.940379e-01 +9.977329e-01 +9.991389e-01 +9.996731e-01
+9.998759e-01
[row +149]
-9.999644e-01 -9.998938e-01 -9.996831e-01 -9.990543e-01
-9.971793e-01 -9.916024e-01 -9.751367e-01 -9.275599e-01
-7.982428e-01 -4.981744e-01 +0.000000e+00 +4.981744e-01
+7.982428e-01 +9.275599e-01 +9.751367e-01 +9.916024e-01
+9.971793e-01 +9.990543e-01 +9.996831e-01 +9.998938e-01
+9.999644e-01
[row +150]
-9.999898e-01 -9.999655e-01 -9.998834e-01 -9.996057e-01
-9.986666e-01 -9.954963e-01 -9.848455e-01 -9.496423e-01
-8.392851e-01 -5.436870e-01 +0.000000e+00 +5.436870e-01
+8.392851e-01 +9.496423e-01 +9.848455e-01 +9.954963e-01
+9.986666e-01 +9.996057e-01 +9.998834e-01 +9.999655e-01
+9.999898e-01
[row +151]
-9.999971e-01 -9.999888e-01 -9.999571e-01 -9.998356e-01
-9.993699e-01 -9.975868e-01 -9.907809e-01 -9.651150e-01
-8.725700e-01 -5.862119e-01 +0.000000e+00 +5.862119e-01
+8.725700e-01 +9.651150e-01 +9.907809e-01 +9.975868e-01
+9.993699e-01 +9.998356e-01 +9.999571e-01 +9.999888e-01
+9.999971e-01
[row +152]
-9.999992e-01 -9.999964e-01 -9.999842e-01 -9.999315e-01
-9.997023e-01 -9.987076e-01 -9.943981e-01 -9.758924e-01
-8.993387e-01 -6.257346e-01 +0.000000e+00 +6.257346e-01
+8.993387e-01 +9.758924e-01 +9.943981e-01 +9.987076e-01
+9.997023e-01 +9.999315e-01 +9.999842e-01 +9.999964e-01
+9.999992e-01
[row +153]
-9.999998e-01 -9.999988e-01 -9.999942e-01 -9.999714e-01
-9.998594e-01 -9.993080e-01 -9.965986e-01 -9.833684e-01
-9.207223e-01 -6.622861e-01 +0.000000e+00 +6.622861e-01
+9.207223e-01 +9.833684e-01 +9.965986e-01 +9.993080e-01
+9.998594e-01 +9.999714e-01 +9.999942e-01 +9.999988e-01
+9.999998e-01
[row +154]
-9.999999e-01 -9.999996e-01 -9.999979e-01 -9.999881e-01
-9.999336e-01 -9.996295e-01 -9.979355e-01 -9.885395e-01
-9.377123e-01 -6.959355e-01 +0.000000e+00 +6.959355e-01
+9.377123e-01 +9.885395e-01 +9.979355e-01 +9.996295e-01
+9.999336e-01 +9.999881e-01 +9.999979e-01 +9.999996e-01
+9.999999e-01
[row +155]
-1.000000e+00 -9.999999e-01 -9.999992e-01 -9.999950e-01
-9.999686e-01 -9.998017e-01 -9.987473e-01 -9.921092e-01
-9.511538e-01 -7.267832e-01 +0.000000e+00 +7.267832e-01
+9.511538e-01 +9.921092e-01 +9.987473e-01 +9.998017e-01
+9.999686e-01 +9.999950e-01 +9.999992e-01 +9.999999e-01
+1.000000e+00
[row +156]
-1.000000e+00 -1.000000e+00 -9.999997e-01 -9.999979e-01
-9.999852e-01 -9.998938e-01 -9.992400e-01 -9.945700e-01
-9.617519e-01 -7.549536e-01 +0.000000e+00 +7.549536e-01
+9.617519e-01 +9.945700e-01 +9.992400e-01 +9.998938e-01
+9.999852e-01 +9.999979e-01 +9.999997e-01 +1.000000e+00
+1.000000e+00
[row +157]
-1.000000e+00 -1.000000e+00 -9.999999e-01 -9.999991e-01
-9.999930e-01 -9.999432e-01 -9.995390e-01 -9.962649e-01
-9.700858e-01 -7.805885e-01 +0.000000e+00 +7.805885e-01
+9.700858e-01 +9.962649e-01 +9.995390e-01 +9.999432e-01
+9.999930e-01 +9.999991e-01 +9.999999e-01 +1.000000e+00
+1.000000e+00
[row +158]
-1.000000e+00 -1.000000e+00 -1.000000e+00 -9.999996e-01
-9.999967e-01 -9.999696e-01 -9.997204e-01 -9.974314e-01
-9.766255e-01 -8.038414e-01 +0.000000e+00 +8.038414e-01
+9.766255e-01 +9.974314e-01 +9.997204e-01 +9.999696e-01
+9.999967e-01 +9.999996e-01 +1.000000e+00 +1.000000e+00
+1.000000e+00
[row +159]
-1.000000e+00 -1.000000e+00 -1.000000e+00 -9.999999e-01
-9.999984e-01 -9.999837e-01 -9.998304e-01 -9.982339e-01
-9.817487e-01 -8.248723e-01 +0.000000e+00 +8.248723e-01
+9.817487e-01 +9.982339e-01 +9.998304e-01 +9.999837e-01
+9.999984e-01 +9.999999e-01 +1.000000e+00 +1.000000e+00
+1.000000e+00
[row +160]
-1.000000e+00 -1.000000e+00 -1.000000e+00 -9.999999e-01
-9.999993e-01 -9.999913e-01 -9.998971e-01 -9.987858e-01
-9.857571e-01 -8.438437e-01 +0.000000e+00 +8.438437e-01
+9.857571e-01 +9.987858e-01 +9.998971e-01 +9.999913e-01
+9.999993e-01 +9.999999e-01 +1.000000e+00 +1.000000e+00
+1.000000e+00
